<?xml version="1.0" encoding="UTF-8" standalone="no"?>
<svg
   xmlns:dc="http://purl.org/dc/elements/1.1/"
   xmlns:cc="http://creativecommons.org/ns#"
   xmlns:rdf="http://www.w3.org/1999/02/22-rdf-syntax-ns#"
   xmlns:svg="http://www.w3.org/2000/svg"
   xmlns="http://www.w3.org/2000/svg"
   viewBox="0 0 85.333336 85.333336"
   height="85.333336"
   width="85.333336"
   xml:space="preserve"
   id="svg2"
   version="1.1"><metadata
     id="metadata8"><rdf:RDF><cc:Work
         rdf:about=""><dc:format>image/svg+xml</dc:format><dc:type
           rdf:resource="http://purl.org/dc/dcmitype/StillImage" /></cc:Work></rdf:RDF></metadata><defs
     id="defs6"><clipPath
       id="clipPath18"
       clipPathUnits="userSpaceOnUse"><path
         id="path16"
         d="M 0,64 H 64 V 0 H 0 Z" /></clipPath><clipPath
       id="clipPath30"
       clipPathUnits="userSpaceOnUse"><path
         id="path28"
         d="M 0,64 H 64 V 0 H 0 Z" /></clipPath></defs><g
     transform="matrix(1.3333333,0,0,-1.3333333,0,85.333333)"
     id="g10"><g
       id="g12"><g
         clip-path="url(#clipPath18)"
         id="g14"><g
           transform="translate(64,32)"
           id="g20"><path
             id="path22"
             style="fill:#009fe3;fill-opacity:1;fill-rule:nonzero;stroke:none"
             d="m 0,0 c 0,-17.673 -14.327,-32 -32,-32 -17.673,0 -32,14.327 -32,32 0,17.673 14.327,32 32,32 C -14.327,32 0,17.673 0,0" /></g></g></g><g
       id="g24"><g
         clip-path="url(#clipPath30)"
         id="g26"><g
           transform="translate(29.9155,57.4253)"
           id="g32"><path
             id="path34"
             style="fill:#ffffff;fill-opacity:1;fill-rule:nonzero;stroke:none"
             d="m 0,0 h 0.584 c 0.771,0 1.403,-0.769 1.403,-1.706 l -0.501,-47.71 c 0,-0.937 -0.632,-1.706 -1.402,-1.706 H -0.5 c -0.771,0 -1.403,0.768 -1.403,1.706 l 0.501,47.71 C -1.402,-0.768 -0.771,0 0,0" /></g><g
           transform="translate(29.3374,54.082)"
           id="g36"><path
             id="path38"
             style="fill:#ffffff;fill-opacity:1;fill-rule:nonzero;stroke:none"
             d="m 0,0 h 18.749 l 3.968,-4.742 -3.968,-4.742 H 0" /></g><g
           transform="translate(31.4736,37.5698)"
           id="g40"><path
             id="path42"
             style="fill:#ffffff;fill-opacity:1;fill-rule:nonzero;stroke:none"
             d="m 0,0 h 11.138 l 3.968,-4.742 -3.968,-4.742 H 0" /></g><g
           transform="translate(28.8887,49.7378)"
           id="g44"><path
             id="path46"
             style="fill:#ffffff;fill-opacity:1;fill-rule:nonzero;stroke:none"
             d="m 0,0 h -12.975 l -3.968,-4.742 3.968,-4.742 H 0" /></g><g
           transform="translate(23.0117,46.519)"
           id="g48"><path
             id="path50"
             style="fill:#009fe3;fill-opacity:1;fill-rule:nonzero;stroke:none"
             d="m 0,0 c -0.35,-0.919 -0.696,-1.826 -1.042,-2.737 h 0.411 c 0.029,0.792 0.378,1.4 1.039,1.832 C 0.274,-0.607 0.14,-0.31 0,0 M -0.153,-2.74 H 1.236 C 1.025,-2.273 0.817,-1.812 0.606,-1.345 0.12,-1.687 -0.132,-2.146 -0.153,-2.74 m -0.295,2.91 h -3.673 c 0.876,-0.955 1.743,-1.899 2.613,-2.848 0.356,0.956 0.709,1.904 1.06,2.848 M 1.036,-1.153 C 1.043,-1.171 1.052,-1.189 1.06,-1.208 1.279,-1.695 1.499,-2.182 1.718,-2.67 1.754,-2.751 1.789,-2.834 1.814,-2.919 1.845,-3.019 1.806,-3.147 1.669,-3.167 1.581,-3.18 1.492,-3.192 1.403,-3.192 0.923,-3.19 0.442,-3.185 -0.038,-3.181 h -0.054 c 0.231,-0.872 1.159,-1.459 2.113,-1.16 0.938,0.294 1.421,1.318 1.044,2.23 -0.384,0.925 -1.366,1.186 -2.029,0.958 m -6.091,0.021 C -5.89,-1 -6.754,-1.54 -6.938,-2.454 c -0.178,-0.887 0.372,-1.735 1.238,-1.952 0.869,-0.219 1.768,0.302 2.009,1.171 0.242,0.872 -0.243,1.677 -0.911,1.966 -0.004,-0.014 -0.01,-0.028 -0.014,-0.043 -0.118,-0.375 -0.233,-0.752 -0.354,-1.127 -0.047,-0.148 -0.103,-0.294 -0.163,-0.437 -0.036,-0.087 -0.101,-0.113 -0.202,-0.1 -0.102,0.013 -0.182,0.091 -0.186,0.179 -0.004,0.067 -0.003,0.137 0.015,0.201 0.091,0.312 0.188,0.622 0.283,0.932 0.055,0.177 0.112,0.352 0.168,0.532 m 0.754,0.813 c -0.053,-0.168 -0.105,-0.327 -0.155,-0.485 1.094,-0.481 1.555,-1.689 1.172,-2.721 -0.377,-1.014 -1.416,-1.578 -2.45,-1.36 -1.082,0.229 -1.794,1.193 -1.705,2.288 0.033,0.406 0.174,0.774 0.419,1.099 0.245,0.327 0.558,0.566 0.937,0.715 0.38,0.15 0.772,0.18 1.175,0.114 0.058,0.189 0.114,0.375 0.172,0.56 0.126,0.405 0.249,0.812 0.381,1.215 0.043,0.133 0.105,0.261 0.167,0.386 0.116,0.235 0.314,0.357 0.572,0.37 0.278,0.014 0.555,0.016 0.833,0.023 0.008,0 0.015,-0.002 0.022,-0.003 v -0.43 c -0.067,0 -0.126,0.001 -0.186,0 C -3.134,1.448 -3.32,1.447 -3.507,1.438 -3.675,1.43 -3.799,1.351 -3.851,1.185 -3.909,1.001 -3.961,0.817 -4.018,0.625 h 0.221 c 0.954,0.003 1.909,0.005 2.863,0.007 0.211,0.001 0.423,0.002 0.635,0.001 0.033,0 0.048,0.01 0.059,0.042 0.041,0.122 0.085,0.243 0.131,0.372 -0.075,0.016 -0.148,0.032 -0.22,0.049 -0.2,0.046 -0.4,0.091 -0.598,0.139 -0.037,0.01 -0.071,0.03 -0.104,0.05 -0.038,0.024 -0.044,0.061 -0.031,0.102 0.02,0.06 0.041,0.077 0.091,0.077 H 0.813 0.868 C 0.874,1.322 0.88,1.184 0.887,1.036 c -0.041,0 -0.078,0 -0.116,0 C 0.655,1.034 0.539,1.031 0.423,1.031 0.393,1.031 0.377,1.023 0.367,0.993 0.329,0.88 0.286,0.77 0.247,0.658 0.241,0.64 0.24,0.614 0.248,0.597 0.439,0.168 0.632,-0.26 0.825,-0.689 0.829,-0.696 0.833,-0.702 0.832,-0.7 c 0.141,0.028 0.277,0.061 0.416,0.08 0.346,0.049 0.688,0.016 1.014,-0.112 0.737,-0.29 1.204,-0.823 1.363,-1.6 C 3.762,-3.006 3.594,-3.617 3.149,-4.145 2.858,-4.49 2.488,-4.714 2.052,-4.829 1.235,-5.042 0.347,-4.738 -0.17,-4.071 c -0.197,0.254 -0.333,0.536 -0.404,0.849 -0.007,0.032 -0.02,0.039 -0.049,0.039 -0.264,10e-4 -0.528,0.007 -0.792,0.005 -0.208,-0.002 -0.381,0.071 -0.52,0.222 -0.172,0.187 -0.342,0.377 -0.507,0.571 -0.562,0.659 -1.141,1.304 -1.735,1.934 -0.039,0.042 -0.078,0.083 -0.124,0.132" /></g><g
           transform="translate(38.4004,50.0967)"
           id="g52"><path
             id="path54"
             style="fill:#009fe3;fill-opacity:1;fill-rule:nonzero;stroke:none"
             d="M 0,0 C 0.661,-0.432 1.01,-1.04 1.039,-1.832 H 1.45 C 1.104,-0.92 0.758,-0.014 0.408,0.905 0.269,0.596 0.134,0.298 0,0 m -0.198,-0.439 c -0.211,-0.467 -0.419,-0.929 -0.63,-1.396 h 1.389 c -0.021,0.594 -0.273,1.053 -0.759,1.396 m 2.114,-1.333 c 0.87,0.948 1.737,1.893 2.613,2.847 H 0.856 c 0.351,-0.944 0.705,-1.891 1.06,-2.847 m -4.573,0.566 c -0.377,-0.912 0.105,-1.937 1.044,-2.23 0.954,-0.298 1.883,0.288 2.113,1.161 H 0.445 c -0.479,-0.005 -0.96,-0.011 -1.44,-0.012 -0.089,-10e-4 -0.178,0.013 -0.267,0.025 -0.136,0.02 -0.175,0.148 -0.144,0.248 0.025,0.085 0.06,0.168 0.096,0.249 0.219,0.488 0.439,0.975 0.659,1.463 0.007,0.018 0.015,0.036 0.023,0.054 -0.663,0.228 -1.645,-0.033 -2.029,-0.958 m 8.288,0.448 C 5.727,-1.069 5.823,-1.379 5.914,-1.691 5.933,-1.754 5.933,-1.825 5.93,-1.892 5.925,-1.98 5.845,-2.058 5.743,-2.071 c -0.1,-0.013 -0.166,0.013 -0.202,0.1 -0.06,0.143 -0.116,0.289 -0.163,0.436 -0.121,0.376 -0.236,0.753 -0.354,1.129 L 5.01,-0.364 C 4.342,-0.652 3.857,-1.458 4.099,-2.33 4.34,-3.199 5.238,-3.72 6.107,-3.501 6.974,-3.284 7.524,-2.436 7.346,-1.548 7.162,-0.635 6.298,-0.095 5.463,-0.227 5.52,-0.406 5.576,-0.582 5.631,-0.758 M 4.585,0.455 C 3.99,-0.176 3.412,-0.82 2.851,-1.48 2.686,-1.674 2.515,-1.863 2.343,-2.051 2.204,-2.202 2.031,-2.275 1.823,-2.273 1.56,-2.271 1.295,-2.277 1.031,-2.278 c -0.029,0 -0.043,-0.007 -0.05,-0.038 -0.07,-0.313 -0.206,-0.596 -0.403,-0.85 -0.516,-0.667 -1.405,-0.971 -2.222,-0.757 -0.436,0.114 -0.806,0.338 -1.097,0.683 -0.445,0.529 -0.613,1.139 -0.476,1.814 0.158,0.776 0.626,1.309 1.363,1.599 0.327,0.128 0.667,0.161 1.014,0.113 0.139,-0.019 0.275,-0.053 0.416,-0.081 -0.001,-0.002 0.003,0.004 0.007,0.011 0.192,0.429 0.386,0.857 0.577,1.286 C 0.168,1.52 0.167,1.545 0.161,1.563 0.122,1.675 0.079,1.786 0.041,1.898 0.03,1.929 0.016,1.937 -0.015,1.937 c -0.116,0 -0.232,0.002 -0.347,0.004 -0.038,0 -0.076,0 -0.117,0 0.006,0.148 0.013,0.286 0.019,0.429 h 0.055 1.784 C 1.429,2.37 1.449,2.353 1.47,2.292 1.483,2.251 1.477,2.214 1.438,2.19 1.406,2.17 1.371,2.149 1.335,2.141 1.137,2.092 0.937,2.047 0.737,2.001 0.665,1.984 0.592,1.969 0.517,1.952 0.562,1.824 0.607,1.702 0.648,1.58 0.659,1.548 0.674,1.538 0.707,1.538 c 0.212,0.002 0.424,0 0.635,0 C 2.296,1.535 3.251,1.533 4.205,1.531 H 4.426 C 4.369,1.722 4.316,1.907 4.259,2.09 4.207,2.256 4.083,2.335 3.915,2.343 3.729,2.352 3.542,2.353 3.355,2.357 c -0.06,10e-4 -0.12,0 -0.186,0 V 2.788 C 3.176,2.788 3.184,2.79 3.19,2.79 3.469,2.783 3.746,2.782 4.023,2.768 4.281,2.754 4.479,2.632 4.597,2.397 4.658,2.272 4.72,2.145 4.763,2.012 4.895,1.608 5.018,1.201 5.145,0.795 5.202,0.611 5.258,0.425 5.316,0.235 5.719,0.303 6.111,0.272 6.49,0.123 6.87,-0.027 7.183,-0.266 7.428,-0.592 7.673,-0.918 7.814,-1.286 7.848,-1.692 7.937,-2.787 7.224,-3.751 6.142,-3.98 5.108,-4.198 4.069,-3.634 3.692,-2.62 3.309,-1.588 3.771,-0.38 4.864,0.101 4.813,0.259 4.763,0.418 4.709,0.586 4.663,0.537 4.624,0.496 4.585,0.455" /></g><g
           transform="translate(35.5947,33.4463)"
           id="g56"><path
             id="path58"
             style="fill:#009fe3;fill-opacity:1;fill-rule:nonzero;stroke:none"
             d="M 0,0 C 0.661,-0.432 1.01,-1.04 1.039,-1.832 H 1.451 C 1.104,-0.921 0.759,-0.014 0.408,0.905 0.269,0.596 0.135,0.298 0,0 m -0.198,-0.439 c -0.211,-0.467 -0.419,-0.929 -0.63,-1.396 h 1.39 c -0.021,0.593 -0.274,1.053 -0.76,1.396 m 2.114,-1.333 c 0.871,0.948 1.737,1.893 2.613,2.847 H 0.856 c 0.352,-0.944 0.705,-1.892 1.06,-2.847 m -4.572,0.565 c -0.378,-0.911 0.105,-1.936 1.044,-2.229 0.954,-0.299 1.882,0.288 2.112,1.161 H 0.446 c -0.48,-0.005 -0.961,-0.011 -1.44,-0.012 -0.089,-10e-4 -0.179,0.012 -0.267,0.025 -0.136,0.02 -0.176,0.148 -0.145,0.248 0.025,0.085 0.06,0.168 0.096,0.249 0.219,0.488 0.439,0.975 0.659,1.463 0.007,0.018 0.015,0.036 0.024,0.054 -0.663,0.228 -1.645,-0.033 -2.029,-0.959 m 8.287,0.448 C 5.727,-1.069 5.823,-1.379 5.914,-1.691 5.933,-1.754 5.934,-1.825 5.93,-1.892 5.926,-1.98 5.845,-2.058 5.744,-2.071 5.643,-2.084 5.577,-2.058 5.541,-1.971 5.481,-1.828 5.426,-1.682 5.378,-1.535 5.258,-1.16 5.143,-0.783 5.024,-0.406 5.021,-0.392 5.015,-0.378 5.01,-0.364 4.343,-0.652 3.857,-1.458 4.1,-2.33 4.341,-3.199 5.239,-3.72 6.108,-3.501 6.975,-3.284 7.524,-2.436 7.347,-1.549 7.163,-0.635 6.298,-0.095 5.463,-0.228 5.52,-0.406 5.577,-0.582 5.631,-0.759 M 4.586,0.454 C 3.991,-0.176 3.412,-0.82 2.851,-1.48 2.686,-1.674 2.515,-1.863 2.343,-2.051 2.204,-2.202 2.031,-2.275 1.823,-2.273 1.56,-2.271 1.296,-2.277 1.031,-2.278 c -0.029,0 -0.042,-0.007 -0.05,-0.038 -0.07,-0.313 -0.206,-0.596 -0.402,-0.85 -0.517,-0.667 -1.405,-0.971 -2.223,-0.757 -0.436,0.114 -0.805,0.338 -1.096,0.683 -0.446,0.528 -0.614,1.139 -0.476,1.814 0.158,0.776 0.625,1.309 1.362,1.598 0.327,0.128 0.668,0.162 1.015,0.114 0.138,-0.019 0.275,-0.053 0.416,-0.081 -0.001,-0.002 0.003,0.004 0.006,0.011 0.193,0.429 0.386,0.857 0.577,1.286 C 0.168,1.52 0.168,1.545 0.161,1.563 0.123,1.675 0.08,1.786 0.042,1.898 0.031,1.929 0.016,1.937 -0.015,1.937 c -0.116,0 -0.231,0.002 -0.347,0.004 -0.038,0 -0.075,0 -0.117,0 0.007,0.148 0.013,0.286 0.02,0.429 h 0.054 c 0.594,0 1.189,0 1.784,-10e-4 C 1.43,2.369 1.45,2.353 1.47,2.292 1.483,2.251 1.478,2.213 1.439,2.19 1.406,2.17 1.372,2.149 1.336,2.141 1.137,2.092 0.937,2.047 0.737,2.001 0.665,1.984 0.593,1.969 0.518,1.952 0.563,1.824 0.607,1.702 0.648,1.58 0.659,1.548 0.675,1.538 0.708,1.538 c 0.211,10e-4 0.423,0 0.635,0 0.954,-0.003 1.908,-0.005 2.862,-0.007 0.071,-10e-4 0.142,0 0.222,0 C 4.369,1.722 4.317,1.907 4.26,2.09 4.207,2.256 4.084,2.335 3.915,2.343 3.729,2.352 3.542,2.353 3.355,2.357 c -0.059,10e-4 -0.12,0 -0.185,0 V 2.788 C 3.176,2.788 3.184,2.79 3.191,2.79 3.469,2.783 3.747,2.782 4.024,2.768 4.282,2.754 4.48,2.632 4.597,2.397 4.659,2.272 4.72,2.144 4.764,2.012 4.896,1.608 5.019,1.201 5.145,0.795 5.202,0.61 5.258,0.425 5.316,0.235 5.72,0.303 6.111,0.271 6.491,0.123 6.871,-0.027 7.184,-0.266 7.429,-0.592 7.673,-0.918 7.814,-1.286 7.848,-1.692 7.937,-2.787 7.225,-3.751 6.143,-3.98 5.108,-4.198 4.069,-3.634 3.692,-2.62 3.31,-1.588 3.771,-0.38 4.864,0.101 4.814,0.259 4.763,0.418 4.71,0.585 4.664,0.537 4.625,0.496 4.586,0.454" /></g></g></g></g></svg>