<?xml version="1.0" encoding="UTF-8" standalone="no"?>
<!-- Created with Inkscape (http://www.inkscape.org/) -->

<svg
   xmlns:dc="http://purl.org/dc/elements/1.1/"
   xmlns:cc="http://creativecommons.org/ns#"
   xmlns:rdf="http://www.w3.org/1999/02/22-rdf-syntax-ns#"
   xmlns:svg="http://www.w3.org/2000/svg"
   xmlns="http://www.w3.org/2000/svg"
   xmlns:sodipodi="http://sodipodi.sourceforge.net/DTD/sodipodi-0.dtd"
   xmlns:inkscape="http://www.inkscape.org/namespaces/inkscape"
   width="39.6875mm"
   height="39.6875mm"
   viewBox="0 0 39.687501 39.6875"
   version="1.1"
   id="svg1035"
   sodipodi:docname="informieren.svg"
   inkscape:version="0.92.3 (2405546, 2018-03-11)">
  <defs
     id="defs1029">
	

		
		
	</defs>
  <sodipodi:namedview
     id="base"
     pagecolor="#ffffff"
     bordercolor="#666666"
     borderopacity="1.0"
     inkscape:pageopacity="0.0"
     inkscape:pageshadow="2"
     inkscape:zoom="0.7"
     inkscape:cx="-579.38839"
     inkscape:cy="282.33274"
     inkscape:document-units="mm"
     inkscape:current-layer="layer1"
     showgrid="false"
     inkscape:snap-bbox="true"
     inkscape:bbox-nodes="true"
     inkscape:window-width="1920"
     inkscape:window-height="1015"
     inkscape:window-x="0"
     inkscape:window-y="0"
     inkscape:window-maximized="1"
     inkscape:snap-bbox-edge-midpoints="true"
     showguides="false"
     inkscape:object-paths="true"
     inkscape:snap-intersection-paths="true"
     inkscape:snap-smooth-nodes="true"
     inkscape:snap-global="false"
     fit-margin-top="0"
     fit-margin-left="0"
     fit-margin-right="0"
     fit-margin-bottom="0" />
  <metadata
     id="metadata1032">
    <rdf:RDF>
      <cc:Work
         rdf:about="">
        <dc:format>image/svg+xml</dc:format>
        <dc:type
           rdf:resource="http://purl.org/dc/dcmitype/StillImage" />
        <dc:title></dc:title>
      </cc:Work>
    </rdf:RDF>
  </metadata>
  <g
     inkscape:label="Layer 1"
     inkscape:groupmode="layer"
     id="layer1"
     style="opacity:1"
     transform="translate(-138.15015,-120.67415)">
    <path
       style="opacity:1;fill:#f68712;fill-opacity:1;stroke:none;stroke-width:0.26499999;stroke-linecap:round;stroke-linejoin:round;stroke-miterlimit:4;stroke-dasharray:none;stroke-dashoffset:0;stroke-opacity:1;paint-order:fill markers stroke"
       d="m 144.67016,120.67415 c -3.61214,0 -6.52001,2.90788 -6.52001,6.52001 v 26.64695 c 0,3.61213 2.90787,6.52054 6.52001,6.52054 h 26.64747 c 3.61213,0 6.52002,-2.90841 6.52002,-6.52054 v -26.64695 c 0,-3.61213 -2.90789,-6.52001 -6.52002,-6.52001 z m 20.80442,6.17998 c 0.41665,-0.007 0.85287,0.0589 1.35547,0.19637 1.36812,0.37428 2.44093,1.07648 3.82871,2.50734 1.08925,1.12305 1.84936,2.12564 2.88148,3.79977 2.50399,4.06159 3.59614,7.96216 2.91196,10.39885 -0.4293,1.52893 -1.49534,2.6247 -2.87682,2.95744 l -6.11746,1.00614 -0.42478,0.65526 -0.5271,0.59324 c 0,0 -0.39737,0.41101 -1.11363,0.84853 -0.58069,0.3472 -1.24488,0.5364 -1.24488,0.5364 l -0.92449,0.17622 c -1.12555,0.21465 -2.74192,-0.216 -3.99614,-1.02733 -0.57117,-0.3695 -0.6809,-0.40819 -0.99891,-0.35243 -0.2621,0.0459 -0.41491,0.11966 -0.57257,0.2775 -0.58047,0.58116 -1.61453,0.77664 -2.57039,0.48576 -0.67071,-0.2041 -1.07087,-0.47077 -1.74201,-1.16169 -1.33918,-1.37865 -2.55853,-3.84838 -2.6355,-5.33817 -0.0267,-0.51621 0.16113,-1.29451 0.42375,-1.75752 0.19814,-0.34933 0.29363,-0.4308 1.01079,-0.8599 l 0.7922,-0.47387 4.86895,-6.11074 c 5.34473,-6.70753 5.3677,-6.73227 6.43423,-7.11739 0.42361,-0.15296 0.82049,-0.23282 1.23714,-0.23978 z m -16.91266,0.0935 0.92397,18.80351 -4.85242,0.57102 -3.50883,-18.49861 z m 17.09559,1.99265 c -0.0603,-0.001 -0.11996,5.7e-4 -0.1788,0.005 -0.41611,0.0289 -0.71585,0.13517 -0.99322,0.35191 -0.22955,0.17938 -0.63562,0.70694 -0.63562,0.70694 l -10.11101,12.67623 -0.13332,-0.0558 c -0.37595,-0.15714 -0.57781,-0.11754 -0.71676,0.14056 -0.34062,0.63271 0.38887,2.61504 1.46813,3.98942 0.79364,1.01066 1.54064,1.46147 1.86914,1.12809 0.0602,-0.061 0.146,-0.3212 0.1664,-0.50384 l 0.0114,-0.10284 2.94711,-0.42168 c 0.0164,0.0111 0.10617,0.10532 0.19947,0.20981 0.66592,0.74558 1.65419,1.2541 2.67943,1.37873 0.46911,0.0571 1.01485,0.0283 1.37872,-0.0729 0.45251,-0.12588 1.06927,-0.48272 1.39837,-0.80873 0.17141,-0.16981 0.44186,-0.57489 0.51676,-0.77412 0.0792,-0.21074 0.12726,-0.47844 0.12764,-0.71106 1e-4,-0.11051 0.009,-0.20588 0.0191,-0.21188 l 7.24659,-1.15238 c 0,0 0.25115,-0.0585 0.33434,-0.0853 0.18318,-0.059 0.29731,-0.12099 0.46458,-0.2527 0.87109,-0.68587 1.06518,-2.14936 0.56017,-4.22868 -0.41709,-1.71736 -1.37309,-3.91142 -2.4753,-5.68182 -0.9563,-1.53602 -1.95488,-2.80493 -2.9745,-3.77962 -1.19008,-1.13765 -2.26356,-1.72757 -3.1688,-1.74304 z m -0.0243,1.73684 c 0.37168,-0.0123 1.19504,0.52035 1.98025,1.28054 0.97501,0.94394 1.7158,1.88116 2.65461,3.35846 0.74911,1.17876 1.51748,2.7399 1.9327,3.92689 0.20607,0.58906 0.24167,0.70331 0.36897,1.18546 0.30885,1.16976 0.38356,2.24799 0.17829,2.57297 -0.0504,0.0797 -0.0751,0.0924 -0.1757,0.0894 -0.44285,-0.0122 -1.39242,-0.68701 -2.32337,-1.65158 -0.41165,-0.4265 -0.51373,-0.54254 -0.91933,-1.04645 -0.68963,-0.85678 -1.06847,-1.42063 -1.75906,-2.61793 -0.73943,-1.28196 -0.95258,-1.72081 -1.41387,-2.90938 -0.22287,-0.57425 -0.24845,-0.64889 -0.42272,-1.24592 -0.31847,-1.09006 -0.45103,-2.19003 -0.32349,-2.67839 0.0493,-0.18886 0.10946,-0.26007 0.22272,-0.26407 z m -0.83095,15.27039 c 0.0195,0.0338 -0.0314,0.50161 -0.0641,0.58911 -0.0517,0.13829 -0.17568,0.31474 -0.30748,0.43873 -0.10301,0.0969 -0.51155,0.34856 -0.63355,0.39016 -0.0252,0.009 -0.10268,0.0349 -0.17208,0.0584 -0.16483,0.0559 -0.57055,0.11121 -0.84078,0.11421 -0.59085,0.007 -1.19442,-0.14388 -1.70428,-0.42478 -0.26592,-0.14651 -0.69233,-0.47773 -0.64803,-0.50333 z m -16.95349,3.35845 c 0.91593,-0.0373 1.70832,0.18704 2.37712,0.67283 0.79085,0.55206 1.2456,1.33182 1.36426,2.33939 0.11553,0.98107 -0.14557,1.84489 -0.78342,2.59209 -0.61446,0.71755 -1.46569,1.14063 -2.55281,1.26865 -1.06062,0.12491 -1.98625,-0.0887 -2.7771,-0.64078 -0.79397,-0.57858 -1.24872,-1.35832 -1.36425,-2.3394 -0.11866,-1.00757 0.14244,-1.87192 0.78341,-2.5926 0.64097,-0.72067 1.4922,-1.14324 2.55282,-1.26814 0.13589,-0.016 0.26913,-0.0267 0.39997,-0.032 z"
       id="rect1598-6-6-46-7"
       inkscape:connector-curvature="0" />
  </g>
  <g
     inkscape:groupmode="layer"
     id="layer6"
     inkscape:label="vector"
     transform="translate(-138.15015,-120.67415)" />
</svg>
