<?xml version="1.0" encoding="UTF-8" standalone="no"?>
<!-- Created with Inkscape (http://www.inkscape.org/) -->

<svg
   xmlns:dc="http://purl.org/dc/elements/1.1/"
   xmlns:cc="http://creativecommons.org/ns#"
   xmlns:rdf="http://www.w3.org/1999/02/22-rdf-syntax-ns#"
   xmlns:svg="http://www.w3.org/2000/svg"
   xmlns="http://www.w3.org/2000/svg"
   xmlns:sodipodi="http://sodipodi.sourceforge.net/DTD/sodipodi-0.dtd"
   xmlns:inkscape="http://www.inkscape.org/namespaces/inkscape"
   width="39.6875mm"
   height="39.6875mm"
   viewBox="0 0 39.687501 39.6875"
   version="1.1"
   id="svg1035"
   sodipodi:docname="radlbotschafter.svg"
   inkscape:version="0.92.3 (2405546, 2018-03-11)">
  <defs
     id="defs1029">
	

		
		
	</defs>
  <sodipodi:namedview
     id="base"
     pagecolor="#ffffff"
     bordercolor="#666666"
     borderopacity="1.0"
     inkscape:pageopacity="0.0"
     inkscape:pageshadow="2"
     inkscape:zoom="0.7"
     inkscape:cx="-227.95842"
     inkscape:cy="103.04719"
     inkscape:document-units="mm"
     inkscape:current-layer="layer1"
     showgrid="false"
     inkscape:snap-bbox="true"
     inkscape:bbox-nodes="true"
     inkscape:window-width="1920"
     inkscape:window-height="1015"
     inkscape:window-x="0"
     inkscape:window-y="0"
     inkscape:window-maximized="1"
     inkscape:snap-bbox-edge-midpoints="true"
     showguides="false"
     inkscape:object-paths="true"
     inkscape:snap-intersection-paths="true"
     inkscape:snap-smooth-nodes="true"
     inkscape:snap-global="false"
     fit-margin-top="0"
     fit-margin-left="0"
     fit-margin-right="0"
     fit-margin-bottom="0" />
  <metadata
     id="metadata1032">
    <rdf:RDF>
      <cc:Work
         rdf:about="">
        <dc:format>image/svg+xml</dc:format>
        <dc:type
           rdf:resource="http://purl.org/dc/dcmitype/StillImage" />
        <dc:title></dc:title>
      </cc:Work>
    </rdf:RDF>
  </metadata>
  <g
     inkscape:label="Layer 1"
     inkscape:groupmode="layer"
     id="layer1"
     style="opacity:1"
     transform="translate(-138.15015,-76.639986)">
    <path
       style="opacity:1;fill:#f68712;fill-opacity:1;stroke:none;stroke-width:1.00157475;stroke-linecap:round;stroke-linejoin:round;stroke-miterlimit:4;stroke-dasharray:none;stroke-dashoffset:0;stroke-opacity:1;paint-order:fill markers stroke"
       d="m 520.35547,164.34961 c -13.65215,0 -24.64258,10.99043 -24.64258,24.64258 v 100.71289 c 0,13.65214 10.99043,24.64453 24.64258,24.64453 h 100.71484 c 13.65215,0 24.64258,-10.99239 24.64258,-24.64453 V 188.99219 c 0,-13.65215 -10.99043,-24.64258 -24.64258,-24.64258 z m 17.01367,19.01562 c 14.29066,0 26.19848,8.21881 33.34375,19.96094 7.14531,-11.74213 19.05512,-19.96094 33.3457,-19.96094 20.24512,0 35.72657,15.26495 35.72657,35.22657 0,38.74912 -21.43677,44.62007 -69.07227,89.24023 -47.63543,-44.62016 -69.07031,-50.49111 -69.07031,-89.24023 0,-19.96162 15.48148,-35.22657 35.72656,-35.22657 z m 9.11133,18.53907 a 2.3378583,2.3378583 0 0 0 -0.84375,4.51562 l 6.67383,2.69727 -1.92578,4.77148 a 2.3378583,2.3378583 0 0 0 -0.3125,0.77735 l -1.81641,4.5 a 2.3378583,2.3378583 0 0 0 -0.29492,0.73242 l -2.17578,5.39258 c -1.61522,-0.41862 -3.30745,-0.64258 -5.05078,-0.64258 -11.11801,0 -20.18165,9.06357 -20.18165,20.18164 0,11.11797 9.06364,20.17773 20.18165,20.17773 11.11799,0 20.18164,-9.05976 20.18164,-20.17773 0,-7.72315 -4.37621,-14.45312 -10.77344,-17.84375 l 0.96094,-2.38672 20.66601,20.95898 a 2.3378583,2.3378583 0 0 0 2.54883,1.04493 l 6.27734,-0.0215 c 0.89477,10.29999 9.56965,18.42578 20.09571,18.42578 11.11804,0 20.18164,-9.06169 20.18164,-20.17969 0,-11.11805 -9.0636,-20.18164 -20.18164,-20.18164 -4.49526,0 -8.63997,1.50018 -12,4 l -4.19141,-4.72265 3.35352,-8.33203 h 1.56445 a 2.3378583,2.3378583 0 1 0 0,-4.66992 h -2.76172 a 2.3378583,2.3378583 0 0 0 -0.44727,-0.0273 2.3378583,2.3378583 0 0 0 -0.28515,0.0273 h -7.46289 a 2.3378583,2.3378583 0 1 0 0,4.66992 h 4.35547 l -3.15821,7.84179 a 2.3385319,2.3385319 0 0 0 -0.041,0.10547 l -3.16992,7.87305 -21.24024,-16.98828 2.30664,-5.72852 a 2.3378583,2.3378583 0 0 0 -1.29101,-3.04101 l -8.83594,-3.56836 a 2.3378583,2.3378583 0 0 0 -0.90625,-0.18164 z m 6.89844,17.04882 21.24414,16.98438 -1.67188,4.15625 -19.94336,-20.21875 z m 29.16992,9.81641 2.72851,3.07227 c -2.37139,2.80964 -3.99632,6.26709 -4.55078,10.06836 l -3.47265,0.01 2.13281,-5.29883 a 2.3378583,2.3378583 0 0 0 0.42773,-1.06054 z m -41.81445,0.42969 c 1.14386,0 2.2553,0.13028 3.32812,0.36133 l -5.75195,14.25586 a 2.3402342,2.3402342 0 1 0 4.34179,1.74804 l 5.78125,-14.33984 c 4.73813,2.67888 7.93164,7.7536 7.93164,13.60547 0,8.65724 -6.97363,15.62695 -15.63085,15.62695 -8.65728,0 -15.6211,-6.96971 -15.6211,-15.62695 0,-8.65727 6.96382,-15.63087 15.6211,-15.63086 z m 59.95703,0 c 8.65727,0 15.63089,6.97359 15.63086,15.63086 0,8.65724 -6.97359,15.62695 -15.63086,15.62695 -8.06831,0 -14.66611,-6.057 -15.52735,-13.88867 l 14.20117,-0.0469 a 2.3378583,2.3378583 0 0 0 1.74219,-3.89062 l -9.40234,-10.5918 c 2.54026,-1.78468 5.63302,-2.83984 8.98633,-2.83984 z m -12.36719,6.07812 5.84961,6.58789 -8.82617,0.0293 c 0.46518,-2.46332 1.50594,-4.71307 2.97656,-6.61719 z"
       transform="matrix(0.26458333,0,0,0.26458333,6.9927821,33.155819)"
       id="rect1598-6-6-46"
       inkscape:connector-curvature="0" />
  </g>
  <g
     inkscape:groupmode="layer"
     id="layer6"
     inkscape:label="vector"
     transform="translate(-138.15015,-76.639986)" />
</svg>
