<?xml version="1.0" encoding="UTF-8" standalone="no"?>
<!-- Created with Inkscape (http://www.inkscape.org/) -->

<svg
   xmlns:dc="http://purl.org/dc/elements/1.1/"
   xmlns:cc="http://creativecommons.org/ns#"
   xmlns:rdf="http://www.w3.org/1999/02/22-rdf-syntax-ns#"
   xmlns:svg="http://www.w3.org/2000/svg"
   xmlns="http://www.w3.org/2000/svg"
   xmlns:sodipodi="http://sodipodi.sourceforge.net/DTD/sodipodi-0.dtd"
   xmlns:inkscape="http://www.inkscape.org/namespaces/inkscape"
   version="1.1"
   id="svg2"
   xml:space="preserve"
   width="640.81824"
   height="302.54013"
   viewBox="0 0 640.81823 302.54013"
   sodipodi:docname="foo.svg"
   inkscape:version="0.92.4 (5da689c313, 2019-01-14)"><metadata
     id="metadata8"><rdf:RDF><cc:Work
         rdf:about=""><dc:format>image/svg+xml</dc:format><dc:type
           rdf:resource="http://purl.org/dc/dcmitype/StillImage" /><dc:title></dc:title></cc:Work></rdf:RDF></metadata><defs
     id="defs6"><clipPath
       clipPathUnits="userSpaceOnUse"
       id="clipPath22"><path
         d="M 0,283.465 H 566.929 V 0 H 0 Z"
         id="path20"
         inkscape:connector-curvature="0" /></clipPath></defs><sodipodi:namedview
     pagecolor="#ffffff"
     bordercolor="#666666"
     borderopacity="1"
     objecttolerance="10"
     gridtolerance="10"
     guidetolerance="10"
     inkscape:pageopacity="0"
     inkscape:pageshadow="2"
     inkscape:window-width="1366"
     inkscape:window-height="768"
     id="namedview4"
     showgrid="false"
     inkscape:zoom="0.6244157"
     inkscape:cx="54.560267"
     inkscape:cy="151.27053"
     inkscape:window-x="0"
     inkscape:window-y="0"
     inkscape:window-maximized="0"
     inkscape:current-layer="g10" /><g
     id="g10"
     inkscape:groupmode="layer"
     inkscape:label="Radentscheid-Augsburg_Logo_Fahrradstadt-JETZT_Button_CMYK"
     transform="matrix(1.3333333,0,0,-1.3333333,-57.543865,340.24626)"><g
       id="g12"
       transform="translate(236.3303,80.157)"><path
         d="M 0,0 4.5,14.076 H 4.664 L 9.164,0 Z M 8.725,23.268 H 0.521 l -12.155,-34.737 -2.853,-0.412 v -4.801 h 13.609 v 4.801 l -2.771,0.494 1.756,5.489 h 12.95 l 1.756,-5.489 -2.771,-0.494 v -4.801 h 13.609 v 4.801 l -2.853,0.412 z"
         style="fill:#00adef;fill-opacity:1;fill-rule:nonzero;stroke:none"
         id="path14"
         inkscape:connector-curvature="0" /></g><g
       id="g16"><g
         id="g18"
         clip-path="url(#clipPath22)"><g
           id="g24"
           transform="translate(282.4489,98.5955)"><path
             d="m 0,0 4.253,-0.823 v -20.853 c 0,-2.652 -0.713,-4.628 -2.14,-5.927 -1.427,-1.298 -3.393,-1.948 -5.9,-1.948 -2.469,0 -4.413,0.655 -5.83,1.962 -1.418,1.308 -2.127,3.279 -2.127,5.913 V -0.823 L -7.463,0 v 4.829 h -4.281 -8.011 -4.253 V 0 l 4.253,-0.823 v -20.853 c 0,-4.481 1.467,-7.938 4.403,-10.372 2.936,-2.432 6.791,-3.648 11.565,-3.648 4.793,0 8.666,1.216 11.62,3.648 2.955,2.434 4.432,5.891 4.432,10.372 V -0.823 L 16.545,0 V 4.829 H 0 Z"
             style="fill:#00adef;fill-opacity:1;fill-rule:nonzero;stroke:none"
             id="path26"
             inkscape:connector-curvature="0" /></g><g
           id="g28"
           transform="translate(319.0339,77.6326)"><path
             d="M 0,0 5.707,-0.438 V -7.216 C 5.14,-7.582 4.358,-7.901 3.361,-8.176 c -0.997,-0.274 -2.3,-0.412 -3.91,-0.412 -3.585,0 -6.329,1.212 -8.231,3.636 -1.903,2.424 -2.854,5.666 -2.854,9.726 v 1.427 c 0,4.171 0.97,7.546 2.909,10.125 1.939,2.579 4.655,3.869 8.149,3.869 1.555,0 2.931,-0.187 4.129,-0.562 1.198,-0.375 2.163,-0.874 2.895,-1.496 l 1.125,-5.35 H 13.5 v 8.039 c -1.72,1.701 -3.874,3.05 -6.462,4.047 -2.588,0.997 -5.447,1.495 -8.575,1.495 -5.378,0 -9.735,-1.875 -13.074,-5.624 -3.338,-3.75 -5.007,-8.616 -5.007,-14.598 V 4.774 c 0,-5.78 1.692,-10.476 5.076,-14.088 3.384,-3.614 7.774,-5.419 13.17,-5.419 3.805,0 6.951,0.516 9.439,1.549 2.488,1.034 4.381,2.191 5.68,3.471 V 5.625 H 0 Z"
             style="fill:#00adef;fill-opacity:1;fill-rule:nonzero;stroke:none"
             id="path30"
             inkscape:connector-curvature="0" /></g><g
           id="g32"
           transform="translate(363.8161,81.8855)"><path
             d="m 0,0 c -2.277,2.013 -5.62,3.632 -10.029,4.857 -3.073,0.969 -5.236,1.889 -6.489,2.757 -1.253,0.869 -1.879,1.981 -1.879,3.334 0,1.464 0.599,2.657 1.797,3.581 1.198,0.924 2.894,1.386 5.09,1.386 1.5,0 2.917,-0.165 4.253,-0.494 1.335,-0.329 2.35,-0.714 3.045,-1.152 L -3.169,8.78 H 2.84 v 8.177 c -1.719,1.555 -3.841,2.799 -6.366,3.731 -2.524,0.934 -5.323,1.4 -8.396,1.4 -4.152,-0.055 -7.6,-1.111 -10.344,-3.169 -2.744,-2.058 -4.116,-4.705 -4.116,-7.943 0,-3.275 1.216,-5.854 3.65,-7.738 2.432,-1.884 6.018,-3.512 10.755,-4.884 2.726,-0.823 4.633,-1.701 5.721,-2.634 1.089,-0.933 1.632,-2.167 1.632,-3.704 0,-1.5 -0.571,-2.699 -1.714,-3.594 -1.143,-0.897 -2.813,-1.345 -5.008,-1.345 -1.701,0 -3.242,0.215 -4.623,0.645 -1.381,0.429 -2.474,0.974 -3.279,1.632 l -0.851,5.68 h -6.2 v -8.341 c 1.701,-1.774 3.827,-3.165 6.379,-4.171 2.552,-1.005 5.41,-1.508 8.574,-1.508 4.427,0 7.994,0.987 10.701,2.963 2.708,1.975 4.061,4.673 4.061,8.094 C 3.416,-4.655 2.277,-2.012 0,0"
             style="fill:#00adef;fill-opacity:1;fill-rule:nonzero;stroke:none"
             id="path34"
             inkscape:connector-curvature="0" /></g><g
           id="g36"
           transform="translate(393.9675,71.0066)"><path
             d="m 0,0 c -1.115,-0.924 -2.734,-1.386 -4.856,-1.386 h -7.381 v 11.525 h 7.984 c 2.049,0 3.549,-0.517 4.5,-1.551 C 1.198,7.555 1.674,6.06 1.674,4.103 1.674,2.291 1.116,0.924 0,0 m -12.237,26.245 h 5.487 c 2.305,0 4.038,-0.439 5.2,-1.317 1.161,-0.878 1.742,-2.241 1.742,-4.088 0,-1.684 -0.576,-2.964 -1.728,-3.842 -1.152,-0.878 -2.799,-1.317 -4.939,-1.317 h -5.762 z M 2.47,13.239 c 1.865,0.732 3.288,1.824 4.266,3.279 0.979,1.454 1.468,3.105 1.468,4.953 0,3.639 -1.317,6.375 -3.951,8.204 -2.634,1.829 -6.302,2.743 -11.003,2.743 h -13.499 -4.253 v -4.829 l 4.253,-0.823 V -1.907 l -4.253,-0.823 v -4.801 h 19.646 c 4.627,0 8.204,0.982 10.728,2.949 2.524,1.967 3.786,4.861 3.786,8.685 0,2.212 -0.598,4.161 -1.797,5.843 -1.198,1.683 -2.995,2.781 -5.391,3.293"
             style="fill:#00adef;fill-opacity:1;fill-rule:nonzero;stroke:none"
             id="path38"
             inkscape:connector-curvature="0" /></g><g
           id="g40"
           transform="translate(428.4392,98.5955)"><path
             d="m 0,0 4.253,-0.823 v -20.853 c 0,-2.652 -0.714,-4.628 -2.141,-5.927 -1.426,-1.298 -3.392,-1.948 -5.898,-1.948 -2.47,0 -4.413,0.655 -5.831,1.962 -1.418,1.308 -2.126,3.279 -2.126,5.913 V -0.823 L -7.463,0 v 4.829 h -4.28 -8.013 -4.253 V 0 l 4.253,-0.823 v -20.853 c 0,-4.481 1.469,-7.938 4.404,-10.372 2.936,-2.432 6.791,-3.648 11.566,-3.648 4.792,0 8.666,1.216 11.62,3.648 2.954,2.434 4.431,5.891 4.431,10.372 V -0.823 L 16.545,0 V 4.829 H 0 Z"
             style="fill:#00adef;fill-opacity:1;fill-rule:nonzero;stroke:none"
             id="path42"
             inkscape:connector-curvature="0" /></g><g
           id="g44"
           transform="translate(469.8581,87.2361)"><path
             d="m 0,0 c -1.116,-0.951 -2.79,-1.427 -5.021,-1.427 h -5.542 v 11.443 h 5.679 c 2.158,0 3.791,-0.536 4.898,-1.606 C 1.12,7.34 1.674,5.908 1.674,4.116 1.674,2.323 1.115,0.951 0,0 m 10.454,-17.931 c -0.348,0.485 -0.521,1.166 -0.521,2.044 v 2.031 c 0,2.396 -0.517,4.404 -1.551,6.023 -1.033,1.618 -2.73,2.775 -5.09,3.471 2.086,0.915 3.668,2.112 4.747,3.594 1.079,1.482 1.619,3.229 1.619,5.241 0,3.658 -1.29,6.525 -3.869,8.601 -2.579,2.076 -6.137,3.114 -10.673,3.114 h -13.692 -4.253 v -4.829 l 4.253,-0.823 v -28.673 l -4.253,-0.823 v -4.801 h 16.546 v 4.801 l -4.28,0.823 V -7.6 h 6.557 c 1.884,-0.055 3.343,-0.635 4.376,-1.743 1.033,-1.106 1.551,-2.629 1.551,-4.568 v -2.277 c 0,-2.232 0.53,-4.052 1.591,-5.46 1.061,-1.409 2.899,-2.113 5.515,-2.113 h 4.143 v 4.829 l -0.987,0.137 c -0.805,0.092 -1.381,0.38 -1.729,0.864"
             style="fill:#00adef;fill-opacity:1;fill-rule:nonzero;stroke:none"
             id="path46"
             inkscape:connector-curvature="0" /></g><g
           id="g48"
           transform="translate(503.3933,77.6326)"><path
             d="M 0,0 5.707,-0.438 V -7.216 C 5.141,-7.582 4.358,-7.901 3.361,-8.176 2.364,-8.45 1.062,-8.588 -0.549,-8.588 c -3.585,0 -6.329,1.212 -8.231,3.636 -1.903,2.424 -2.854,5.666 -2.854,9.726 v 1.427 c 0,4.171 0.97,7.546 2.908,10.125 1.94,2.579 4.657,3.869 8.15,3.869 1.555,0 2.931,-0.187 4.13,-0.562 1.198,-0.375 2.163,-0.874 2.894,-1.496 l 1.125,-5.35 H 13.5 v 8.039 c -1.72,1.701 -3.874,3.05 -6.462,4.047 -2.588,0.997 -5.446,1.495 -8.574,1.495 -5.378,0 -9.736,-1.875 -13.074,-5.624 -3.339,-3.75 -5.008,-8.616 -5.008,-14.598 V 4.774 c 0,-5.78 1.692,-10.476 5.076,-14.088 3.384,-3.614 7.774,-5.419 13.17,-5.419 3.805,0 6.951,0.516 9.439,1.549 2.488,1.034 4.381,2.191 5.68,3.471 V 5.625 H 0 Z"
             style="fill:#00adef;fill-opacity:1;fill-rule:nonzero;stroke:none"
             id="path50"
             inkscape:connector-curvature="0" /></g><g
           id="g52"
           transform="translate(245.2502,211.5525)"><path
             d="m 0,0 c -1.262,1.174 -3.216,1.762 -5.863,1.762 h -7.336 v -13.043 h 6.81 c 2.892,0 4.996,0.552 6.311,1.657 1.314,1.104 1.972,2.717 1.972,4.838 C 1.894,-2.771 1.262,-1.175 0,0"
             style="fill:#f68712;fill-opacity:1;fill-rule:nonzero;stroke:none"
             id="path54"
             inkscape:connector-curvature="0" /></g><g
           id="g56"
           transform="translate(276.549,210.7371)"><path
             d="M 0,0 -6.048,-16.435 H 6.1 L 0.158,0 Z"
             style="fill:#f68712;fill-opacity:1;fill-rule:nonzero;stroke:none"
             id="path58"
             inkscape:connector-curvature="0" /></g><g
           id="g60"
           transform="translate(313.7146,213.3143)"><path
             d="M 0,0 H -6.573 V -30.16 H 0 c 3.541,0 6.333,1.165 8.375,3.497 2.042,2.331 3.064,5.32 3.064,8.966 v 5.286 c 0,3.61 -1.022,6.582 -3.064,8.914 C 6.333,-1.166 3.541,0 0,0"
             style="fill:#f68712;fill-opacity:1;fill-rule:nonzero;stroke:none"
             id="path62"
             inkscape:connector-curvature="0" /></g><g
           id="g64"
           transform="translate(330.3332,195.617)"><path
             d="m 0,0 c 0,-4.891 -1.521,-8.865 -4.562,-11.925 -3.042,-3.058 -7.06,-4.588 -12.057,-4.588 h -16.039 v 3.314 l 4.286,0.736 v 30.16 l -4.286,0.737 v 3.338 h 4.286 11.753 c 4.997,0 9.015,-1.538 12.057,-4.614 C -1.521,14.082 0,10.106 0,5.233 Z m -35.483,-16.513 h -10.991 v 3.314 l 2.892,0.499 -2.524,7.047 h -15.331 l -2.603,-7.047 2.893,-0.499 v -3.314 h -10.964 v 3.314 l 2.84,0.394 13.383,34.577 h 4.444 l 13.147,-34.577 2.814,-0.394 z m -39.449,0 h -2.788 c -2.015,0 -3.448,0.701 -4.299,2.104 -0.851,1.402 -1.276,3.102 -1.276,5.101 v 2.971 c 0,2.086 -0.603,3.761 -1.814,5.023 -1.208,1.262 -2.83,1.893 -4.864,1.893 h -8.309 v -13.042 l 4.286,-0.736 v -3.314 h -13.753 v 3.314 l 4.287,0.736 v 30.16 l -4.287,0.737 v 3.312 h 4.287 12.516 c 4.173,0 7.371,-0.925 9.598,-2.773 2.225,-1.85 3.34,-4.475 3.34,-7.876 0,-1.859 -0.519,-3.506 -1.552,-4.944 -1.035,-1.437 -2.515,-2.568 -4.443,-3.391 2.085,-0.684 3.587,-1.798 4.508,-3.34 0.921,-1.543 1.381,-3.444 1.381,-5.706 V -9.36 c 0,-1.175 0.148,-2.042 0.447,-2.604 0.297,-0.561 0.788,-0.893 1.473,-0.999 l 1.262,-0.158 z M 7.236,29.55 H -114.389 V -23.139 H 7.236 Z"
             style="fill:#f68712;fill-opacity:1;fill-rule:nonzero;stroke:none"
             id="path66"
             inkscape:connector-curvature="0" /></g><g
           id="g68"
           transform="translate(500.3445,156.3406)"><path
             d="M 0,0 H -6.573 V -30.16 H 0 c 3.541,0 6.332,1.165 8.375,3.497 2.042,2.331 3.063,5.32 3.063,8.967 v 5.285 c 0,3.611 -1.021,6.582 -3.063,8.914 C 6.332,-1.166 3.541,0 0,0"
             style="fill:#f68712;fill-opacity:1;fill-rule:nonzero;stroke:none"
             id="path70"
             inkscape:connector-curvature="0" /></g><g
           id="g72"
           transform="translate(516.9626,138.6443)"><path
             d="m 0,0 c 0,-4.892 -1.521,-8.866 -4.562,-11.926 -3.041,-3.058 -7.06,-4.588 -12.056,-4.588 h -16.04 v 3.314 l 4.286,0.736 v 30.16 l -4.286,0.737 v 3.338 h 4.286 11.754 c 4.996,0 9.015,-1.538 12.056,-4.614 C -1.521,14.081 0,10.105 0,5.232 Z m -35.672,18.433 -4.286,-0.737 v -30.16 l 4.286,-0.736 v -3.314 h -13.752 v 3.314 l 4.285,0.736 v 30.16 l -4.285,0.737 v 3.338 h 13.752 z M -52.84,-16.514 h -29.686 v 3.314 l 4.285,0.736 v 30.16 l -4.285,0.737 v 3.338 h 29.396 v -9.203 h -4.443 l -0.421,5.128 H -73.061 V 5.312 h 14.646 V 1.235 h -14.646 v -13.699 h 15.382 l 0.421,5.127 h 4.418 z m -32.772,34.947 -4.285,-0.737 v -30.16 l 4.285,-0.736 v -3.314 h -13.752 v 3.314 l 4.286,0.736 V 0.394 h -18.564 v -12.858 l 4.287,-0.736 v -3.314 h -13.752 v 3.314 l 4.285,0.736 v 30.16 l -4.285,0.737 v 3.338 h 13.752 v -3.338 l -4.287,-0.737 V 4.47 h 18.564 v 13.226 l -4.286,0.737 v 3.338 h 4.286 5.181 4.285 z m -40.848,-8.415 h -3.656 l -0.972,5.417 c -0.842,0.824 -1.876,1.499 -3.103,2.024 -1.227,0.526 -2.691,0.789 -4.391,0.789 -3.98,0 -7.039,-1.441 -9.177,-4.325 -2.139,-2.884 -3.208,-6.544 -3.208,-10.979 V 2.34 c 0,-4.435 1.047,-8.104 3.142,-11.005 2.095,-2.901 5,-4.352 8.717,-4.352 1.734,0 3.313,0.272 4.733,0.816 1.419,0.543 2.515,1.21 3.287,1.998 l 0.972,5.417 h 3.656 v -6.81 c -1.105,-1.421 -2.761,-2.687 -4.97,-3.8 -2.209,-1.114 -4.769,-1.669 -7.678,-1.669 -4.979,0 -9.064,1.839 -12.254,5.521 -3.191,3.682 -4.785,8.31 -4.785,13.884 v 0.552 c 0,5.61 1.568,10.251 4.706,13.923 3.138,3.672 7.249,5.509 12.333,5.509 2.909,0 5.469,-0.565 7.678,-1.696 2.209,-1.131 3.865,-2.398 4.97,-3.8 z m -36.49,-24.27 c -2.515,-1.876 -5.806,-2.813 -9.874,-2.813 -2.945,0 -5.561,0.481 -7.848,1.446 -2.288,0.964 -4.151,2.225 -5.589,3.786 v 7.126 h 3.892 l 1,-5.496 c 0.998,-0.823 2.19,-1.498 3.576,-2.025 1.384,-0.525 3.041,-0.789 4.969,-0.789 2.613,0 4.677,0.553 6.193,1.658 1.516,1.103 2.275,2.602 2.275,4.496 0,1.753 -0.658,3.221 -1.972,4.404 -1.316,1.184 -3.638,2.178 -6.969,2.984 -4.049,0.964 -7.214,2.384 -9.493,4.26 -2.278,1.876 -3.417,4.234 -3.417,7.073 0,2.998 1.271,5.492 3.812,7.482 2.542,1.989 5.846,2.984 9.913,2.984 2.683,0 5.123,-0.46 7.324,-1.381 2.2,-0.92 3.965,-2.038 5.298,-3.352 v -7.126 h -3.918 l -0.972,5.47 c -0.79,0.666 -1.842,1.217 -3.156,1.656 -1.316,0.437 -2.84,0.657 -4.576,0.657 -2.752,0 -4.864,-0.583 -6.337,-1.748 -1.472,-1.166 -2.208,-2.687 -2.208,-4.562 0,-1.667 0.749,-3.055 2.248,-4.168 1.498,-1.114 3.922,-2.09 7.27,-2.932 4.032,-0.999 7.095,-2.472 9.191,-4.418 2.094,-1.945 3.142,-4.356 3.142,-7.231 0,-3.085 -1.259,-5.566 -3.774,-7.441 m -26.479,27.557 h -4.418 l -0.394,4.391 h -8.494 v -30.16 l 4.287,-0.736 v -3.314 h -13.753 v 3.314 l 4.286,0.736 v 30.16 h -8.519 l -0.368,-4.391 h -4.445 v 8.466 h 31.818 z m -34.323,5.128 -4.286,-0.737 v -34.21 h -5.18 l -18.406,29.556 -0.157,-0.053 v -25.453 l 4.285,-0.736 v -3.314 h -13.752 v 3.314 l 4.286,0.736 v 30.16 l -4.286,0.737 v 3.338 h 4.286 5.181 l 18.406,-29.529 0.157,0.053 v 25.401 l -4.286,0.737 v 3.338 h 9.466 4.286 z m -40.939,-34.947 h -29.687 v 3.314 l 4.286,0.736 v 30.16 l -4.286,0.737 v 3.338 h 29.397 v -9.203 h -4.443 l -0.421,5.128 h -15.067 V 5.312 h 14.646 V 1.235 h -14.646 v -13.699 h 15.383 l 0.42,5.127 h 4.418 z m -36.327,-6.833 H 6.809 v 52.69 h -307.827 z"
             style="fill:#f68712;fill-opacity:1;fill-rule:nonzero;stroke:none"
             id="path74"
             inkscape:connector-curvature="0" /></g><g
           id="g76"
           transform="translate(122.1848,193.3455)"><path
             d="M 0,0 -3.705,2.922 -14.562,1.371 -20.61,-17.307 -7.531,-19.922 Z"
             style="fill:#00adef;fill-opacity:1;fill-rule:nonzero;stroke:none"
             id="path78"
             inkscape:connector-curvature="0" /></g><g
           id="g80"
           transform="translate(106.8957,163.3123)"><path
             d="m 0,0 -1.565,-8.343 3.779,-2.69 18.244,7.369 -3.305,6.292 -8.573,4.733 c 0,0 -0.24,0.108 -0.351,0.15 C 8.117,7.552 7.854,7.613 7.854,7.613 l -17.077,3.416 -4.523,-1.551 1.944,-9.539 z"
             style="fill:#00adef;fill-opacity:1;fill-rule:nonzero;stroke:none"
             id="path82"
             inkscape:connector-curvature="0" /></g><g
           id="g84"
           transform="translate(153.3112,144.702)"><path
             d="m 0,0 10.136,4.836 -15.881,16.67 -7.243,-5.121 c -0.207,-0.146 -0.45,-0.223 -0.703,-0.223 -0.06,0 -0.121,0.004 -0.181,0.013 l -6.694,1.011 -2.268,-2.959 7.419,-14.123 11.699,-6.993 3.151,6.332 C -0.444,-0.313 -0.244,-0.116 0,0"
             style="fill:#00adef;fill-opacity:1;fill-rule:nonzero;stroke:none"
             id="path86"
             inkscape:connector-curvature="0" /></g><g
           id="g88"
           transform="translate(148.156,193.6228)"><path
             d="M 0,0 6.025,-16.831 28.407,-4.386 18.312,22.139 13.65,21.715 8.313,31.819 2.947,28.752 Z"
             style="fill:#00adef;fill-opacity:1;fill-rule:nonzero;stroke:none"
             id="path90"
             inkscape:connector-curvature="0" /></g><g
           id="g92"
           transform="translate(135.886,205.4227)"><path
             d="m 0,0 2.222,-1.211 c 0.417,-0.226 0.664,-0.68 0.63,-1.153 l -0.679,-9.356 6.306,-15.451 5.592,3.128 -4.181,11.682 c -0.061,0.171 -0.083,0.355 -0.065,0.535 l 3.038,29.646 c 0.04,0.39 0.266,0.738 0.606,0.932 L 19.643,22.279 9.411,49.762 -2.896,47.711 -0.114,23.352 Z"
             style="fill:#00adef;fill-opacity:1;fill-rule:nonzero;stroke:none"
             id="path94"
             inkscape:connector-curvature="0" /></g><g
           id="g96"
           transform="translate(125.5417,167.8914)"><path
             d="m 0,0 c 0.208,-0.115 0.377,-0.288 0.488,-0.499 l 3.203,-6.095 2.021,2.637 c 0.232,0.304 0.582,0.478 0.961,0.478 0.061,0 0.122,-0.005 0.184,-0.015 l 6.921,-1.045 6.597,4.664 -10.214,25.029 c -0.071,0.175 -0.1,0.365 -0.087,0.549 L 10.716,34.562 9.427,35.266 -0.914,25.048 -8.589,4.742 Z"
             style="fill:#00adef;fill-opacity:1;fill-rule:nonzero;stroke:none"
             id="path98"
             inkscape:connector-curvature="0" /></g><g
           id="g100"
           transform="translate(127.4411,136.5721)"><path
             d="M 0,0 9.067,-9.175 10.688,-2.689 9.17,4.379 Z"
             style="fill:#00adef;fill-opacity:1;fill-rule:nonzero;stroke:none"
             id="path102"
             inkscape:connector-curvature="0" /></g><g
           id="g104"
           transform="translate(170.0617,123.5105)"><path
             d="m 0,0 1.681,17.318 -6.532,6.858 -10.476,-4.997 -3.374,-6.78 2.55,-15.174 6.655,0.297 z"
             style="fill:#00adef;fill-opacity:1;fill-rule:nonzero;stroke:none"
             id="path106"
             inkscape:connector-curvature="0" /></g><g
           id="g108"
           transform="translate(138.9172,127.0145)"><path
             d="M 0,0 12.401,-5.512 10.076,8.328 0.104,14.289 1.647,7.103 C 1.686,6.922 1.683,6.731 1.638,6.554 Z"
             style="fill:#00adef;fill-opacity:1;fill-rule:nonzero;stroke:none"
             id="path110"
             inkscape:connector-curvature="0" /></g><g
           id="g112"
           transform="translate(153.5197,173.8191)"><path
             d="M 0,0 C -0.147,0 -0.292,0.026 -0.427,0.077 -0.763,0.204 -1.024,0.469 -1.145,0.805 L -2.732,5.241 -8.229,2.165 c 0,0 2.957,-6.803 3.311,-7.341 0.354,-0.537 17.153,-18.005 17.153,-18.005 l 8.125,3.876 c 0.161,0.077 0.342,0.118 0.522,0.118 0.199,0 0.395,-0.048 0.57,-0.141 2.987,-1.585 6.026,-3.148 7.741,-3.981 l 7.659,2.442 L 23.917,13.122 0.589,0.152 C 0.411,0.053 0.207,0 0,0"
             style="fill:#00adef;fill-opacity:1;fill-rule:nonzero;stroke:none"
             id="path114"
             inkscape:connector-curvature="0" /></g><g
           id="g116"
           transform="translate(180.403,108.0887)"><path
             d="M 0,0 7.892,6.701 1.024,40.352 0.772,40.474 c -1.545,0.752 -3.75,1.882 -6.549,3.363 l -0.252,0.133 -6.857,-3.272 6.367,-6.682 c 0.244,-0.257 0.365,-0.606 0.331,-0.956 L -7.969,14.712 Z"
             style="fill:#00adef;fill-opacity:1;fill-rule:nonzero;stroke:none"
             id="path118"
             inkscape:connector-curvature="0" /></g><g
           id="g120"
           transform="translate(98.8523,105.0926)"><path
             d="m 0,0 0.333,-3.377 10.219,-2.524 16.524,1.455 9.888,23.995 -10.759,10.887 -7.163,-2.599 c -0.144,-0.053 -0.247,-0.072 -0.417,-0.072 -0.002,0 -8.017,0.072 -8.017,0.072 l -0.557,-5.63 0.014,-0.079 C 10.64,18.992 11.272,14.879 11.943,9.901 12.002,9.47 11.823,9.038 11.478,8.773 Z"
             style="fill:#00adef;fill-opacity:1;fill-rule:nonzero;stroke:none"
             id="path122"
             inkscape:connector-curvature="0" /></g><g
           id="g124"
           transform="translate(138.7024,104.9529)"><path
             d="m 0,0 c 0.2,0.414 0.63,0.682 1.188,0.682 0.004,0 14.079,-1.228 14.079,-1.228 l -2.179,14.228 -13.372,5.943 -10.022,-24.319 6.958,-2.214 z"
             style="fill:#00adef;fill-opacity:1;fill-rule:nonzero;stroke:none"
             id="path126"
             inkscape:connector-curvature="0" /></g><g
           id="g128"
           transform="translate(111.2004,150.5027)"><path
             d="m 0,0 -1.5,-15.146 7.573,-0.069 7.708,2.791 0.226,0.046 0.093,0.065 c 0.045,0.032 0.086,0.066 0.143,0.122 l 10.49,5.007 -7.443,14.168 z"
             style="fill:#00adef;fill-opacity:1;fill-rule:nonzero;stroke:none"
             id="path130"
             inkscape:connector-curvature="0" /></g><g
           id="g132"
           transform="translate(126.6335,98.2684)"><path
             d="m 0,0 -17.211,-1.514 -0.107,-0.005 c -0.103,0 -0.204,0.012 -0.297,0.035 l -10.273,2.536 c 0,0 -0.204,0.011 -0.333,-0.054 l -0.178,-0.114 -15.155,-18.053 -1.119,-7.165 17.246,-7.161 27.016,0.161 8.273,28.833 z"
             style="fill:#00adef;fill-opacity:1;fill-rule:nonzero;stroke:none"
             id="path134"
             inkscape:connector-curvature="0" /></g><g
           id="g136"
           transform="translate(170.5749,121.1316)"><path
             d="m 0,0 -9.517,-2.482 c -0.085,-0.022 -0.171,-0.036 -0.256,-0.039 l -6.505,-0.29 2.309,-15.074 c 0.057,-0.371 -0.058,-0.742 -0.313,-1.014 -0.227,-0.242 -0.556,-0.38 -0.982,-0.38 -0.004,0 -14.787,1.289 -14.787,1.289 l -3.408,-7.055 -8.36,-29.138 16.384,0.098 -2.47,-14.314 6.565,-19.693 3.172,-4.76 6.725,0.929 3.402,6.831 14.128,3.686 1.219,30.596 10.443,9.52 -6.844,21.158 z"
             style="fill:#00adef;fill-opacity:1;fill-rule:nonzero;stroke:none"
             id="path138"
             inkscape:connector-curvature="0" /></g><g
           id="g140"
           transform="translate(96.3679,105.5271)"><path
             d="M 0,0 C -0.042,0.415 0.139,0.831 0.471,1.085 L 11.926,9.84 11.88,10.168 c -0.53,3.845 -1.132,7.696 -1.693,10.846 l -0.061,0.343 -7.409,2.22 -6.473,-4.092 -7.973,0.57 1.265,6.324 -13.347,0.182 -5.264,-13.383 -15.854,-8.051 8.62,-6.246 -3.136,-12.937 -8.312,1.548 -5.453,-13.805 3.353,-7.819 27.656,-6.554 5.255,8.589 1.309,8.379 c 0.034,0.218 0.128,0.423 0.27,0.593 L 0.425,-4.312 Z"
             style="fill:#00adef;fill-opacity:1;fill-rule:nonzero;stroke:none"
             id="path142"
             inkscape:connector-curvature="0" /></g></g></g></g></svg>