<?xml version="1.0" encoding="utf-8"?>
<!-- Generator: Adobe Illustrator 24.0.3, SVG Export Plug-In . SVG Version: 6.00 Build 0)  -->
<svg version="1.1" id="Ebene_1" xmlns="http://www.w3.org/2000/svg" xmlns:xlink="http://www.w3.org/1999/xlink" x="0px" y="0px"
	 viewBox="0 0 2000 600" style="enable-background:new 0 0 2000 600;" xml:space="preserve">
<style type="text/css">
	.st0{fill:#009FE3;}
	.st1{fill:#FFFFFF;}
	.st2{fill:#F29100;}
</style>
<g>
	<rect class="st0" width="2000" height="600"/>
	<g id="BUTTON_2_">
		<path class="st1" d="M332.4,175.7c1.9-0.8,3.5-1.9,4.8-3.4c1.3-1.4,2.4-3.2,3.2-5.1c0.8-2,1.4-4.1,1.7-6.5l1.4-9
			c0.2-1.9,0.3-3.8,0.3-5.7c-0.1-1.9-0.4-3.6-1-5.1c-0.6-1.5-1.6-2.7-2.9-3.7c-1.3-1-3.1-1.5-5.4-1.6l-6.1,0l-7.1,41.2l4.7,0
			C328.3,176.8,330.5,176.5,332.4,175.7z"/>
		<path class="st1" d="M217.6,152.7c0.9-0.9,1.7-2,2.3-3.2c0.6-1.2,0.9-2.6,1.1-4.1c0.1-1.3,0.2-2.5,0-3.6c-0.1-1.1-0.4-2.2-0.9-3
			c-0.5-0.9-1.2-1.6-2.1-2.1c-0.9-0.5-2.1-0.8-3.5-0.9l-8.2,0l-3.5,19.9l7.5,0.1c1.5,0,2.9-0.3,4.1-0.8
			C215.6,154.3,216.7,153.6,217.6,152.7z"/>
		<polygon class="st1" points="115.9,163 129.7,163 126.9,139.2 		"/>
		<polygon class="st1" points="294.8,139.2 283.7,163 297.5,163 		"/>
		<path class="st1" d="M253.8,154.8c1.2-0.5,2.3-1.2,3.3-2.1c0.9-0.9,1.7-2,2.3-3.2c0.6-1.2,0.9-2.6,1.1-4.1c0.1-1.3,0.2-2.5,0-3.6
			c-0.1-1.1-0.4-2.2-0.9-3c-0.5-0.9-1.2-1.6-2.1-2.1c-0.9-0.5-2.1-0.8-3.5-0.9l-8.2,0l-3.5,19.9l7.5,0.1
			C251.2,155.6,252.5,155.3,253.8,154.8z"/>
		<path class="st1" d="M368.6,200.9c-1.3-1-3.1-1.5-5.4-1.6l-6.1,0l-7.1,41.2l4.7,0c2.5,0,4.7-0.4,6.6-1.2c1.9-0.8,3.5-1.9,4.8-3.4
			c1.3-1.4,2.4-3.2,3.2-5.1c0.8-2,1.4-4.1,1.7-6.5l1.4-9c0.2-1.9,0.3-3.8,0.3-5.7c-0.1-1.9-0.4-3.6-1-5.1
			C370.9,203.1,370,201.9,368.6,200.9z"/>
		<polygon class="st1" points="312.6,226.8 326.4,226.8 323.6,203 		"/>
		<path id="Fläche_2_" class="st1" d="M414,199.4h-8.3l-8.1,46.8h-6.5l8.1-46.8h-13.4l1-5.7H413c-16.7-81.5-88.8-142.8-175.2-142.8
			c-61.8,0-116.3,31.4-148.4,79h19l-1,5.7H87.3l-3.1,18h17.2l-1,5.7H83.2l-4,23.2h-6.5l5.9-34.4c-12.6,24.5-19.7,52.2-19.7,81.6
			c0,33.5,9.2,64.8,25.3,91.6c0-1.2,0.1-4.7,0.1-4.7h12.8c0,0-0.2,4.7,0,6.4c0.1,1.6,0.5,3.1,1.1,4.4c0.6,1.3,1.4,2.3,2.4,3.1
			c1,0.8,2.5,1.2,4.2,1.3c0.2,0,0.3,0,0.5,0c1.8,0,3.4-0.4,4.8-1.2c1.5-0.9,2.8-2,3.8-3.5c1.1-1.5,1.9-3.2,2.6-5
			c0.6-1.9,1.1-3.8,1.4-5.6l10.2-59.9h12.9l-10.2,60.2c-0.5,3.5-1.4,6.9-2.7,10.1c-1.3,3.2-3.1,6.1-5.3,8.6c-2.2,2.5-4.9,4.4-8,5.9
			c-2.9,1.3-6.1,2-9.7,2c-0.3,0-0.6,0-0.9,0c-1.7-0.1-3.4-0.3-4.9-0.7c32.8,40.2,82.7,65.9,138.6,65.9
			c98.8,0,178.9-80.1,178.9-178.9C416.6,219.4,415.7,209.2,414,199.4z M132,182.5l-1.6-13.7h-17.2l-6.4,13.7H100l25.5-52.5h5.6
			l7.3,52.5H132z M322.7,129.9l11.8,0c3.1,0.1,5.7,0.7,7.9,1.9c2.1,1.2,3.8,2.8,5,4.9c1.2,2,2,4.3,2.4,6.9c0.4,2.6,0.4,5.3,0,8.1
			l-1.3,8.9c-0.5,3.2-1.3,6.1-2.5,8.8c-1.2,2.7-2.7,5-4.6,6.9c-1.9,1.9-4.2,3.4-6.8,4.5c-2.6,1.1-5.6,1.6-9,1.6h-12L322.7,129.9z
			 M335.1,246.2h-6.4l-1.6-13.7h-17.2l-6.4,13.7h-6.9l25.5-52.5h5.6L335.1,246.2z M306.2,199.4h-13.4l-8.1,46.8h-6.5l8.1-46.8h-13.4
			l1-5.7h33.2L306.2,199.4z M293.4,129.9h5.6l7.3,52.5h-6.4l-1.6-13.7h-17.2l-6.4,13.7h-6.9L293.4,129.9z M240.1,129.9l13.9,0
			c2.3,0.1,4.4,0.5,6.1,1.3c1.7,0.8,3.1,1.8,4.2,3.2c1.1,1.4,1.8,3,2.3,4.8c0.4,1.9,0.6,3.9,0.3,6.2c-0.3,3.3-1.4,6.2-3.1,8.7
			c-1.8,2.4-4.2,4.3-7.3,5.7l6.1,22.2l0,0.5h-6.9l-5.4-21.3h-9.1l-3.7,21.3h-6.5L240.1,129.9z M259.8,205.1
			c-0.2-1.2-0.5-2.3-1.1-3.2c-0.6-0.9-1.3-1.7-2.3-2.3c-1-0.6-2.2-0.9-3.7-0.9c-1.3,0-2.6,0.2-3.7,0.6c-1.1,0.4-2.1,1-2.9,1.8
			c-0.8,0.8-1.5,1.7-2,2.8c-0.5,1.1-0.8,2.3-1,3.6c-0.1,1.3,0,2.4,0.4,3.3c0.4,1,1,1.8,1.7,2.6c0.7,0.7,1.6,1.4,2.5,1.9
			c1,0.6,2,1,3,1.5c1.8,0.8,3.5,1.6,5,2.6c1.5,0.9,2.8,2,3.9,3.3c1.1,1.3,1.9,2.7,2.4,4.3c0.5,1.6,0.7,3.5,0.5,5.7
			c-0.2,2.2-0.7,4.3-1.7,6c-0.9,1.8-2.1,3.3-3.6,4.5c-1.5,1.2-3.2,2.2-5.1,2.8c-1.9,0.7-4,1-6.2,0.9c-2.3,0-4.3-0.5-6.2-1.3
			c-1.8-0.8-3.4-2-4.6-3.4c-1.3-1.4-2.2-3.1-2.9-5c-0.6-1.9-0.9-4-0.8-6.2h6.5c-0.1,1.4,0,2.7,0.3,4c0.3,1.2,0.7,2.3,1.4,3.2
			c0.7,0.9,1.5,1.7,2.6,2.2c1.1,0.5,2.4,0.8,3.9,0.8c1.3,0,2.6-0.2,3.7-0.5c1.1-0.4,2.1-1,3-1.7c0.9-0.7,1.6-1.7,2.1-2.7
			c0.5-1.1,0.9-2.3,1-3.6c0.2-1.4,0.1-2.6-0.3-3.7s-0.9-1.9-1.6-2.7c-0.7-0.8-1.6-1.4-2.6-2c-1-0.6-2.1-1.1-3.3-1.6
			c-1.7-0.7-3.3-1.5-4.8-2.5c-1.5-0.9-2.8-2-3.8-3.2c-1.1-1.2-1.9-2.6-2.5-4.2c-0.6-1.6-0.8-3.4-0.6-5.4c0.1-2.2,0.7-4.1,1.6-6
			c0.9-1.8,2.1-3.3,3.6-4.6c1.5-1.3,3.1-2.3,5-3c1.9-0.7,3.9-1,6.1-1c2.3,0,4.3,0.5,6,1.4c1.7,0.9,3.2,2,4.3,3.5
			c1.1,1.4,2,3.1,2.5,5c0.5,1.9,0.8,3.9,0.6,6h-6.5C260,207.6,260,206.3,259.8,205.1z M154.9,129.9h6.5l-3.9,22.6h20.5l3.9-22.6h6.5
			l-9.1,52.5h-6.5l4.2-24.3h-20.5l-4.2,24.3h-6.5L154.9,129.9z M193.9,268.2h-32.6l-4.2,24.1h28.5l-2,11.5h-28.4l-4.7,26.8h33.2
			l-2.1,11.5h-45.9l14.8-85.6H196L193.9,268.2z M191.6,182.5l9.1-52.5l13.9,0c2.3,0.1,4.4,0.5,6.1,1.3c1.7,0.8,3.1,1.8,4.2,3.2
			c1.1,1.4,1.8,3,2.3,4.8c0.4,1.9,0.6,3.9,0.3,6.2c-0.3,3.3-1.4,6.2-3.1,8.7c-1.8,2.4-4.2,4.3-7.3,5.7l6.1,22.2l0,0.5h-6.9
			l-5.4-21.3h-9.1l-3.7,21.3H191.6z M235.1,268.2l-12.8,74h-12.8l12.8-74h-21.1l2.1-11.6h55.1l-2.1,11.6H235.1z M313.3,267.2
			l-45.1,63.4H305l-1.8,11.5h-52.1l1.6-10.5l45.3-63.4h-35l1.9-11.6h50.2L313.3,267.2z M375,268.2h-21.1l-12.8,74h-12.8l12.8-74
			h-21.1l2.1-11.6H377L375,268.2z M378.7,215.5l-1.3,8.9c-0.5,3.2-1.3,6.1-2.5,8.8c-1.2,2.7-2.7,5-4.6,6.9c-1.9,1.9-4.2,3.4-6.8,4.5
			c-2.6,1.1-5.6,1.6-9,1.6h-12l9.1-52.5l11.8,0c3.1,0.1,5.7,0.7,7.9,1.9c2.1,1.2,3.8,2.8,5,4.9c1.2,2,2,4.3,2.4,6.9
			C379.1,210,379.1,212.7,378.7,215.5z"/>
	</g>
	<g>
		<g>
			<path class="st1" d="M600.1,499.2c-1.2,0.2-2.3,0.5-3.4,0.8c-1.1,0.3-2.2,0.6-3.3,1c-0.5,0.2-0.9,0.3-1.4,0.4
				c-0.5,0.1-1,0.3-1.5,0.4c-1.5-0.2-2.9-0.4-4.2-0.5c-1.3-0.1-2.5-0.1-3.6-0.1l-1.8-0.4c-1-0.3-1.7-0.5-2.2-0.7
				c-0.5-0.2-1-0.3-1.4-0.4c-0.4-0.1-1-0.2-1.6-0.2c-0.6,0-1.5-0.1-2.6-0.2c-1.3,0.6-2.6,1-3.9,1c-0.9,0-1.8,0-2.8-0.3
				c-1-0.2-2-0.7-3-1.5c-1-0.8-2-1.9-2.9-3.3c-1-1.4-1.8-3.3-2.6-5.6c0.1-1.9,0.3-3.5,0.6-4.8c0.3-1.4,0.5-2.5,0.8-3.3l0.9-1.1
				c1.4-0.6,3-1,4.9-1.1c1.8-0.1,3.5,0.1,5.2,0.6c1.7,0.5,3.4,1,5.1,1.5c0.7,0.3,1.3,0.5,1.6,0.6c0.3,0.1,0.6,0.3,0.7,0.3
				c0.2,0.1,0.4,0.1,0.7,0.1c0.3,0,0.8,0,1.5-0.1c0.4,0,0.8-0.1,1.1-0.1c0.4-0.1,0.7-0.1,1.1-0.2l1.4,0c0.6,0.3,1.3,0.4,2.1,0.4
				c0.6,0,1.1-0.1,1.7-0.3c0.6-0.2,1.2-0.4,1.8-0.6c0.6-0.3,1.2-0.5,1.7-0.6c0.5-0.1,0.9-0.2,1.3-0.4l1.1-1.1
				c0.8-0.4,1.4-0.8,1.8-1.2c0.4-0.4,0.8-0.9,1.1-1.4c0.3-0.5,0.6-1.1,0.8-1.7c0.3-0.6,0.6-1.2,1.1-1.9c0.4-0.5,0.7-1,1.1-1.5
				c0.3-0.5,0.7-1,1.1-1.4l-0.1-1.2c1.1-3,2.1-6.1,2.9-9.2c0.8-3.1,1.5-6.2,2.1-9.3c0.6-3.1,1-6.1,1.4-9c0.4-2.9,0.7-5.5,1-7.9
				c-0.2,0-0.5,0-0.7,0c-0.2,0-0.4,0-0.6,0c-2.4,0.1-4.4,0.3-5.9,0.4c-1.5,0.2-2.9,0.3-4.2,0.6c-1.3,0.2-2.6,0.5-4,0.9
				c-1.4,0.4-3.2,0.8-5.3,1.3l-2,0.5c-1.5,0.8-2.9,1.5-4.3,2.2c-1.4,0.7-2.8,1-4.3,1.1c-2.4,0.1-4.5-0.7-6.4-2.6
				c-1.9-1-3-2.6-3.4-4.6c-0.4-0.7-0.6-1.4-0.6-2c-0.4-1.1-0.6-2.1-0.7-3c-0.1-0.9-0.2-1.8-0.2-2.6l0-2l1.8-0.1
				c0.5-0.5,0.8-0.9,1-1.1c0.2-0.3,0.3-0.5,0.4-0.9l0.3-1.2l1.2-0.2c1.7-0.3,3.4-0.7,5.1-1.1c1.7-0.4,3.5-0.9,5.4-1.4
				c1.8-0.4,3.4-0.8,4.7-1.1c1.3-0.3,2.6-0.6,3.8-0.7c1.2-0.2,2.4-0.3,3.7-0.4c1.3-0.1,2.8-0.2,4.4-0.3c0.6,0,1.2,0,1.7,0
				c0.5,0,1.1,0,1.6,0c0.3-0.4,0.6-0.7,0.9-0.8c0.3-0.1,0.6-0.1,0.7-0.2c0.6,0.1,1,0.1,1.3,0.2c0.3,0.1,0.5,0.1,0.7,0.2
				c2.7-0.6,5.2-1,7.5-1.3c2.3-0.2,4.3-0.4,6.2-0.5c0.9,0,1.8-0.1,2.6-0.1c0.9,0,1.7,0,2.5,0l4.6-0.2l3.2-0.2
				c0.4-0.1,0.8-0.2,1.1-0.2c0.4,0,0.7,0,1.1-0.1c0.8,0,1.4-0.1,1.9-0.1c0.4,0,0.8,0,1.1,0c0.3,0,0.6,0,1,0.1c0.3,0,0.8,0.1,1.3,0.1
				c1.4,0.2,2.6,0.3,3.8,0.4c1.1,0.1,2.3,0.1,3.4,0.1l2.3-0.2l0.4,1.4l1.2,1.5c0.3,0.5,0.6,0.9,1,1.3c0.4,0.4,0.9,0.8,1.4,1.1
				c1,0.8,2,1.9,3,3.2c1,1.3,1.4,3.2,1.3,5.7l-1,1.5c-0.3,0.2-0.6,0.4-0.9,0.6c-0.3,0.3-0.6,0.6-0.9,0.9l-1.1,1.1
				c-1,0.1-1.9,0.2-2.6,0.3c-0.7,0.1-1.5,0.1-2.4,0.2c-1.4,0.1-2.9,0.1-4.4,0.1c-1.5,0-3,0-4.6,0c-0.9,0-1.6,0-2,0s-0.9,0-1.3,0.1
				c-0.4,0-0.9,0.1-1.4,0.1c-0.5,0.1-1.2,0.1-2,0.2c-0.8,0-1.4,0.1-1.7,0.1c-0.4,0-0.9,0.1-1.5,0.2c0,2.6-0.2,4.8-0.6,6.7
				c-0.3,1.9-0.8,3.9-1.3,6c-1.1,7.9-2.6,15.4-4.5,22.5c-1.9,7.1-4,13.5-6.4,19.2c-2.4,2.9-4.7,5.4-7,7.6c-2.2,2.2-4.7,3.9-7.6,4.9
				L600.1,499.2z"/>
			<path class="st1" d="M708.5,428c0.1,0.6,0.1,1,0.1,1.3c0,0.3-0.1,0.5-0.1,0.8c0,0.2,0,0.5,0,0.8c0,0.3,0.1,0.7,0.3,1.2
				c-1.5,2.8-3.4,4.8-5.5,5.9c-2.2,1.1-4.5,2-7,2.5c-2.5,0.6-5.1,1.2-7.8,1.8c-2.7,0.6-5.3,1.8-7.8,3.5c-1.1-0.3-2-0.3-2.8,0.1
				c-0.8,0.4-2,0.6-3.6,0.5c-0.5,0.5-1,0.9-1.8,1.1c-0.7,0.2-1.4,0.5-2.1,0.8c0.4,0.7,0.5,1.4,0.5,2.2c0,0.8,0.1,1.4,0.4,1.8
				c2.8,0.1,5.9-0.1,9.3-0.6c3.4-0.5,6.7-0.9,10-1.1c0.1,0.4,0.1,0.7-0.1,0.8c-0.2,0.1-0.2,0.4-0.1,0.7c0.6,0.4,1.2,0.8,1.8,1.4
				c0.6,0.6,1.2,1.1,1.8,1.7c0.6,0.5,1.2,1,1.8,1.3c0.6,0.3,1.3,0.4,2.1,0.3c0.4,0.6,0.6,1.3,0.8,2.1c0.2,0.8,0.1,1.5-0.2,2.4
				c-1.2,0.9-2.5,1.9-3.7,2.9c-1.2,1-2.5,1.9-3.9,2.7c-1.4,0.8-2.8,1.4-4.4,2c-1.5,0.5-3.3,0.8-5.2,0.8c-0.4,0-0.7,0-0.9,0
				c-0.2,0-0.5-0.1-0.8-0.3c-0.6,0.4-1.5,0.6-2.7,0.5c-1.2-0.1-2.1,0.1-2.7,0.5c-0.9-0.4-2-0.5-3.2-0.4c-1.2,0.1-2.3,0-3.3-0.3
				c-1.2,1.7-2.3,3.6-3.2,5.6c-0.9,2-1.8,4.1-2.5,6.3c2.7,0.3,5,0.3,6.8,0.1c1.8-0.2,3.5-0.4,5.1-0.7c1.6-0.3,3.2-0.6,4.9-0.9
				c1.7-0.3,3.8-0.5,6.4-0.5c1.6-1,3.4-1.6,5.6-2c2.2-0.4,4.2-1,6-1.7c0.7,0.2,1.2,0.6,1.7,1.2c0.5,0.6,1,1.1,1.5,1.6
				c0.5,0.5,1,0.9,1.5,1.3c0.5,0.4,1.1,0.5,1.8,0.4c0.3,0.3,0.6,0.7,0.7,1.1c0.1,0.4,0.3,0.9,0.4,1.2c0.1,0.4,0.3,0.7,0.5,1
				c0.2,0.3,0.6,0.4,1,0.2c-1.1,2.7-2.3,4.8-3.8,6.3c-1.5,1.5-3.2,2.6-5.2,3.5c-2,0.8-4.2,1.5-6.6,2c-2.4,0.5-5.1,1.1-8,1.9
				c-0.7,0.2-1.3,0.2-1.8,0c-0.5-0.2-1.1-0.2-1.7-0.2c-1.8,0.5-4,1-6.6,1.4c-2.5,0.4-5.1,0.7-7.8,0.8c-2.6,0.1-5.2-0.2-7.6-0.6
				c-2.4-0.5-4.5-1.4-6-2.9c-0.7-0.5-1.1-1.2-1.4-1.9c-0.2-0.8-0.8-1.3-1.7-1.7c-0.1-1-0.4-2.2-0.7-3.5c-0.3-1.3-0.6-2.6-0.9-4
				c-0.3-1.4-0.6-2.8-0.8-4.1c-0.2-1.4-0.2-2.6,0-3.7c0.2-1.2,0.6-2.3,1.3-3.3c0.7-1,0.9-2.1,0.6-3.2c0.4-0.1,0.6-0.3,0.7-0.7
				c0.1-0.4,0.4-0.5,0.9-0.5c0.4-1.5,0.9-2.9,1.4-4.2c0.5-1.3,1-2.6,1.6-3.8c0.5-1.2,1.1-2.5,1.6-3.8c0.5-1.3,1-2.7,1.5-4.2
				c-1.2-1-2.1-2.1-2.6-3.3c-0.6-1.2-1-2.4-1.3-3.7c-0.3-1.2-0.6-2.5-0.8-3.8c-0.2-1.3-0.6-2.6-1-4c0.7-1.2,1.7-2.3,2.8-3.1
				c1.1-0.8,2.4-1.5,3.7-2.1c1.3-0.5,2.8-1,4.4-1.4c1.6-0.4,3.2-0.8,5-1.3c3.2-1.2,6-2.1,8.5-2.8c2.5-0.7,5-1.3,7.4-1.8
				c2.4-0.5,5-1,7.6-1.4c2.6-0.5,5.6-1.1,8.9-1.9c0.8,0.7,1.5,1,2.1,1c0.3-0.7,0.7-1,1.1-0.7c0.5,0.3,0.6,0,0.5-0.7
				c0.9,1.3,1.9,2.4,3.2,3.3C705.5,426.8,707,427.5,708.5,428z"/>
			<path class="st1" d="M777.2,434.4c-2,0.1-4.2,0.4-6.5,0.7c-2.3,0.4-4.6,0.8-6.8,1.2c-1.6,0.3-3.1,0.6-4.6,0.8
				c-1.5,0.2-2.8,0.4-4,0.6c-0.5,1.8-1,3.4-1.4,4.8c-0.5,1.4-1,2.7-1.6,4.1c-0.6,1.4-1.1,2.8-1.5,4.2c-0.5,1.4-0.9,3-1.3,4.6
				c-0.7,1.3-1.3,2.5-1.8,3.6c-0.5,1.1-0.8,2.4-1.1,3.7c-0.9,1.2-1.6,2.5-2,3.9c-0.4,1.3-0.7,2.5-0.9,3.5l-0.4,1.5
				c-0.5,0.5-0.7,0.9-0.8,1.2c-0.1,0.3-0.3,0.6-0.6,0.8c0,0.9-0.3,1.8-0.7,2.7c-0.1,0.4-0.2,0.8-0.3,1.2c-0.1,0.4-0.1,0.6-0.1,0.8
				c0,0.8-0.1,1.3-0.5,1.6c0.1,0.4,0.1,0.8,0.1,1.3c-0.1,0.4-0.1,0.9-0.2,1.3c-0.2,1-0.2,1.7-0.1,2.3c0.3,0.3,0.5,0.6,0.7,0.8
				c0.2,0.2,0.4,0.5,0.5,0.9c0.5,0.3,0.9,0.5,1.1,0.5c0.3,0.2,0.8,0.5,1.5,0.8l1.1,1.1c0.5,2.3,0.2,4.2-0.8,5.6
				c-1.1,1.6-3.1,2.4-6,2.6l-1.4,0.1c-0.4-0.4-0.7-0.7-0.8-0.9c-0.7-0.2-1.2-0.4-1.6-0.5c-0.4-0.1-0.8-0.4-1.1-0.9
				c-1.1-0.4-1.9-0.8-2.6-1.1l-1.1-0.5c0-0.9-0.1-1.4-0.1-1.4c-0.6-0.7-1.1-1.5-1.4-2.3c-0.3-0.9-0.6-1.7-0.8-2.6
				c-0.2-0.7-0.4-1.4-0.6-2c-0.2-0.6-0.5-1.2-0.9-1.6c-0.4-4.6-0.2-8.6,0.7-11.8c0.9-3.3,1.8-6.4,2.8-9.4c0.6-1.6,1.1-3.3,1.7-5
				c0.6-1.7,1-3.4,1.4-5.2l1-1.3c0.5-1.3,0.9-2.4,1.2-3.3c0.3-0.9,0.7-1.7,1-2.6c0.2-0.6,0.4-1.1,0.6-1.7c0.2-0.5,0.3-1,0.5-1.4
				c-0.5,0-0.9,0.1-1.3,0.1c-0.4,0.1-0.8,0.1-1.2,0.2c-0.5,0.1-0.9,0.2-1.3,0.2c-0.4,0.1-0.8,0.1-1.2,0.1c-0.6,0-1,0-1.2-0.1
				c-0.9,0.4-1.8,0.7-2.9,0.7l-1.2,0.1c-0.2,0-0.5,0-0.7,0c-0.2,0-0.4,0-0.5,0c-0.8,0-1.4,0.2-1.9,0.5c-1,0-1.9,0.1-2.8,0.1
				l-1.2,0.1c-0.2,0-0.4,0-0.6,0.1c-0.2,0.1-0.4,0.1-0.6,0.1c-0.6,0-1.2,0-1.8-0.1c-0.6-0.1-1.3-0.3-2.1-0.7c-1-1.2-1.7-1.9-2-1.9
				l-1.2-1.4c-0.1-0.5-0.2-0.9-0.4-1.4c-0.2-0.4-0.4-0.9-0.6-1.5c-0.4-0.8-0.7-1.6-1-2.5c-0.3-0.9-0.5-2-0.6-3.3
				c0-0.6,0.2-1.1,0.4-1.5c0.2-0.3,0.4-0.6,0.6-0.9l0.3-1.8l1.6,0l3.4-0.2c2.6-0.1,5.2-0.4,7.8-0.7c2.6-0.3,5.3-0.7,8.1-1.1
				c1.6-0.2,3.2-0.5,4.8-0.7c1.6-0.2,3.3-0.5,5.1-0.7c0.3-0.7,0.6-1.4,0.9-2.1l1.2-0.7c1.4-0.2,2.5,0,3.1,0.4
				c0.6,0.4,1.1,0.8,1.6,1.2c1.8-0.2,3.5-0.5,5.3-0.8c1.8-0.3,3.6-0.6,5.4-1.1c2.7-0.5,5.4-1,8.2-1.5c2.7-0.5,5.4-0.8,8-0.9
				c1.1-0.1,2.2-0.1,3.3,0c1,0,2,0.1,2.9,0.2l1.2,0.8c0.3,0.5,0.6,0.9,1.1,1.3c0.5,0.4,0.9,0.8,1.4,1.1c1,0.8,2,1.8,3,3
				c1,1.2,1.5,2.9,1.3,5.2c-0.6,1-1,1.6-1.4,1.8l-1,1.5l-1.2-0.1c-0.5,0-0.9,0.1-1.3,0.2c-0.4,0.1-0.8,0.3-1.2,0.5
				c-0.3,0.2-0.6,0.3-0.9,0.5c-0.3,0.1-0.7,0.3-1.1,0.4c-0.7,0-1.3,0-1.7,0C778.1,434.4,777.7,434.4,777.2,434.4z"/>
			<path class="st1" d="M788.4,496.5c-0.4-0.1-0.9-0.3-1.3-0.4l-1.6-2.6l-1.9,1.5c-0.6-0.3-1-0.6-1.4-0.8c-0.3-0.3-0.7-0.6-1.1-1
				c-0.9-0.6-1.7-1.2-2.4-1.9c-0.7-0.6-1.1-1.3-1.2-1.9l-0.2-1.2l-1.2-0.2c-0.5-1.1-0.8-1.9-1.1-2.4c-0.3-0.5-0.7-0.9-1.3-1.2
				c-0.7-4-0.7-7.3,0-10.1c0.7-2.7,1.7-5.6,3.2-8.8c0.9-0.4,1.8-0.9,2.5-1.5c0.7-0.6,1.4-1.2,2-1.8c0.6-0.6,1.2-1.1,1.8-1.6
				c0.6-0.5,1.2-0.8,1.8-0.9l1.1-0.7c1.3-1.7,2.9-3.2,4.7-4.5c1.9-1.3,3.8-2.7,5.8-4.1c1.6-1,3.3-2.2,5-3.3c1.7-1.2,3.1-2.4,4.4-3.8
				c0.6,0,1.2-0.1,1.7-0.4c0.3-0.4,0.4-0.9,0.4-1.6c0.2-0.2,0.3-0.3,0.5-0.4c0.2-0.1,0.4-0.3,0.5-0.4c0.5-0.4,1.3-0.9,2.2-1.6
				c0.9-0.6,1.5-1.4,1.8-2.3l2.5-2.7l-3.6,0.3c-1.8,0.2-3.8,0.4-5.8,0.7c-2,0.3-3.8,0.5-5.2,0.7c-1.2,0.2-2.4,0.4-3.7,0.5
				c-1.3,0.1-2.7,0.2-4.2,0.4c-2.6-1.5-4.5-3.8-5.7-6.9c-1.2-3.1-1.5-6.2-0.7-9.3c0.6-0.1,1-0.3,1.4-0.5c0.4-0.2,0.8-0.4,1.2-0.6
				c0.7-0.1,1.2-0.1,1.4-0.1c0.2,0.1,0.6,0.1,1,0.1c2.2-0.5,4.1-0.9,5.5-1.1c1.5-0.2,2.9-0.3,4.1-0.4c1.4-0.1,2.7-0.1,4,0
				c1.3,0.1,2.5,0.3,3.8,0.6c2.8-0.1,5.6-0.4,8.5-0.8c2.9-0.4,5.8-0.3,8.9,0.2c2.1-0.8,4.3-1.1,6.4-0.9c2.1,0.2,4,1.1,5.7,2.6
				c0.1,1.4,0.5,2.4,1.2,3c0.6,0.7,1.4,1.1,2.4,1.4c0.8,2.3,0.9,4.3,0.5,6.1c-0.4,1.8-1.2,3.4-2.3,4.8c-1.1,1.4-2.5,2.7-4.1,3.9
				c-1.6,1.2-3.2,2.3-4.7,3.3c-0.4,0.7-1,1.4-1.7,1.8c-0.7,0.5-1.3,1-1.8,1.7c-2.5,3.5-5.4,6.6-8.6,9.3c-3.3,2.7-6.7,5.3-10.1,7.8
				c-2.5,1.8-4.9,3.6-7.4,5.5c-2.4,1.9-4.8,3.8-7,6l-1.1,1.1l1.1,1.1c1,0.9,2.2,1.3,3.4,1.3c0.7,0,1.4-0.2,2.1-0.4
				c0.7-0.2,1.3-0.5,1.9-0.8c0.6-0.2,1.2-0.4,1.7-0.6c0.5-0.2,0.9-0.3,1.3-0.4l1.6-0.1c0.6-0.4,1.2-0.8,1.9-1.1
				c0.6-0.3,1.3-0.5,1.9-0.7c0.6-0.2,1.2-0.4,1.8-0.6c0.6-0.2,1.1-0.5,1.8-0.9c1.8-0.1,3.4-0.4,5-1c1.5-0.6,3.1-1.2,4.7-1.9
				c0.9-0.4,1.9-0.9,2.8-1.2c0.9-0.4,1.8-0.7,2.8-0.9c0.3,0.4,0.7,0.7,1.2,1c0.5,0.3,0.9,0.5,1.3,0.7c1.1,0.6,1.7,1.2,1.8,1.7
				l0.5,3.3l2.2-2.4c1,0.8,1.6,1.6,1.7,2.6c0.1,1,0.1,2.3-0.2,3.9c-2.4,2.7-5.5,4.9-9.3,6.5c-3.8,1.6-7.8,3.2-12,4.8
				c-0.9,0.3-1.8,0.6-2.7,0.9c-0.9,0.3-1.8,0.6-2.7,1l0-2l-2.6,1.8c-0.3,0.3-0.6,0.5-0.7,0.8c-0.2,0.2-0.4,0.5-0.5,0.7
				c-2.1,0.7-3.8,1.2-5.1,1.5c-1.4,0.3-2.6,0.6-3.8,0.9c-1.3,0.4-2.6,0.7-3.8,1c-1.2,0.3-2.5,0.4-3.8,0.5c-0.4,0-0.8,0-1.3,0.1
				C789.4,496.6,788.9,496.6,788.4,496.5z"/>
			<path class="st1" d="M911.1,427.7c-2,0.1-4.2,0.4-6.5,0.7c-2.3,0.4-4.6,0.8-6.8,1.2c-1.6,0.3-3.1,0.6-4.6,0.8
				c-1.5,0.2-2.8,0.4-4,0.6c-0.5,1.8-1,3.4-1.4,4.8c-0.5,1.4-1,2.7-1.6,4.1c-0.6,1.4-1.1,2.8-1.5,4.2c-0.5,1.4-0.9,3-1.3,4.6
				c-0.7,1.3-1.3,2.5-1.8,3.6c-0.5,1.1-0.8,2.4-1.1,3.7c-0.9,1.2-1.6,2.5-2,3.9c-0.4,1.3-0.7,2.5-0.9,3.5l-0.4,1.5
				c-0.5,0.5-0.7,0.9-0.8,1.2c-0.1,0.3-0.3,0.6-0.6,0.8c0,0.9-0.3,1.8-0.7,2.7c-0.1,0.4-0.2,0.8-0.3,1.2c-0.1,0.4-0.1,0.6-0.1,0.8
				c0,0.8-0.1,1.3-0.5,1.6c0.1,0.4,0.1,0.8,0.1,1.3c-0.1,0.4-0.1,0.9-0.2,1.3c-0.2,1-0.2,1.7-0.1,2.3c0.3,0.3,0.5,0.6,0.7,0.8
				c0.2,0.2,0.4,0.5,0.5,0.9c0.5,0.3,0.9,0.5,1.1,0.5c0.3,0.2,0.8,0.5,1.5,0.8l1.1,1.1c0.5,2.3,0.2,4.2-0.8,5.6
				c-1.1,1.6-3.1,2.4-6,2.6l-1.4,0.1c-0.4-0.4-0.7-0.7-0.8-0.9c-0.7-0.2-1.2-0.4-1.6-0.5c-0.4-0.1-0.8-0.4-1.1-0.9
				c-1.1-0.4-1.9-0.8-2.6-1.1l-1.1-0.5c0-0.9-0.1-1.4-0.1-1.4c-0.6-0.7-1.1-1.5-1.4-2.3c-0.3-0.9-0.6-1.7-0.8-2.6
				c-0.2-0.7-0.4-1.4-0.6-2c-0.2-0.6-0.5-1.2-0.9-1.6c-0.4-4.6-0.2-8.6,0.7-11.8c0.9-3.3,1.8-6.4,2.8-9.4c0.6-1.6,1.1-3.3,1.7-5
				c0.6-1.7,1-3.4,1.4-5.2l1-1.3c0.5-1.3,0.9-2.4,1.2-3.3c0.3-0.9,0.7-1.7,1-2.6c0.2-0.6,0.4-1.1,0.6-1.7c0.2-0.5,0.3-1,0.5-1.4
				c-0.5,0-0.9,0.1-1.3,0.1c-0.4,0.1-0.8,0.1-1.2,0.2c-0.5,0.1-0.9,0.2-1.3,0.2c-0.4,0.1-0.8,0.1-1.2,0.1c-0.6,0-1,0-1.2-0.1
				c-0.9,0.4-1.8,0.7-2.9,0.7l-1.2,0.1c-0.2,0-0.5,0-0.7,0c-0.2,0-0.4,0-0.5,0c-0.8,0-1.4,0.2-1.9,0.5c-1,0-1.9,0.1-2.8,0.1
				l-1.2,0.1c-0.2,0-0.4,0-0.6,0.1c-0.2,0.1-0.4,0.1-0.6,0.1c-0.6,0-1.2,0-1.8-0.1c-0.6-0.1-1.3-0.3-2.1-0.7c-1-1.2-1.7-1.9-2-1.9
				l-1.2-1.4c-0.1-0.5-0.2-0.9-0.4-1.4c-0.2-0.4-0.4-0.9-0.6-1.5c-0.4-0.8-0.7-1.6-1-2.5c-0.3-0.9-0.5-2-0.6-3.3
				c0-0.6,0.2-1.1,0.4-1.5c0.2-0.3,0.4-0.6,0.6-0.9l0.3-1.8l1.6,0l3.4-0.2c2.6-0.1,5.2-0.4,7.8-0.7c2.6-0.3,5.3-0.7,8.1-1.1
				c1.6-0.2,3.2-0.5,4.8-0.7c1.6-0.2,3.3-0.5,5.1-0.7c0.3-0.7,0.6-1.4,0.9-2.1l1.2-0.7c1.4-0.2,2.5,0,3.1,0.4
				c0.6,0.4,1.1,0.8,1.6,1.2c1.8-0.2,3.5-0.5,5.3-0.8c1.8-0.3,3.6-0.6,5.4-1.1c2.7-0.5,5.4-1,8.2-1.5c2.7-0.5,5.4-0.8,8-0.9
				c1.1-0.1,2.2-0.1,3.3,0c1,0,2,0.1,2.9,0.2l1.2,0.8c0.3,0.5,0.6,0.9,1.1,1.3c0.5,0.4,0.9,0.8,1.4,1.1c1,0.8,2,1.8,3,3
				c1,1.2,1.5,2.9,1.3,5.2c-0.6,1-1,1.6-1.4,1.8l-1,1.5l-1.2-0.1c-0.5,0-0.9,0.1-1.3,0.2c-0.4,0.1-0.8,0.3-1.2,0.5
				c-0.3,0.2-0.6,0.3-0.9,0.5c-0.3,0.1-0.7,0.3-1.1,0.4c-0.7,0-1.3,0-1.7,0C912.1,427.6,911.6,427.7,911.1,427.7z"/>
			<path class="st1" d="M1017.7,411.7c0.2,1.8,0.6,3.3,1.1,4.5c0.5,1.3,1,2.5,1.5,3.7c0.5,1.1,0.9,2.2,1.3,3.2
				c0.4,1.1,0.7,2.4,1,3.9c-0.5,2.1-0.9,4.1-1.1,5.8c-0.2,1.8-0.4,3.6-0.6,5.6c-1.1,2.9-2.3,5.4-3.3,7.6c-1.1,2.2-2,4.2-2.6,5.8
				c-0.4,0.4-0.7,0.9-1,1.4c-0.3,0.5-0.5,1.1-0.8,1.7c-0.1,0.2-0.3,0.6-0.5,1.1c-0.2,0.5-0.4,0.8-0.6,1l-2.4-0.7l-0.3,3l-1.7,0.6
				l-1.1,1.5c-1.4,2.7-2.9,5-4.5,6.9c-1.6,1.9-3.4,3.6-5.5,5.1c-2.1,1.5-4.4,2.9-7,4.3c-2.6,1.3-5.6,2.8-8.9,4.4
				c-1.4-0.1-2.6-0.1-3.6-0.1c-1,0-1.9,0-2.8,0c-1.5,0.1-3.4,0.1-5.7-0.1c-0.3-0.6-0.7-1-1.1-1.3c-0.5-0.2-0.9-0.3-1.3-0.3
				c-1.4-0.6-2.5-1.5-3.2-2.7c-0.7-1.2-1.5-2.5-2.2-3.9c-0.4-0.9-0.9-1.7-1.3-2.4c-0.4-0.7-0.9-1.5-1.4-2.3l2-0.7l-2.8-2.8
				c-0.2-0.2-0.4-0.4-0.6-0.6c-0.2-0.2-0.5-0.4-0.6-0.6l-0.2-1.9c-0.5-5.5-0.9-10.6-1.1-15.2c-0.2-4.6,0.2-8.7,1.2-12.4l-0.1-1.3
				c0.2-1.8,0.3-3.2,0.5-4.4c0.2-1.2,0.3-2.3,0.4-3.3c0.2-1.8,0.4-3.4,0.8-5c1.1-0.3,1.9-0.8,2.5-1.5c0.5-0.7,1-1.4,1.3-1.9
				c1.1-0.1,1.9,0,2.3,0.4c0.4,0.4,0.9,1,1.3,1.9c0.4,0.7,1,1.5,1.6,2.3c0.6,0.9,1.6,1.5,2.8,1.9c0.2,0.6,0.4,1.3,0.8,1.9
				c0.3,0.7,0.7,1.4,1,2.2c0.7,1.3,1.4,2.7,2,4.2c0.6,1.5,1,2.9,1.1,4.2c-0.7,1.6-1.3,3.4-1.6,5.4c-0.3,2-0.5,4.1-0.5,6.1
				c0,2,0.1,4,0.4,5.9c0.3,1.9,0.7,3.4,1.3,4.7l0.8,1.5l2-0.3c2.4-0.8,4.5-1.6,6.4-2.4c1.9-0.9,3.7-1.9,5.3-3
				c1.6-1.1,3.2-2.4,4.6-3.9c1.5-1.5,3-3.2,4.6-5.1c1.6-1.9,2.9-4.1,4.1-6.5c1.1-2.4,2-4.9,2.8-7.5c0.7-2.6,1.2-5.2,1.5-7.7
				c0.3-2.5,0.5-4.9,0.5-7.2c1.3-0.5,2-1.5,1.9-3l-0.3-1.3c-0.3-0.5-0.4-1-0.1-1.7c0.4-1.5,1.5-2.8,3.2-3.7c1.3,0.7,2.5,1.6,3.6,2.5
				C1015.8,409.9,1016.8,410.8,1017.7,411.7z"/>
			<path class="st1" d="M1046.5,456.9c-0.7,0.2-1.2,0.6-1.5,1.3c-0.3,0.7-0.6,1.4-0.8,2.1c-0.2,0.7-0.5,1.4-0.7,2
				c-0.3,0.6-0.7,0.9-1.2,1c0,0.6-0.2,1.2-0.6,1.7c-0.3,0.5-0.7,1-0.9,1.6c-0.3,0.5-0.5,1.1-0.6,1.7c-0.1,0.6,0,1.3,0.3,2.1
				c-0.6,0.5-1,1.2-1.1,2.1c-0.1,0.9-0.3,1.7-0.4,2.6c-0.2,0.8-0.5,1.5-0.9,2.1c-0.5,0.6-1.3,0.9-2.6,0.9c-0.2,0.3-0.3,0.5-0.1,0.6
				c0.2,0.1,0.3,0.3,0.4,0.8c-0.9-0.1-1.5,0-2,0.3c-0.4,0.3-1,0.5-1.6,0.6c-1.5-0.4-2.9-1.2-3.9-2.3c-1.1-1.2-2-2.4-2.8-3.9
				c-0.8-1.4-1.6-2.9-2.3-4.4c-0.7-1.5-1.3-2.8-1.9-3.9c0.2-0.9,0.2-1.8,0-2.6c-0.2-0.8-0.5-1.5-0.9-2.1c3.5-8.5,7.3-17.6,11.5-27.3
				c4.2-9.7,8.1-19.2,11.8-28.7c1.9,0.6,3.7,1.4,5.6,2.2c1.8,0.8,3.5,1.8,5.1,2.9c1.5,1.1,2.9,2.4,4,4c1.1,1.5,1.9,3.2,2.3,5.1
				c-0.1,0.5-0.3,0.7-0.5,0.6c-0.2-0.1-0.4,0-0.5,0.2c0.3,0.4,0.5,0.7,0.6,0.8c0,0.2,0.1,0.3,0,0.5c0,0.2,0,0.4,0,0.7
				c0,0.3,0.2,0.7,0.4,1.1c-0.3-0.1-0.5,0-0.7,0.2c-0.1,0.2-0.4,0.2-0.8,0c0.4,0.9,0.5,1.6,0.4,2.1c-0.1,0.6-0.2,1.1-0.5,1.5
				c-0.2,0.5-0.4,0.9-0.5,1.5c-0.1,0.5-0.1,1.2,0.2,2c-0.2,0-0.4,0.1-0.5,0.2c-0.1,0.1-0.2,0.3-0.3,0.4c-0.1,0.1-0.2,0.2-0.3,0.4
				c-0.1,0.1-0.3,0.2-0.5,0.1c0.3,1.8,0.5,3.5,0.5,5.3c0,1.8,0,3.6,0.1,5.4c0,1.8,0.2,3.7,0.3,5.6c0.2,2,0.6,4,1.1,6
				c2.8-1.8,5-4.1,6.6-6.8c1.6-2.7,2.8-5.8,3.8-9.1c0.9-3.3,1.6-6.9,1.9-10.7c0.4-3.8,0.8-7.7,1.2-11.6c0.7-0.8,1.2-1.7,1.5-2.7
				c0.3-1.1,0.7-2.2,0.9-3.4c0.3-1.2,0.5-2.4,0.8-3.5c0.3-1.2,0.6-2.3,1-3.2c1.2,0.1,2.3,0.4,3.1,1c0.9,0.6,1.7,1.2,2.4,1.8
				c0.8,0.6,1.5,1.2,2.4,1.8c0.8,0.6,1.9,0.9,3.1,1c1,1.3,2,2.6,2.8,3.8c0.9,1.2,1.5,2.6,1.8,4c-0.4,0.7-0.6,1.4-0.8,2.2
				c-0.2,0.8-0.3,1.6-0.5,2.4c-0.2,0.8-0.5,1.6-0.8,2.3c-0.4,0.7-0.9,1.3-1.6,1.8c-0.1,2.1-0.3,4-0.6,5.8c-0.3,1.7-0.5,3.5-0.8,5.2
				c-0.3,1.7-0.5,3.5-0.6,5.3c-0.1,1.8-0.1,3.8,0.1,6c-0.5,1.9-1.1,3.9-1.7,6c-0.6,2.1-1.1,4-1.4,5.7c-1.2,1.1-2.2,2.4-2.8,3.9
				s-1.3,3-2.1,4.4c-0.3,0.3-0.5,0.4-0.6,0.3c-0.1-0.2-0.4-0.3-0.9-0.3c0.1,0.3,0.1,0.6,0,0.7c-0.1,0.2-0.2,0.3-0.3,0.4
				c-0.1,0.1-0.2,0.3-0.2,0.6c0,0.2,0,0.6,0.2,1c-1.1,0.5-2.1,1.3-2.9,2.2c-0.8,0.9-1.7,1.8-2.7,2.5c-1,0.8-2.1,1.3-3.5,1.6
				c-1.4,0.3-3.2,0.1-5.5-0.6c-3.4-2.2-6.5-4.9-9.1-7.9C1050.5,464.7,1048.3,461.1,1046.5,456.9z"/>
			<path class="st1" d="M1160.6,415.1c-2,0.1-4.2,0.4-6.5,0.7c-2.3,0.4-4.6,0.8-6.8,1.2c-1.6,0.3-3.1,0.6-4.6,0.8
				c-1.5,0.2-2.8,0.4-4,0.6c-0.5,1.8-1,3.4-1.4,4.8c-0.5,1.4-1,2.7-1.6,4.1c-0.6,1.4-1.1,2.8-1.5,4.2c-0.5,1.4-0.9,3-1.3,4.6
				c-0.7,1.3-1.3,2.5-1.8,3.6c-0.5,1.1-0.8,2.4-1.1,3.7c-0.9,1.2-1.6,2.5-2,3.9c-0.4,1.3-0.7,2.5-0.9,3.5l-0.4,1.5
				c-0.5,0.5-0.7,0.9-0.8,1.2c-0.1,0.3-0.3,0.6-0.6,0.8c0,0.9-0.3,1.8-0.7,2.7c-0.1,0.4-0.2,0.8-0.3,1.2c-0.1,0.4-0.1,0.6-0.1,0.8
				c0,0.8-0.1,1.3-0.5,1.6c0.1,0.4,0.1,0.8,0.1,1.3c-0.1,0.4-0.1,0.9-0.2,1.3c-0.2,1-0.2,1.7-0.1,2.3c0.3,0.3,0.5,0.6,0.7,0.8
				c0.2,0.2,0.4,0.5,0.5,0.9c0.5,0.3,0.9,0.5,1.1,0.5c0.3,0.2,0.8,0.5,1.5,0.8l1.1,1.1c0.5,2.3,0.2,4.2-0.8,5.6
				c-1.1,1.6-3.1,2.4-6,2.6l-1.4,0.1c-0.4-0.4-0.7-0.7-0.8-0.9c-0.7-0.2-1.2-0.4-1.6-0.5c-0.4-0.1-0.8-0.4-1.1-0.9
				c-1.1-0.4-1.9-0.8-2.6-1.1l-1.1-0.5c0-0.9-0.1-1.4-0.1-1.4c-0.6-0.7-1.1-1.5-1.4-2.3c-0.3-0.9-0.6-1.7-0.8-2.6
				c-0.2-0.7-0.4-1.4-0.6-2c-0.2-0.6-0.5-1.2-0.9-1.6c-0.4-4.6-0.2-8.6,0.7-11.8c0.9-3.3,1.8-6.4,2.8-9.4c0.6-1.6,1.1-3.3,1.7-5
				c0.6-1.7,1-3.4,1.4-5.2l1-1.3c0.5-1.3,0.9-2.4,1.2-3.3c0.3-0.9,0.7-1.7,1-2.6c0.2-0.6,0.4-1.1,0.6-1.7c0.2-0.5,0.3-1,0.5-1.4
				c-0.5,0-0.9,0.1-1.3,0.1c-0.4,0.1-0.8,0.1-1.2,0.2c-0.5,0.1-0.9,0.2-1.3,0.2c-0.4,0.1-0.8,0.1-1.2,0.1c-0.6,0-1,0-1.2-0.1
				c-0.9,0.4-1.8,0.7-2.9,0.7l-1.2,0.1c-0.2,0-0.5,0-0.7,0c-0.2,0-0.4,0-0.5,0c-0.8,0-1.4,0.2-1.9,0.5c-1,0-1.9,0.1-2.8,0.1
				l-1.2,0.1c-0.2,0-0.4,0-0.6,0.1c-0.2,0.1-0.4,0.1-0.6,0.1c-0.6,0-1.2,0-1.8-0.1s-1.3-0.3-2.1-0.7c-1-1.2-1.7-1.9-2-1.9l-1.2-1.4
				c-0.1-0.5-0.2-0.9-0.4-1.4c-0.2-0.4-0.4-0.9-0.6-1.5c-0.4-0.8-0.7-1.6-1-2.5c-0.3-0.9-0.5-2-0.6-3.3c0-0.6,0.2-1.1,0.4-1.5
				c0.2-0.3,0.4-0.6,0.6-0.9l0.3-1.8l1.6,0l3.4-0.2c2.6-0.1,5.2-0.4,7.8-0.7c2.6-0.3,5.3-0.7,8.1-1.1c1.6-0.2,3.2-0.5,4.8-0.7
				c1.6-0.2,3.3-0.5,5.1-0.7c0.3-0.7,0.6-1.4,0.9-2.1l1.2-0.7c1.4-0.2,2.5,0,3.1,0.4s1.1,0.8,1.6,1.2c1.8-0.2,3.5-0.5,5.3-0.8
				c1.8-0.3,3.6-0.6,5.4-1.1c2.7-0.5,5.4-1,8.2-1.5c2.7-0.5,5.4-0.8,8-0.9c1.1-0.1,2.2-0.1,3.3,0c1,0,2,0.1,2.9,0.2l1.2,0.8
				c0.3,0.5,0.6,0.9,1.1,1.3c0.5,0.4,0.9,0.8,1.4,1.1c1,0.8,2,1.8,3,3c1,1.2,1.5,2.9,1.3,5.2c-0.6,1-1,1.6-1.4,1.8l-1,1.5l-1.2-0.1
				c-0.5,0-0.9,0.1-1.3,0.2c-0.4,0.1-0.8,0.3-1.2,0.5c-0.3,0.2-0.6,0.3-0.9,0.5c-0.3,0.1-0.7,0.3-1.1,0.4c-0.7,0-1.3,0-1.7,0
				C1161.5,415.1,1161.1,415.1,1160.6,415.1z"/>
			<path class="st1" d="M1226.1,401.9c0.1,0.6,0.1,1,0.1,1.3c0,0.3-0.1,0.5-0.1,0.8c0,0.2,0,0.5,0,0.8c0,0.3,0.1,0.7,0.3,1.2
				c-1.5,2.8-3.4,4.8-5.5,5.9c-2.2,1.1-4.5,2-7,2.5c-2.5,0.6-5.1,1.2-7.8,1.8c-2.7,0.6-5.3,1.8-7.8,3.5c-1.1-0.3-2-0.3-2.8,0.1
				c-0.8,0.4-2,0.6-3.6,0.5c-0.5,0.5-1,0.9-1.8,1.1c-0.7,0.2-1.4,0.5-2.1,0.8c0.4,0.7,0.5,1.4,0.5,2.2c0,0.8,0.1,1.4,0.4,1.8
				c2.8,0.1,5.9-0.1,9.3-0.6c3.4-0.5,6.7-0.9,10-1.1c0.1,0.4,0.1,0.7-0.1,0.8c-0.2,0.1-0.2,0.4-0.1,0.7c0.6,0.4,1.2,0.8,1.8,1.4
				c0.6,0.6,1.2,1.1,1.8,1.7c0.6,0.5,1.2,1,1.8,1.3c0.6,0.3,1.3,0.4,2.1,0.3c0.4,0.6,0.6,1.3,0.8,2.1c0.2,0.8,0.1,1.5-0.2,2.4
				c-1.2,0.9-2.5,1.9-3.7,2.9c-1.2,1-2.5,1.9-3.9,2.7c-1.4,0.8-2.8,1.4-4.4,2s-3.3,0.8-5.2,0.8c-0.4,0-0.7,0-0.9,0
				c-0.2,0-0.5-0.1-0.8-0.3c-0.6,0.4-1.5,0.6-2.7,0.5c-1.2-0.1-2.1,0.1-2.7,0.5c-0.9-0.4-2-0.5-3.2-0.4c-1.2,0.1-2.3,0-3.3-0.3
				c-1.2,1.7-2.3,3.6-3.2,5.6c-0.9,2-1.8,4.1-2.5,6.3c2.7,0.3,5,0.3,6.8,0.1c1.8-0.2,3.5-0.4,5.1-0.7c1.6-0.3,3.2-0.6,4.9-0.9
				c1.7-0.3,3.8-0.5,6.4-0.5c1.6-1,3.4-1.6,5.6-2c2.2-0.4,4.2-1,6-1.7c0.7,0.2,1.2,0.6,1.7,1.2c0.5,0.6,1,1.1,1.5,1.6
				c0.5,0.5,1,0.9,1.5,1.3c0.5,0.4,1.1,0.5,1.8,0.4c0.3,0.3,0.6,0.7,0.7,1.1c0.1,0.4,0.3,0.9,0.4,1.2c0.1,0.4,0.3,0.7,0.5,1
				c0.2,0.3,0.6,0.4,1,0.2c-1.1,2.7-2.3,4.8-3.8,6.3c-1.5,1.5-3.2,2.6-5.2,3.5c-2,0.8-4.2,1.5-6.6,2c-2.4,0.5-5.1,1.1-8,1.9
				c-0.7,0.2-1.3,0.2-1.8,0c-0.5-0.2-1.1-0.2-1.7-0.2c-1.8,0.5-4,1-6.6,1.4c-2.5,0.4-5.1,0.7-7.8,0.8c-2.6,0.1-5.2-0.2-7.6-0.6
				c-2.4-0.5-4.5-1.4-6-2.9c-0.7-0.5-1.1-1.2-1.4-1.9c-0.2-0.8-0.8-1.3-1.7-1.7c-0.1-1-0.4-2.2-0.7-3.5c-0.3-1.3-0.6-2.6-0.9-4
				c-0.3-1.4-0.6-2.8-0.8-4.1c-0.2-1.4-0.2-2.6,0-3.7c0.2-1.2,0.6-2.3,1.3-3.3c0.7-1,0.9-2.1,0.6-3.2c0.4-0.1,0.6-0.3,0.7-0.7
				c0.1-0.4,0.4-0.5,0.9-0.5c0.4-1.5,0.9-2.9,1.4-4.2c0.5-1.3,1-2.6,1.6-3.8c0.5-1.2,1.1-2.5,1.6-3.8c0.5-1.3,1-2.7,1.5-4.2
				c-1.2-1-2.1-2.1-2.6-3.3c-0.6-1.2-1-2.4-1.3-3.7c-0.3-1.2-0.6-2.5-0.8-3.8c-0.2-1.3-0.6-2.6-1-4c0.7-1.2,1.7-2.3,2.8-3.1
				c1.1-0.8,2.4-1.5,3.7-2.1c1.3-0.6,2.8-1,4.4-1.4c1.6-0.4,3.2-0.8,5-1.3c3.2-1.2,6-2.1,8.5-2.8c2.5-0.7,5-1.3,7.4-1.8
				c2.4-0.5,5-1,7.6-1.4c2.6-0.5,5.6-1.1,8.9-1.9c0.8,0.7,1.5,1,2.1,1c0.3-0.7,0.7-1,1.1-0.7c0.5,0.3,0.6,0,0.5-0.7
				c0.9,1.3,1.9,2.4,3.2,3.3C1223.1,400.6,1224.6,401.3,1226.1,401.9z"/>
			<path class="st1" d="M1246.5,456.2c-0.7,3.3-1.4,5.7-2,7.4c-0.6,1.7-1.5,3.4-2.8,5.3c-1.1-0.1-1.8,0-2.1,0.5
				c-0.4,0.4-0.8,0.8-1.3,1.1c-0.7,0.2-1.2,0.2-1.6,0.1c-0.3-0.1-0.6-0.3-0.9-0.5c-0.2-0.2-0.6-0.4-0.9-0.6
				c-0.4-0.2-0.9-0.3-1.6-0.2c-0.2-0.6-0.4-1.2-0.6-1.8c-0.2-0.6-0.8-0.7-1.7-0.5c0.1-0.6,0.1-1.2,0-1.6c-0.1-0.4-0.2-0.8-0.4-1.2
				c-0.1-0.4-0.3-0.7-0.4-1.1c-0.1-0.4-0.1-0.8,0-1.4c-0.4,0-0.7-0.2-1-0.8c-0.3-0.5-0.6-1.1-0.9-1.6c0.2-1.5,0.3-2.8,0.5-4.1
				c0.2-1.3,0.4-2.5,0.7-3.7c0.3-1.1,0.5-2.3,0.7-3.4c0.2-1.1,0-2.3-0.5-3.5c0.3,0.2,0.6,0.2,0.7-0.2c0.1-0.4,0.2-0.9,0.3-1.5
				c0-0.6,0.1-1.2,0-1.8s-0.1-1.1-0.2-1.5c0.7-2.1,1.2-4.3,1.7-6.5c0.4-2.2,0.8-4.4,1.1-6.6c0.3-2.2,0.7-4.3,1.1-6.4
				c0.4-2.1,0.9-4.1,1.6-5.9c0.9-0.2,1.9-0.2,3,0.2c1.1,0.3,1.8,0.7,2.1,1.3c2-1.7,3.7-3.7,5.2-6.1c1.5-2.4,3-4.7,4.6-6.9
				s3.3-4.3,5.3-6.1c2-1.8,4.5-2.9,7.6-3.4c1.7,1.1,3.5,2.3,5.5,3.4c2,1.1,3.7,2.7,5.1,4.6c0.7,0.3,1.2,0.6,1.7,0.9
				c0.5,0.3,1,0.7,1.7,1.1l0.1,1.4c1,0.8,1.8,1.8,2.5,2.9c0.7,1.1,1.3,2.3,1.8,3.6c0.5,1.3,1.1,2.6,1.6,3.9c0.5,1.3,1.2,2.5,1.9,3.7
				c-0.1,0.4-0.2,0.8-0.2,1c0,0.3,0.1,0.6,0.2,0.9c0.1,0.3,0.3,0.6,0.3,0.9c0.1,0.3,0.1,0.8,0.1,1.3c-0.1,3.5-1.1,6.4-3,8.7
				s-4.3,4.2-7.1,5.7c-2.8,1.5-5.8,2.9-9.1,4c-3.2,1.1-6.1,2.3-8.7,3.6c0,0.3,0.2,0.5,0.4,0.5c0.3,0,0.4,0.2,0.3,0.6
				c2,1.1,3.6,2,4.7,2.7c1.2,0.7,2.2,1.2,3.3,1.6c1,0.4,2.1,0.8,3.3,1.1c1.2,0.3,2.8,0.6,4.9,1c2.1,0.4,3.7,0.7,4.9,0.9
				c1.2,0.2,2.2,0.4,3.2,0.6c1,0.2,2,0.3,3,0.3c1,0.1,2.4,0.1,4.3,0.2c0.8,0.7,1.4,1.5,2,2.5c0.6,1,1,2,1.2,3c0.2,1,0.3,2,0.3,2.9
				c0,0.9-0.3,1.7-0.7,2.3c0.1,0.2,0.3,0.3,0.6,0.3c0.3-0.1,0.6,0,0.9,0c-0.5,0.3-0.8,0.8-1.1,1.3c-0.3,0.5-0.6,1-0.9,1.5
				c-0.3,0.5-0.6,0.9-1,1.3c-0.4,0.4-0.9,0.6-1.6,0.7c-2.4,1.1-5.6,1.3-9.4,0.7c-3.8-0.7-8.7-2-14.5-3.9c-2.9-1-5.3-1.8-7.2-2.6
				s-3.5-1.5-4.8-2.3c-1.4-0.8-2.6-1.6-3.7-2.5C1249.4,458.5,1248.1,457.5,1246.5,456.2z M1261.6,414.1c-0.8,1.3-1.7,2.5-2.8,3.6
				c-1,1.1-2,2.2-3,3.3c-0.9,1.1-1.8,2.4-2.5,3.7c-0.7,1.4-1.2,2.9-1.4,4.7c2.8-0.5,5.7-1.4,8.7-2.8c3-1.4,5.8-2.7,8.5-4
				c-0.4-2.5-1.4-4.4-2.9-5.9C1264.6,415.4,1263.1,414.5,1261.6,414.1z"/>
			<path class="st1" d="M1309.2,470.2c-0.4-0.1-0.9-0.3-1.3-0.4l-1.6-2.6l-1.9,1.5c-0.6-0.3-1-0.6-1.4-0.8c-0.3-0.3-0.7-0.6-1.1-1
				c-0.9-0.6-1.7-1.2-2.4-1.9c-0.7-0.6-1.1-1.3-1.2-1.9l-0.2-1.2l-1.2-0.2c-0.5-1.1-0.8-1.9-1.1-2.4c-0.3-0.5-0.7-0.9-1.3-1.2
				c-0.7-4-0.7-7.3,0-10.1c0.7-2.7,1.7-5.6,3.2-8.8c0.9-0.4,1.8-0.9,2.5-1.5c0.7-0.6,1.4-1.2,2-1.8c0.6-0.6,1.2-1.1,1.8-1.6
				c0.6-0.5,1.2-0.8,1.8-0.9l1.1-0.7c1.3-1.7,2.9-3.2,4.7-4.5c1.9-1.3,3.8-2.7,5.8-4.1c1.6-1,3.3-2.2,5-3.3c1.7-1.2,3.1-2.4,4.4-3.8
				c0.6,0,1.2-0.1,1.7-0.4c0.3-0.4,0.4-0.9,0.4-1.6c0.2-0.2,0.3-0.3,0.5-0.4c0.2-0.1,0.4-0.3,0.5-0.4c0.5-0.4,1.3-0.9,2.2-1.6
				c0.9-0.6,1.5-1.4,1.8-2.3l2.5-2.7l-3.6,0.3c-1.8,0.2-3.8,0.4-5.8,0.7c-2,0.3-3.8,0.5-5.2,0.7c-1.2,0.2-2.4,0.4-3.7,0.5
				c-1.3,0.1-2.7,0.2-4.2,0.4c-2.6-1.5-4.5-3.8-5.7-6.9c-1.2-3.1-1.5-6.2-0.7-9.3c0.6-0.1,1-0.3,1.4-0.5c0.4-0.2,0.8-0.4,1.2-0.6
				c0.7-0.1,1.2-0.1,1.4-0.1c0.2,0.1,0.6,0.1,1,0.1c2.2-0.5,4.1-0.9,5.5-1.1c1.5-0.2,2.9-0.3,4.1-0.4c1.4-0.1,2.7-0.1,4,0
				c1.3,0.1,2.5,0.3,3.8,0.6c2.8-0.1,5.6-0.4,8.5-0.8c2.9-0.4,5.8-0.3,8.9,0.2c2.1-0.8,4.3-1.1,6.4-0.9c2.1,0.2,4,1.1,5.7,2.6
				c0.1,1.4,0.5,2.4,1.2,3c0.6,0.7,1.4,1.1,2.4,1.4c0.8,2.3,0.9,4.3,0.5,6.1c-0.4,1.8-1.2,3.4-2.3,4.8c-1.1,1.4-2.5,2.7-4.1,3.9
				c-1.6,1.2-3.2,2.3-4.7,3.3c-0.4,0.7-1,1.4-1.7,1.8c-0.7,0.5-1.3,1-1.8,1.7c-2.5,3.5-5.4,6.6-8.6,9.3c-3.3,2.7-6.7,5.3-10.1,7.8
				c-2.5,1.8-4.9,3.6-7.4,5.5c-2.4,1.9-4.8,3.8-7,6l-1.1,1.1l1.1,1.1c1,0.9,2.2,1.3,3.4,1.3c0.7,0,1.4-0.2,2.1-0.4
				c0.7-0.2,1.3-0.5,1.9-0.8c0.6-0.2,1.2-0.4,1.7-0.6c0.5-0.2,0.9-0.3,1.3-0.4l1.6-0.1c0.6-0.4,1.2-0.8,1.9-1.1
				c0.6-0.3,1.3-0.5,1.9-0.7c0.6-0.2,1.2-0.4,1.8-0.6c0.6-0.2,1.1-0.5,1.8-0.9c1.8-0.1,3.4-0.4,5-1c1.5-0.6,3.1-1.2,4.7-1.9
				c0.9-0.4,1.9-0.9,2.8-1.2c0.9-0.4,1.8-0.7,2.8-0.9c0.3,0.4,0.7,0.7,1.2,1c0.5,0.3,0.9,0.5,1.3,0.7c1.1,0.6,1.7,1.2,1.8,1.7
				l0.5,3.3l2.2-2.4c1,0.8,1.6,1.6,1.7,2.6c0.1,1,0.1,2.3-0.2,3.9c-2.4,2.7-5.5,4.9-9.3,6.5c-3.8,1.6-7.8,3.2-12,4.8
				c-0.9,0.3-1.8,0.6-2.7,0.9c-0.9,0.3-1.8,0.6-2.7,1l0-2l-2.6,1.8c-0.3,0.3-0.6,0.5-0.7,0.8c-0.2,0.2-0.4,0.5-0.5,0.7
				c-2.1,0.7-3.8,1.2-5.1,1.5c-1.4,0.3-2.6,0.6-3.8,0.9c-1.3,0.4-2.6,0.7-3.8,1c-1.2,0.3-2.5,0.4-3.8,0.5c-0.4,0-0.8,0-1.3,0.1
				S1309.6,470.3,1309.2,470.2z"/>
			<path class="st1" d="M1429.5,391.6c0.1,0.6,0.1,1,0.1,1.3c0,0.3-0.1,0.5-0.1,0.8c0,0.2,0,0.5,0,0.8c0,0.3,0.1,0.7,0.3,1.2
				c-1.5,2.8-3.4,4.8-5.5,5.9c-2.2,1.1-4.5,2-7,2.5c-2.5,0.6-5.1,1.2-7.8,1.8c-2.7,0.6-5.3,1.8-7.8,3.5c-1.1-0.3-2-0.3-2.8,0.1
				c-0.8,0.4-2,0.6-3.6,0.5c-0.5,0.5-1,0.9-1.8,1.1c-0.7,0.2-1.4,0.5-2.1,0.8c0.4,0.7,0.5,1.4,0.5,2.2c0,0.8,0.1,1.4,0.4,1.8
				c2.8,0.1,5.9-0.1,9.3-0.6c3.4-0.5,6.7-0.9,10-1.1c0.1,0.4,0.1,0.7-0.1,0.8c-0.2,0.1-0.2,0.4-0.1,0.7c0.6,0.4,1.2,0.8,1.8,1.4
				c0.6,0.6,1.2,1.1,1.8,1.7c0.6,0.5,1.2,1,1.8,1.3c0.6,0.3,1.3,0.4,2.1,0.3c0.4,0.6,0.6,1.3,0.8,2.1c0.2,0.8,0.1,1.5-0.2,2.4
				c-1.2,0.9-2.5,1.9-3.7,2.9c-1.2,1-2.5,1.9-3.9,2.7c-1.4,0.8-2.8,1.4-4.4,2c-1.5,0.5-3.3,0.8-5.2,0.8c-0.4,0-0.7,0-0.9,0
				c-0.2,0-0.5-0.1-0.8-0.3c-0.6,0.4-1.5,0.6-2.7,0.5c-1.2-0.1-2.1,0.1-2.7,0.5c-0.9-0.4-2-0.5-3.2-0.4c-1.2,0.1-2.3,0-3.3-0.3
				c-1.2,1.7-2.3,3.6-3.2,5.6c-0.9,2-1.8,4.1-2.5,6.3c2.7,0.3,5,0.3,6.8,0.1c1.8-0.2,3.5-0.4,5.1-0.7c1.6-0.3,3.2-0.6,4.9-0.9
				c1.7-0.3,3.8-0.5,6.4-0.5c1.6-1,3.4-1.6,5.6-2c2.2-0.4,4.2-1,6-1.7c0.7,0.2,1.2,0.6,1.7,1.2s1,1.1,1.5,1.6c0.5,0.5,1,0.9,1.5,1.3
				c0.5,0.4,1.1,0.5,1.8,0.4c0.3,0.3,0.6,0.7,0.7,1.1c0.1,0.4,0.3,0.9,0.4,1.2c0.1,0.4,0.3,0.7,0.5,1c0.2,0.3,0.6,0.4,1,0.2
				c-1.1,2.7-2.3,4.8-3.8,6.3c-1.5,1.5-3.2,2.6-5.2,3.5c-2,0.8-4.2,1.5-6.6,2c-2.4,0.5-5.1,1.1-8,1.9c-0.7,0.2-1.3,0.2-1.8,0
				c-0.5-0.2-1.1-0.2-1.7-0.2c-1.8,0.5-4,1-6.6,1.4c-2.5,0.4-5.1,0.7-7.8,0.8c-2.6,0.1-5.2-0.2-7.6-0.6c-2.4-0.5-4.5-1.4-6-2.9
				c-0.7-0.5-1.1-1.2-1.4-1.9c-0.2-0.8-0.8-1.3-1.7-1.7c-0.1-1-0.4-2.2-0.7-3.5c-0.3-1.3-0.6-2.6-0.9-4c-0.3-1.4-0.6-2.8-0.8-4.1
				c-0.2-1.4-0.2-2.6,0-3.7c0.2-1.2,0.6-2.3,1.3-3.3c0.7-1,0.9-2.1,0.6-3.2c0.4-0.1,0.6-0.3,0.7-0.7c0.1-0.4,0.4-0.5,0.9-0.5
				c0.4-1.5,0.9-2.9,1.4-4.2c0.5-1.3,1-2.6,1.6-3.8c0.5-1.2,1.1-2.5,1.6-3.8c0.5-1.3,1-2.7,1.5-4.2c-1.2-1-2.1-2.1-2.6-3.3
				c-0.6-1.2-1-2.4-1.3-3.7c-0.3-1.2-0.6-2.5-0.8-3.8c-0.2-1.3-0.6-2.6-1-4c0.7-1.2,1.7-2.3,2.8-3.1c1.1-0.8,2.4-1.5,3.7-2.1
				c1.3-0.5,2.8-1,4.4-1.4c1.6-0.4,3.2-0.8,5-1.3c3.2-1.2,6-2.1,8.5-2.8c2.5-0.7,5-1.3,7.4-1.8c2.4-0.5,5-1,7.6-1.4
				c2.6-0.5,5.6-1.1,8.9-1.9c0.8,0.7,1.5,1,2.1,1c0.3-0.7,0.7-1,1.1-0.7c0.5,0.3,0.6,0,0.5-0.7c0.9,1.3,1.9,2.4,3.2,3.3
				C1426.5,390.3,1428,391.1,1429.5,391.6z"/>
			<path class="st1" d="M1454.6,449.8c0.5,2.4,0.5,4.3-0.1,5.7c-0.6,1.4-1.5,2.5-2.7,3.2c-1.2,0.7-2.6,1.2-4.2,1.4
				c-1.6,0.2-3.1,0.2-4.6,0c-0.9-1.1-1.7-2.4-2.4-4.1c-0.7-1.7-1.4-3.4-2.1-5.1c-0.7-1.8-1.2-3.5-1.8-5.3c-0.5-1.7-1-3.3-1.4-4.6
				c0.4-1,0.6-2.1,0.6-3.3c0.1-1.2,0.1-2.5,0-3.8c0-1.3-0.1-2.6-0.1-3.9c0-1.3,0-2.6,0.1-3.8c0.4-3.4,1-6.6,2-9.7
				c0.9-3.1,1.6-6.3,2.1-9.6c0.1-0.7,0-1.4-0.3-2c-0.3-0.6-0.4-1.2-0.3-1.8c0.1-0.3,0.3-0.6,0.7-0.7c0.4-0.1,0.6-0.4,0.7-0.8
				c0.2-0.9,0.2-1.6,0.1-2.2c-0.1-0.6,0-1.2,0.3-2.1c0.4-0.7,0.8-1.6,1.4-2.9c0.5-1.3,0.7-2.6,0.5-3.9c0.7-0.5,1.3-1.1,2-1.8
				c0.6-0.7,1.2-1.3,1.9-1.8c0.7-0.6,1.4-1.1,2.2-1.5c0.8-0.4,1.8-0.7,3-0.8c0.7,0.8,1.1,1.6,1.4,2.6c0.2,1,0.5,1.9,0.7,2.9
				c0.2,1,0.6,1.8,1,2.7c0.4,0.8,1.2,1.4,2.1,1.9c0,0.6,0.1,1.4,0.1,2.4c0,1,0.1,1.9,0.3,2.8c0.1,0.9,0.3,1.8,0.7,2.5
				c0.3,0.7,0.8,1.2,1.5,1.4c-1.2,3.9-2.4,7.8-3.5,11.6c-1.1,3.8-1.9,7.7-2.5,11.5c-0.6,3.8-0.9,7.7-0.9,11.6
				C1453.2,442,1453.7,445.9,1454.6,449.8z"/>
			<path class="st1" d="M1517.1,455.3c-1.3,0.1-2.9,0.2-4.8,0.1c-1.9-0.1-3.6,0.3-5.2,1.1c-4.3,0.1-8.6-0.2-13.1-0.9
				c-4.5-0.7-8.6-1.5-12.3-2.6c-0.8-0.8-1.7-1.6-2.5-2.3c-0.8-0.7-1.9-1.2-3.3-1.5c-2-1.4-3.7-3.2-5-5.4c-1.3-2.1-2.4-4.4-3.2-6.9
				c-0.8-2.4-1.5-5-1.8-7.6c-0.4-2.6-0.6-5.1-0.6-7.5c1-3.7,2.6-6.9,4.6-9.6c2.1-2.7,4.2-5.4,6.4-8.1c1-0.5,1.8-1.1,2.3-1.6
				c0.5-0.5,1-1.1,1.6-1.5c0.6-0.5,1.2-0.9,1.7-1.4c0.6-0.5,1.1-1,1.5-1.7c1.7-0.5,3.1-1.1,4.3-2c1.2-0.8,2.4-1.7,3.5-2.6
				c1.2-0.9,2.4-1.7,3.6-2.5c1.2-0.8,2.7-1.4,4.4-1.9c0.6-0.8,1.3-1.4,2.2-1.9c0.9-0.5,1.7-1,2.6-1.5c0.9-0.5,1.8-1,2.6-1.5
				s1.4-1.2,1.9-2c0.4,0.6,1,0.8,1.7,0.6c0.7-0.2,1.4-0.5,2-0.8c0.4-0.1,0.7,0,1,0.2c0.3,0.2,0.6,0.5,0.8,0.7
				c0.3,0.2,0.5,0.4,0.7,0.4c0.2,0,0.4-0.2,0.5-0.6c0.4,0,0.5,0.2,0.4,0.6c-0.1,0.4-0.2,0.7-0.3,0.9c0.6-0.1,1.2,0,1.6,0.3
				c0.5,0.3,1.2,0.5,2.1,0.6c0.3,0.4,0.4,0.7,0.3,0.9c-0.2,0.2-0.2,0.6-0.2,1c2.4,0.6,4,1.7,4.7,3.2c0.7,1.5,0.8,3.2,0.4,4.9
				c-0.5,1.7-1.4,3.3-2.8,4.8c-1.4,1.5-2.9,2.6-4.5,3.1c-3.8,1.2-7.4,2.6-10.7,4c-3.3,1.4-6,3.4-8.1,5.9c-1.9,0.7-3.6,1.5-5,2.5
				c-1.4,1-2.8,2.1-4,3.3c-1.3,1.2-2.4,2.5-3.5,3.8c-1.1,1.3-2.3,2.6-3.5,3.9c0.1,1.1,0,2-0.4,2.6c-0.4,0.6-0.8,1.3-1.2,1.9
				c0.2,1.2,0.6,2.2,1,3.1c0.4,0.9,0.9,1.8,1.5,2.6c5.4,1.3,11,2.1,17,2.2c6,0.1,12,0,18-0.2c0.6,0.8,1.3,1.5,2.1,2.1
				c0.8,0.6,1.5,1.3,2.2,2.1c0.7,0.7,1.2,1.5,1.7,2.4c0.4,0.9,0.6,2,0.4,3.4c-1.1,1.3-2.2,2.4-3.6,3.5
				C1519.8,453.1,1518.4,454.2,1517.1,455.3z"/>
			<path class="st1" d="M1591.2,439.6c0.3,2.1,0.1,3.8-0.5,5.2c-0.6,1.4-1.4,2.6-2.5,3.6c-1.1,1-2.3,1.8-3.7,2.5
				c-1.4,0.6-2.8,1.2-4.1,1.8c-0.7-0.4-1.3-0.8-1.9-1.2c-0.6-0.4-1.3-0.7-2.2-0.9c-1.1-1.9-2.2-3.5-3.3-5c-1-1.4-1.6-3.1-1.6-5
				c0-0.1,0-0.5,0.1-1.3c0.1-0.8,0.2-1.7,0.3-2.7c0.2-1,0.3-1.9,0.3-2.7c0.1-0.8,0.1-1.3,0.1-1.4c-1.8,0.3-3.7,0.8-5.7,1.5
				c-2,0.7-3.9,1.6-5.7,2.6c-1.8,1-3.6,1.9-5.2,2.9c-1.6,1-2.9,1.8-3.9,2.5c0,0.2-0.1,0.8-0.4,1.8c-0.3,0.9-0.6,1.9-1.1,2.9
				c-0.4,1-0.9,2-1.4,2.8c-0.5,0.8-1.1,1.3-1.6,1.3c0.1,0.2,0.2,0.5,0.4,0.7c0.2,0.2,0.2,0.6,0,1c-1.1,0.4-2.1,0.8-2.9,1.4
				c-0.9,0.6-1.8,1.1-2.7,1.5c-0.9,0.4-2,0.6-3.1,0.7c-1.1,0.1-2.5-0.3-4-1c0-0.5-0.2-0.9-0.7-1.2c-0.4-0.3-0.9-0.6-1.3-0.9
				c-0.5-0.3-0.8-0.5-1.2-0.7c-0.3-0.2-0.5-0.4-0.5-0.5c-0.4,0.1-0.6-0.2-0.5-0.8c0-0.6,0.4-0.8,0.9-0.5c-0.9-1.1-1.5-2-1.8-2.9
				c-0.2-0.8-0.8-1.9-1.5-3.1c0.2-0.2,0.3-0.5,0.4-0.9c0.1-0.4,0.2-0.8,0.2-1.1c0.1-0.3,0.2-0.6,0.3-0.7c0.2-0.2,0.4-0.1,0.6,0.1
				c-0.2-0.7-0.2-1.3-0.1-1.8c0.1-0.5,0.3-0.9,0.4-1.3c0.1-0.4,0.2-0.8,0.3-1.2c0.1-0.4-0.1-0.8-0.4-1.3c1.2-1.8,1.9-3.8,2.2-5.8
				c0.3-2.1,0.4-3.9,0.4-5.6c0.5-0.6,1-1.4,1.4-2.5c0.4-1.1,0.7-2.1,0.9-3.2c0.2-1.1,0.2-2.1,0.1-3.1c-0.1-1-0.3-1.8-0.5-2.4
				c0.1-0.4,0.5-0.5,1.3-0.4c0.3-2.7,0.5-5.7,0.6-9c0-3.3,0.2-6.5,0.5-9.5c0.3-3,1-5.7,2-8.1c1-2.3,2.7-3.9,5.2-4.8
				c0.6,1.7,1.3,3.1,2.1,4.4c0.8,1.2,1.7,2.4,2.7,3.5c1,1.1,2,2.2,2.9,3.4c1,1.2,1.9,2.5,2.8,4c0,1.5-0.1,3.3-0.2,5.3
				c-0.1,2-0.3,4.1-0.6,6.2c-0.3,2.1-0.5,4.1-0.8,6.1c-0.3,1.9-0.5,3.6-0.8,5c0.1,0.4,0.3,0.6,0.7,0.7c0.4,0.1,0.4,0.4,0.2,1.1
				c1.9-0.6,3.9-1.1,5.9-1.6c2.1-0.5,4.1-1.1,6.2-1.6c2.1-0.6,4.1-1.2,6-1.9c1.9-0.7,3.7-1.5,5.4-2.5c0.2-3.1,0.6-6.3,1.1-9.5
				c0.5-3.2,0.4-6.4-0.2-9.6c0.4-0.3,0.7-0.8,0.9-1.2c0.2-0.5,0.6-0.8,1.2-1c-0.5-1.5-0.7-3.1-0.7-4.8c0-1.7,0.2-3.3,0.7-4.9
				c0.4-1.5,1.1-2.9,2.1-4c0.9-1.1,2.1-1.9,3.6-2.3c0.9,1.2,1.8,2.6,2.5,4c0.7,1.5,1.5,2.9,2.2,4.3c0.8,1.4,1.5,2.8,2.4,4.1
				c0.8,1.3,1.9,2.4,3.1,3.3c0.4,2.3,0.7,4.7,0.9,7.2c0.2,2.5,0.5,5,0.7,7.6c-0.5,3.1-1,6.1-1.7,8.9c-0.6,2.9-1,5.9-1.2,9.2
				c-0.5,0.7-0.9,1.4-1.2,2.2c-0.3,0.8-0.6,1.7-0.8,2.5c-0.3,0.9-0.6,1.7-1,2.5c-0.4,0.8-0.8,1.5-1.3,2.1c0.4,0.9,0.5,1.8,0.3,2.7
				S1590.5,438.4,1591.2,439.6z"/>
			<path class="st1" d="M1626.6,427.6c-0.7,0.2-1.2,0.6-1.5,1.3c-0.3,0.7-0.6,1.4-0.8,2.1c-0.2,0.7-0.5,1.4-0.7,2
				c-0.3,0.6-0.7,0.9-1.2,1c0,0.6-0.2,1.2-0.6,1.7c-0.3,0.5-0.7,1-0.9,1.6c-0.3,0.5-0.5,1.1-0.6,1.7c-0.1,0.6,0,1.3,0.3,2.1
				c-0.6,0.5-1,1.2-1.1,2.1c-0.1,0.9-0.3,1.7-0.4,2.6c-0.2,0.8-0.5,1.5-0.9,2.1c-0.5,0.6-1.3,0.9-2.6,0.9c-0.2,0.3-0.3,0.5-0.1,0.6
				c0.2,0.1,0.3,0.3,0.4,0.8c-0.9-0.1-1.5,0-2,0.3c-0.4,0.3-1,0.5-1.6,0.6c-1.5-0.4-2.9-1.2-3.9-2.3c-1.1-1.2-2-2.4-2.8-3.9
				c-0.8-1.4-1.6-2.9-2.3-4.4s-1.3-2.8-1.9-3.9c0.2-0.9,0.2-1.8,0-2.6c-0.2-0.8-0.5-1.5-0.9-2.1c3.5-8.5,7.3-17.6,11.5-27.3
				c4.2-9.7,8.1-19.2,11.8-28.7c1.9,0.6,3.7,1.4,5.6,2.2c1.8,0.8,3.5,1.8,5.1,2.9c1.5,1.1,2.9,2.4,4,4c1.1,1.5,1.9,3.2,2.3,5.1
				c-0.1,0.5-0.3,0.7-0.5,0.6c-0.2-0.1-0.4,0-0.5,0.2c0.3,0.4,0.5,0.7,0.6,0.8c0,0.2,0.1,0.3,0,0.5c0,0.2,0,0.4,0,0.7
				c0,0.3,0.2,0.7,0.4,1.1c-0.3-0.1-0.5,0-0.7,0.2c-0.1,0.2-0.4,0.2-0.8,0c0.4,0.9,0.5,1.6,0.4,2.1c-0.1,0.6-0.2,1.1-0.5,1.5
				c-0.2,0.5-0.4,0.9-0.5,1.5c-0.1,0.5-0.1,1.2,0.2,2c-0.2,0-0.4,0.1-0.5,0.2c-0.1,0.1-0.2,0.3-0.3,0.4c-0.1,0.1-0.2,0.2-0.3,0.4
				c-0.1,0.1-0.3,0.2-0.5,0.1c0.3,1.8,0.5,3.5,0.5,5.3c0,1.8,0,3.6,0.1,5.4c0,1.8,0.2,3.7,0.3,5.6c0.2,2,0.6,4,1.1,6
				c2.8-1.8,5-4.1,6.6-6.8c1.6-2.7,2.8-5.8,3.8-9.1c0.9-3.3,1.6-6.9,1.9-10.7c0.4-3.8,0.8-7.7,1.2-11.6c0.7-0.8,1.2-1.7,1.5-2.7
				c0.3-1.1,0.7-2.2,0.9-3.4c0.3-1.2,0.5-2.4,0.8-3.5s0.6-2.3,1-3.2c1.2,0.1,2.3,0.4,3.1,1c0.9,0.6,1.7,1.2,2.4,1.8
				c0.8,0.6,1.5,1.2,2.4,1.8c0.8,0.6,1.9,0.9,3.1,1c1,1.3,2,2.6,2.8,3.8c0.9,1.2,1.5,2.6,1.8,4c-0.4,0.7-0.6,1.4-0.8,2.2
				c-0.2,0.8-0.3,1.6-0.5,2.4c-0.2,0.8-0.5,1.6-0.8,2.3c-0.4,0.7-0.9,1.3-1.6,1.8c-0.1,2.1-0.3,4-0.6,5.8c-0.3,1.7-0.5,3.5-0.8,5.2
				c-0.3,1.7-0.5,3.5-0.6,5.3c-0.1,1.8-0.1,3.8,0.1,6c-0.5,1.9-1.1,3.9-1.7,6c-0.6,2.1-1.1,4-1.4,5.7c-1.2,1.1-2.2,2.4-2.8,3.9
				c-0.6,1.5-1.3,3-2.1,4.4c-0.3,0.3-0.5,0.4-0.6,0.3c-0.1-0.2-0.4-0.3-0.9-0.3c0.1,0.3,0.1,0.6,0,0.7c-0.1,0.2-0.2,0.3-0.3,0.4
				c-0.1,0.1-0.2,0.3-0.2,0.6c0,0.2,0,0.6,0.2,1c-1.1,0.5-2.1,1.3-2.9,2.2c-0.8,0.9-1.7,1.8-2.7,2.5c-1,0.8-2.1,1.3-3.5,1.6
				c-1.4,0.3-3.2,0.1-5.5-0.6c-3.4-2.2-6.5-4.9-9.1-7.9C1630.7,435.4,1628.5,431.8,1626.6,427.6z"/>
			<path class="st1" d="M1738.8,376c0.1,0.6,0.1,1,0.1,1.3c0,0.3-0.1,0.5-0.1,0.8c0,0.2,0,0.5,0,0.8c0,0.3,0.1,0.7,0.3,1.2
				c-1.5,2.8-3.4,4.8-5.5,5.9c-2.2,1.1-4.5,2-7,2.5c-2.5,0.6-5.1,1.2-7.8,1.8c-2.7,0.6-5.3,1.8-7.8,3.5c-1.1-0.3-2-0.3-2.8,0.1
				c-0.8,0.4-2,0.6-3.6,0.5c-0.5,0.5-1,0.9-1.8,1.1c-0.7,0.2-1.4,0.5-2.1,0.8c0.4,0.7,0.5,1.4,0.5,2.2c0,0.8,0.1,1.4,0.4,1.8
				c2.8,0.1,5.9-0.1,9.3-0.6c3.4-0.5,6.7-0.9,10-1.1c0.1,0.4,0.1,0.7-0.1,0.8c-0.2,0.1-0.2,0.4-0.1,0.7c0.6,0.4,1.2,0.8,1.8,1.4
				s1.2,1.1,1.8,1.7c0.6,0.5,1.2,1,1.8,1.3c0.6,0.3,1.3,0.4,2.1,0.3c0.4,0.6,0.6,1.3,0.8,2.1c0.2,0.8,0.1,1.5-0.2,2.4
				c-1.2,0.9-2.5,1.9-3.7,2.9c-1.2,1-2.5,1.9-3.9,2.7c-1.4,0.8-2.8,1.4-4.4,2c-1.5,0.5-3.3,0.8-5.2,0.8c-0.4,0-0.7,0-0.9,0
				c-0.2,0-0.5-0.1-0.8-0.3c-0.6,0.4-1.5,0.6-2.7,0.5c-1.2-0.1-2.1,0.1-2.7,0.5c-0.9-0.4-2-0.5-3.2-0.4c-1.2,0.1-2.3,0-3.3-0.3
				c-1.2,1.7-2.3,3.6-3.2,5.6c-0.9,2-1.8,4.1-2.5,6.3c2.7,0.3,5,0.3,6.8,0.1c1.8-0.2,3.5-0.4,5.1-0.7c1.6-0.3,3.2-0.6,4.9-0.9
				c1.7-0.3,3.8-0.5,6.4-0.5c1.6-1,3.4-1.6,5.6-2c2.2-0.4,4.2-1,6-1.7c0.7,0.2,1.2,0.6,1.7,1.2c0.5,0.6,1,1.1,1.5,1.6
				c0.5,0.5,1,0.9,1.5,1.3c0.5,0.4,1.1,0.5,1.8,0.4c0.3,0.3,0.6,0.7,0.7,1.1c0.1,0.4,0.3,0.9,0.4,1.2c0.1,0.4,0.3,0.7,0.5,1
				c0.2,0.3,0.6,0.4,1,0.2c-1.1,2.7-2.3,4.8-3.8,6.3c-1.5,1.5-3.2,2.6-5.2,3.5c-2,0.8-4.2,1.5-6.6,2c-2.4,0.5-5.1,1.1-8,1.9
				c-0.7,0.2-1.3,0.2-1.8,0c-0.5-0.2-1.1-0.2-1.7-0.2c-1.8,0.5-4,1-6.6,1.4c-2.5,0.4-5.1,0.7-7.8,0.8c-2.6,0.1-5.2-0.2-7.6-0.6
				c-2.4-0.5-4.5-1.4-6-2.9c-0.7-0.5-1.1-1.2-1.4-1.9c-0.2-0.8-0.8-1.3-1.7-1.7c-0.1-1-0.4-2.2-0.7-3.5c-0.3-1.3-0.6-2.6-0.9-4
				c-0.3-1.4-0.6-2.8-0.8-4.1c-0.2-1.4-0.2-2.6,0-3.7c0.2-1.2,0.6-2.3,1.3-3.3c0.7-1,0.9-2.1,0.6-3.2c0.4-0.1,0.6-0.3,0.7-0.7
				c0.1-0.4,0.4-0.5,0.9-0.5c0.4-1.5,0.9-2.9,1.4-4.2c0.5-1.3,1-2.6,1.6-3.8c0.5-1.2,1.1-2.5,1.6-3.8c0.5-1.3,1-2.7,1.5-4.2
				c-1.2-1-2.1-2.1-2.6-3.3c-0.6-1.2-1-2.4-1.3-3.7c-0.3-1.2-0.6-2.5-0.8-3.8c-0.2-1.3-0.6-2.6-1-4c0.7-1.2,1.7-2.3,2.8-3.1
				c1.1-0.8,2.4-1.5,3.7-2.1c1.3-0.5,2.8-1,4.4-1.4c1.6-0.4,3.3-0.8,5-1.3c3.2-1.2,6-2.1,8.5-2.8c2.5-0.7,5-1.3,7.4-1.8
				c2.4-0.5,5-1,7.6-1.4c2.6-0.5,5.6-1.1,8.9-1.9c0.8,0.7,1.5,1,2.1,1c0.3-0.7,0.7-1,1.1-0.7c0.5,0.3,0.6,0,0.5-0.7
				c0.9,1.3,1.9,2.4,3.2,3.3C1735.8,374.7,1737.2,375.4,1738.8,376z"/>
			<path class="st1" d="M1764.1,420.6c-0.7,0.2-1.2,0.6-1.5,1.3c-0.3,0.7-0.6,1.4-0.8,2.1c-0.2,0.7-0.5,1.4-0.7,2
				c-0.3,0.6-0.7,0.9-1.2,1c0,0.6-0.2,1.2-0.6,1.7c-0.3,0.5-0.7,1-0.9,1.6c-0.3,0.5-0.5,1.1-0.6,1.7c-0.1,0.6,0,1.3,0.3,2.1
				c-0.6,0.5-1,1.2-1.1,2.1c-0.1,0.9-0.3,1.7-0.4,2.6c-0.2,0.8-0.5,1.5-0.9,2.1c-0.5,0.6-1.3,0.9-2.6,0.9c-0.2,0.3-0.3,0.5-0.1,0.6
				s0.3,0.3,0.4,0.8c-0.9-0.1-1.5,0-2,0.3c-0.4,0.3-1,0.5-1.6,0.6c-1.5-0.4-2.9-1.2-3.9-2.3c-1.1-1.2-2-2.4-2.8-3.9
				c-0.8-1.4-1.6-2.9-2.3-4.4s-1.3-2.8-1.9-3.9c0.2-0.9,0.2-1.8,0-2.6c-0.2-0.8-0.5-1.5-0.9-2.1c3.5-8.5,7.3-17.6,11.5-27.3
				c4.2-9.7,8.1-19.2,11.8-28.7c1.9,0.6,3.7,1.4,5.6,2.2c1.8,0.8,3.5,1.8,5.1,2.9c1.5,1.1,2.9,2.4,4,4c1.1,1.5,1.9,3.2,2.3,5.1
				c-0.1,0.5-0.3,0.7-0.5,0.6c-0.2-0.1-0.4,0-0.5,0.2c0.3,0.4,0.5,0.7,0.6,0.8c0,0.2,0.1,0.3,0,0.5c0,0.2,0,0.4,0,0.7
				c0,0.3,0.2,0.7,0.4,1.1c-0.3-0.1-0.5,0-0.7,0.2c-0.1,0.2-0.4,0.2-0.8,0c0.4,0.9,0.5,1.6,0.4,2.1c-0.1,0.6-0.2,1.1-0.5,1.5
				c-0.2,0.5-0.4,0.9-0.5,1.5c-0.1,0.5-0.1,1.2,0.2,2c-0.2,0-0.4,0.1-0.5,0.2c-0.1,0.1-0.2,0.3-0.3,0.4c-0.1,0.1-0.2,0.2-0.3,0.4
				c-0.1,0.1-0.3,0.2-0.5,0.1c0.3,1.8,0.5,3.5,0.5,5.3c0,1.8,0,3.6,0.1,5.4c0,1.8,0.2,3.7,0.3,5.6c0.2,2,0.6,4,1.1,6
				c2.8-1.8,5-4.1,6.6-6.8c1.6-2.7,2.8-5.8,3.8-9.1c0.9-3.3,1.6-6.9,1.9-10.7c0.4-3.8,0.8-7.7,1.2-11.6c0.7-0.8,1.2-1.7,1.5-2.7
				c0.3-1.1,0.7-2.2,0.9-3.4c0.3-1.2,0.5-2.4,0.8-3.5c0.3-1.2,0.6-2.3,1-3.2c1.2,0.1,2.3,0.4,3.1,1c0.9,0.6,1.7,1.2,2.4,1.8
				c0.8,0.6,1.5,1.2,2.4,1.8c0.8,0.6,1.9,0.9,3.1,1c1,1.3,2,2.6,2.8,3.8c0.9,1.2,1.5,2.6,1.8,4c-0.4,0.7-0.6,1.4-0.8,2.2
				c-0.2,0.8-0.3,1.6-0.5,2.4c-0.2,0.8-0.5,1.6-0.8,2.3c-0.4,0.7-0.9,1.3-1.6,1.8c-0.1,2.1-0.3,4-0.6,5.8c-0.3,1.7-0.5,3.5-0.8,5.2
				c-0.3,1.7-0.5,3.5-0.6,5.3c-0.2,1.8-0.1,3.8,0.1,6c-0.5,1.9-1.1,3.9-1.7,6c-0.6,2.1-1.1,4-1.4,5.7c-1.2,1.1-2.2,2.4-2.8,3.9
				c-0.6,1.5-1.3,3-2.1,4.4c-0.3,0.3-0.5,0.4-0.6,0.3c-0.1-0.2-0.4-0.3-0.9-0.3c0.1,0.3,0.1,0.6,0,0.7c-0.1,0.2-0.2,0.3-0.3,0.4
				s-0.2,0.3-0.2,0.6c0,0.2,0,0.6,0.2,1c-1.1,0.5-2.1,1.3-2.9,2.2c-0.8,0.9-1.7,1.8-2.7,2.5c-1,0.8-2.1,1.3-3.5,1.6
				c-1.4,0.3-3.2,0.1-5.5-0.6c-3.4-2.2-6.5-4.9-9.1-7.9C1768.1,428.5,1765.9,424.9,1764.1,420.6z"/>
			<path class="st1" d="M1833.1,424.7c0.2,0.6,0.3,1.2,0.5,1.8c0.1,0.6,0.2,1.2,0.3,1.8c-0.4,1.7-0.8,3.3-1.3,4.6
				c-0.2,0.6-0.4,0.9-0.4,1.1c-0.1,0.2-0.1,0.3-0.1,0.4c0,0.1,0,0.2,0.1,0.3c0.1,0.1,0.1,0.5,0.2,1l-0.5,1.5c-0.4,0.6-0.8,1-1.3,1.4
				c-0.5,0.3-1,0.7-1.6,0.9c-0.2,0.2-0.5,0.3-0.8,0.5s-0.5,0.3-0.6,0.5l-0.3,1.5l-1.7,0.3c-1.3,0.4-2.4,0.6-3.5,0.7l-1.3,0.1
				c-1-0.8-1.8-1.5-2.4-1.9c-0.6-0.5-1.2-0.9-2-1.2c-1-1.5-1.5-2.8-1.8-3.9c-0.2-1-0.4-1.7-0.7-2l-1.8-1.6l1.4-1.2l-1.6-2.2
				c0.9-0.8,1.6-1.3,2.1-1.7c0.5-0.3,0.9-0.7,1.2-1.1c0.3-0.4,0.7-0.9,1.1-1.4c0.4-0.6,1-1.5,1.8-2.9l1-1.6l1.5,0.8
				c0.4,0.2,1.2,0.4,2.3,0.5c1.1,0.1,2,0.3,2.9,0.4c1.3,0.3,2.6,0.6,3.8,0.7c1.3,0.1,2.3,0.5,3,1.1L1833.1,424.7z M1841.5,355.8
				c0,0.7,0,1.6-0.2,2.7c-0.1,1.1-0.3,2.1-0.4,3.2c-0.1,1-0.1,2,0,2.8c0.1,0.8,0.5,1.4,1.2,1.6c-1.2,4.3-2,7.9-2.4,10.8
				s-0.7,5.7-0.9,8.3c-0.2,2.6-0.6,5.4-1,8.3c-0.4,2.9-1.2,6.5-2.5,10.7c-0.8,2.6-1.7,4.4-3,5.5c-1.2,1.1-2.6,1.6-4,1.7
				c-1.4,0.1-2.9-0.3-4.5-1c-1.6-0.7-3-1.5-4.3-2.4c-0.3-1.5-0.4-3.4-0.3-5.6c0.1-2.2,0.2-4.5,0.4-7c0.2-2.4,0.4-4.7,0.6-7
				c0.2-2.2,0.4-4.1,0.4-5.6c0.8-0.9,1.3-1.7,1.6-2.2c0.3-0.6,0.5-1.2,0.6-1.8c0.1-0.6,0.1-1.5,0.2-2.4c0-1,0.2-2.3,0.4-4.1
				c0.1-0.9,0-1.7-0.3-2.3c-0.3-0.7-0.4-1.3-0.3-2c0.1-0.3,0.4-0.6,0.7-0.8c0.4-0.2,0.6-0.5,0.6-0.9c0.3-1.1,0.3-1.9,0.1-2.5
				s-0.1-1.3,0.2-2.2c0.4-0.7,0.8-1.7,1.3-3.1c0.5-1.4,0.7-2.9,0.4-4.4c0.7-0.6,1.3-1.3,1.9-2c0.6-0.8,1.2-1.4,1.9-2.1
				c0.6-0.6,1.4-1.2,2.2-1.6c0.8-0.4,1.8-0.7,3-0.8c0.7,0.9,1.2,1.7,1.6,2.5c0.4,0.8,0.7,1.5,1,2.2c0.3,0.7,0.7,1.4,1.2,2
				C1839.8,354.8,1840.5,355.3,1841.5,355.8z"/>
		</g>
		<g>
			<g>
				<g>
					<g>
						<g>
							<path class="st1" d="M1947.2,487.7c2.2,0.7,2.1-2.2,2.5-2.6C1945.8,484.8,1947.2,488.4,1947.2,487.7z"/>
							<polygon class="st1" points="1910.7,488.5 1911.4,487.4 1906,489.6 							"/>
							<path class="st1" d="M1878.4,485.8c2.7,5,11.7-0.1,17.4,2.2l0.9,1.2l2.9-3.6c-3.5,0-7.6,0.5-11.4,0.7
								C1884.3,486.6,1880.8,486.6,1878.4,485.8z"/>
							<path class="st1" d="M1861.7,474.6c1,1.9-3.8,1.4,4,0.8c-0.4-0.2-0.5-0.3-0.7-0.5C1864.3,474.9,1863.3,474.8,1861.7,474.6z"
								/>
							<path class="st1" d="M1865,474.9C1868.4,474.9,1862.8,473.2,1865,474.9L1865,474.9z"/>
							<path class="st1" d="M1849.2,475.2l4.6-1.5c-0.9-1.1-4.9-1.5-3.4-2.3C1845.7,472.2,1846.6,473.3,1849.2,475.2z"/>
							<path class="st1" d="M1844.8,478.5l2.3-0.6C1846.7,477.5,1846.1,477.3,1844.8,478.5z"/>
							<path class="st1" d="M1852.1,476.6l-5,1.3c0.6,0.8,0.6,2.3,2.3-0.4C1849,478.9,1850,477.6,1852.1,476.6z"/>
							<path class="st1" d="M1854.9,477.5c2.5,1.1,5.7,2,1.1,3.4C1864.6,480.6,1863.5,477.2,1854.9,477.5z"/>
							<path class="st1" d="M1876.4,490.6l3.3,1.6l3-1.4C1881.2,491.5,1876.3,489.1,1876.4,490.6z"/>
							<path class="st1" d="M1821.3,471.9c-0.3,1,1.4,2.7,1.7,4.1l3.3-1.1C1824.7,474.1,1821.5,473.4,1821.3,471.9z"/>
							<path class="st1" d="M1823,475.9l-5,1.6C1822.5,477.8,1823.3,477,1823,475.9z"/>
							<polygon class="st1" points="1843.8,483.8 1852,480.5 1842.2,483.8 							"/>
							<polygon class="st1" points="1802.4,471.3 1805.3,469.1 1800.2,472.5 							"/>
							<path class="st1" d="M1789.9,471.6c2.1-1.9-2.8-3.3-0.6-4.5c-3.4,0.3-6.3,1.9-9,3.4C1783.1,469.7,1786.1,469.9,1789.9,471.6z
								"/>
							<path class="st1" d="M1775.9,472.6c1.4-0.5,2.8-1.3,4.4-2.1C1778.8,470.9,1777.4,471.5,1775.9,472.6z"/>
							<path class="st1" d="M1809.7,476.9c-0.4-0.6-1.1-2.2-3.8-3l1.9,2.9C1808.3,476.8,1809,476.8,1809.7,476.9z"/>
							<path class="st1" d="M1807.8,476.9L1807.8,476.9c-2.2-0.2-3.6-0.3-4.3-0.3C1804.1,476.6,1805.3,476.7,1807.8,476.9z"/>
							<path class="st1" d="M1810.1,476.9c-0.2,0-0.3,0-0.5,0C1809.8,477.1,1810,477.2,1810.1,476.9z"/>
							<path class="st1" d="M1830.9,480.8c-3,1.5-9,3.1-3.3,5.7C1829.8,484.6,1826.5,483.1,1830.9,480.8z"/>
							<path class="st1" d="M1812.5,480.5l5.2,0.8c-0.1-0.8-1-1.9,0.4-2.6L1812.5,480.5z"/>
							<polygon class="st1" points="1809.9,481.4 1812.5,480.5 1810.5,480.2 							"/>
							<path class="st1" d="M1784.9,475.4c-2.3,1.2-4.8,1.3-7.6,1.5c3,0.6,6.1,0.9,9,1C1786.8,476.9,1788.1,475.3,1784.9,475.4z"/>
							<path class="st1" d="M1796,476.3c-0.2,0.1-0.4,0.1-0.5,0.2C1795.8,476.7,1796,476.8,1796,476.3z"/>
							<path class="st1" d="M1749.8,476.7c0.2,0.2,0.3,0.4,0.4,0.5c0-0.2,0.1-0.3,0.1-0.5L1749.8,476.7z"/>
							<path class="st1" d="M1786.8,478.4c2.2,0.6,3.6-0.1,4.9-1c-1.7,0.3-3.5,0.4-5.4,0.4C1786.1,478.2,1786.1,478.5,1786.8,478.4z
								"/>
							<path class="st1" d="M1768.2,473.9c1.2,0.6,2.5,1.1,3.9,1.6C1771,474.6,1768.6,473.2,1768.2,473.9z"/>
							<path class="st1" d="M1794.7,475.7c0.1,0,0.2-0.1,0.3-0.1C1794.4,474.9,1794.4,475.2,1794.7,475.7z"/>
							<path class="st1" d="M1794.7,475.7c-1.2,0.4-2.1,1.1-3,1.7c1.4-0.2,2.7-0.5,3.8-0.9C1795.2,476.3,1794.9,476,1794.7,475.7z"
								/>
							<path class="st1" d="M1741.5,495c0.4-2.6,6.3-5.1,11.4-2.2c5-2,1.8-10.7-2.6-15.6c-0.2,1.2-0.2,2.2-5.3,3.8
								c1.8,1.4,11.4,3.4,7.1,5.8c-6.8,1.4-5.6-0.9-8.9-2.3c2.8,3.3-8.7,4.8-7.2,9.6l6-1.7C1742,493.1,1739.8,494.3,1741.5,495z"/>
							<path class="st1" d="M1760.1,477.5l2.1-0.3c-2.4-0.5-4.2-1.5-7.3-3.6c-3.5,1.3-4.3,2.3-4.5,3.2l10.5,0.4L1760.1,477.5z"/>
							<path class="st1" d="M1771.8,477.2c-1.7,2.9-6.8,4.1-3.7,7.2c6.2-0.2,4.4-2.4,8.1-3.6c-10.1,0.7,2.9-1.6-4.4-3.3
								c2-0.5,3.8-0.6,5.5-0.7c-1.8-0.4-3.6-0.8-5.2-1.3c0.1,0.1,0.2,0.1,0.2,0.2l0,0c0,0,0,0,0,0c0.4,0.4,0.6,0.6,0.1,0.4
								c0,0-0.2,0-0.2,0.1C1772.2,476.5,1772,476.9,1771.8,477.2c-2.9-0.6-0.5-0.8,0.5-1.1c0-0.1,0.1-0.3,0.1-0.4c0,0,0,0,0,0
								l-10.1,1.5C1764.4,477.6,1767,477.5,1771.8,477.2z"/>
							<path class="st1" d="M1822.1,492.5c-0.3-0.3-0.3-0.5-0.3-0.7C1821.2,492.1,1820.9,492.4,1822.1,492.5z"/>
							<path class="st1" d="M1818.1,490.6c0.7-0.4,1.4-1.5,3.8-1.2c2,0.9,0,1.4,0,2.3c1.5-0.7,5.1-1.9,0.6-3.4l-0.7,0.4
								c-4-1.1-9.2-4.8-8.4-5.2C1814.4,486.2,1815.4,488,1818.1,490.6z"/>
							<path class="st1" d="M1794.7,484.6l-8.4,1.3l4.2,2.5l-0.2-1.5C1795.1,487.6,1794.1,485.7,1794.7,484.6z"/>
							<polygon class="st1" points="1748.9,475.3 1750,472.2 1745.1,476.5 							"/>
							<polygon class="st1" points="1737.9,475.6 1738.3,473 1735.4,474.6 							"/>
							<path class="st1" d="M1125,528.4l-2.4,0.9C1123.8,529,1124.5,528.7,1125,528.4z"/>
							<path class="st1" d="M1142.8,527.7l0.4-1.3C1142.4,527.1,1142.1,527.7,1142.8,527.7z"/>
							<path class="st1" d="M1470.2,481.2c-3.7-2.4-7.8-6-7.3-3.1l1.2,2.9C1466.6,480.4,1468.5,480.7,1470.2,481.2z"/>
							<path class="st1" d="M1287.9,505.6c0.4,0.3,0.7,0.6,1.1,0.8c0.8-1,1.6-2,2.3-2.9C1290.3,504.2,1289.1,504.9,1287.9,505.6z"/>
							<path class="st1" d="M1285.9,517.7l-4.8-1.7C1282.2,516.6,1283.7,517.2,1285.9,517.7z"/>
							<path class="st1" d="M1028.1,536.4l-2.7,3.1C1029.9,539.3,1027.8,537.9,1028.1,536.4z"/>
							<path class="st1" d="M1626.2,477.9c-3.1-1.1-5.6-1.5-7.8-1.6C1622.2,477.9,1625.3,480.3,1626.2,477.9z"/>
							<path class="st1" d="M1130.5,497.3c-1.5,0.6-2.1,1.2-2,1.9C1130,498.6,1130.9,498,1130.5,497.3z"/>
							<path class="st1" d="M1609.5,476.5c0.6,0.3,1.1,0.4,1.7,0.6c2.3-0.5,4.5-1,7.3-0.8C1615.7,475.1,1612.5,474.4,1609.5,476.5z"
								/>
							<path class="st1" d="M675.9,554.3c-0.3-0.1-0.6-0.2-0.8-0.3C675,554.4,675.3,554.4,675.9,554.3z"/>
							<path class="st1" d="M571.4,531.6c1-0.2,2.6-0.4,4.2-0.5C574.9,531,573.6,531.1,571.4,531.6z"/>
							<path class="st1" d="M1694,474.6C1696.3,474.4,1694.4,474.3,1694,474.6L1694,474.6z"/>
							<path class="st1" d="M1705.3,485.9c-0.5,0.3-0.9,0.7-0.9,1.4C1704.6,486.7,1704.9,486.2,1705.3,485.9z"/>
							<path class="st1" d="M1586.9,495c-0.1,0-0.1,0-0.2,0C1587.4,495.5,1587.3,495.4,1586.9,495z"/>
							<path class="st1" d="M1697.5,475.9c-0.9-0.3-1.9-0.6-3-0.8C1695,475.2,1695.9,475.5,1697.5,475.9z"/>
							<path class="st1" d="M1697,474.5c0.8,0.1,1.4,0.2,2,0.3C1699.3,474.3,1699.1,474,1697,474.5z"/>
							<path class="st1" d="M1690.8,474.8c1.3-0.1,2.6,0.1,3.8,0.3c-0.5-0.2-0.6-0.4-0.5-0.5
								C1693.3,474.6,1692.4,474.7,1690.8,474.8z"/>
							<path class="st1" d="M864.1,535.3c-0.2-0.1-0.3-0.1-0.5-0.2C861.3,536.4,862.3,536.1,864.1,535.3z"/>
							<path class="st1" d="M1411.2,513.4c0.1,0,0.2-0.1,0.3-0.1c-0.1,0-0.2-0.1-0.3-0.1L1411.2,513.4z"/>
							<path class="st1" d="M1403,515.9c3.4-3.7,5.4-3.4,8.1-2.7l-3-8.3L1403,515.9z"/>
							<path class="st1" d="M1082.5,531.4l5.9,2.3c-6.8,4.6-11.9,3.4-6.3,6.8c0.4-9.1,22.5-2.1,22.9-11.2l3.9,1.7
								c-1.1,0-1.3,0.5-2.3,0.5c7.7,4,5.2-6.8,14.9-6c3.4,0.5,5.8,1.7,3.6,2.9l7.3-2.6c2.2,0.1,1.7,1.7-0.4,1.6l11.3-1.3l-0.1,0.3
								c1.6-1.5,5.1-3.9,6.9-4.9c3,1.2-1.4,1-0.6,2.1l6.2-2.5c2.7,2.2-2.4,4.8-6.8,4.6c6.3,8.8,5.1-2.5,18.1,2.1l-5.9,1.4
								c4.1,5,8.6,2.9,15.5,5.8c-1.7-1.6-13.8-7.4-7.1-10c2,0.6,4.5,0.8,8.1-1.2c0.2,3.2,3.7,2.3,8.2,1.9l-0.1,4.3
								c4.8-1.5,4.3-3.6,7.1-5.7c5.4,0.2,6.7,3.4,8.1,6.1c8.7,0.3-6.2-5,4-6.3c7.3,1.3,12.3-0.7,20.8-3.6c5.1,1.2-0.8,2.7,1.1,3.8
								l4.3-3.6c1.1,0,0.8,1.1,0.6,1.6c3.7-1.5,0.1-4.3,6-5.7c1.4-4.8,12.5,6.3,19.6,0.7c1.9,1.1-0.8,2.7-0.1,4.3
								c9.9-4,8.5-2.9,16.6-8l7.2,2.5c-5.3-3,1.1-7.1,6.8-10.4c-1.9-1.5-3.5-2.8-4.6-3.4l9.2-2.7c1.1,0.7,0.3,2.2-1.2,4
								c0.6-0.4,1.2-0.8,1.7-1.1c3.4,1.4,1.8,4-0.5,6.5c-1.2-0.8-2.3-1.6-3.5-2.5c-2.2,2.7-4.2,5.7-3.6,8.1c0.6-0.5,1.7-1,3-1.3
								c-0.6,0.7-0.9,1.4-0.6,1.8c0.3,0.4,1.3-0.6,2.7-1.7l2.3,4.7l0.4-1.9l12.2,2.5c8.5-5.2,15.7-12.5,29.4-15.1
								c-3.3,3.6-0.5,5.7-0.5,9.9c-3.9-4.2-10.6,2.3-17.7,1.7c3.7,0.3,3,2.3,2.1,3l12.6-4.5c-0.1,3.4,2.8,2.4,6.2,3.7
								c-2.8-6.6,9.3-4.8,14.4-7.1c0.4,2.2-0.7,4.6-7.1,4.3c7.2,4.8,8.7-8.2,15.7-4.2c-1.5,0.1-2.4-0.2-2.9,1
								c3.5-2.1,12.4-0.9,10.4,1.1l-1.5,0.1c10.3,0.4,31.2-1.2,32.5-6.9c0.1,0.7-1.1,6.9-1.7,8.1l17.6-19.8
								c-1.4,4.9,5.2,16.3-3.2,19.4c2.5,0.6,5.5,1.3,10.6-0.6c-1.7-0.6-4.4-6.9-2.1-7.4c6.4,5.2,4.4,2.7,12.3,7.1
								c-2.5-1,0-8.7,3.9-8.6c-0.6,1.2,0.6,7.5-0.8,8.4l9.5-7.8c-2.4,1.4-0.2,6.4,2.1,8.4c-1.1-1.4,8.5-0.2,11.1-1l-4.2-1.6
								c11.1,0.7,10.6-10.9,21.6-10.9c-1.3,1.6-3,9.7,2.6,10.4c2.4-3.9,10.7-18.9,20.4-22.1l1.9,2.1l7.4-2.7
								c-4.5,5.9-17.1,18.5-24.1,23.5c4.2,1.6,1.2,2.6,7.4,2.2c2.3,2-3.3,3.2-5.1,3.4l14.5,0.9c-0.8-4.5,10.9-4.8,10.2-8.6
								l-15.5,5.1c-0.8-4.5,8.7-13,18.9-12.5c2.7,1.7-1.7,8.1-1.5,9.5c1.3-1.6,9.6-3.2,10.6-2.2l-4.3,2.5c5.7,1.5,9.1-6.2,16.1-2.1
								c2.4,0.2,7.2,5.6,7.5,2.9c-4-5-5.2-20.8-2.7-24.8c0.8,0.3,12.6,4.6,15.3,7c4,3.9-5.6,9.7-2.2,13.1c0.1-1.2,2.2-2.8,3.1-3.3
								c2.5,1-0.9,3.8,4.4,3.1c0.8-4.6,11,0.1,2.5-3.9c5.2-1.4,5.6,0.8,11.8,0.4c-2-2.9,5.3-10.1,10.6-11.6
								c-0.3,1.2,0.9,2.6,1.5,3.3c10.8,0.2,16.7,2.1,26.8,1.9c1,1.1,5.8,2.3,3.8,4.3c1.4-0.8,2.7-2.4,5.8-2.6
								c6.1,3.8-6.9,0.8-2.2,5.4c0.3-2.6,8-3.8,12.4-5.5c-1.4-4.1-10.3-0.6-14.7,1.1c-0.1-5.6,7.5-11.7,18-14.5
								c8.4-1.5,3.7,3.6,5.1,2.8c15.8,0.7,13.3-10.1,26.4-6.2c5.2,3.5,0.3,7.1,1.5,9.7c-6.8,1.5-10.5-2.2-15.1-1.9l5.7,1.6
								c-2.2,1.2-6.7,2.2-9.2,1.2c4.4,3.1,26.6,0.2,38.8,3.1c2.1-1.2,5.9-2.5,4.1-3.9l-3.8,0.5c-3.6-2.9,7.2-4.1,2.3-5.4
								c5.1-2.1,10.9-5.3,18.2-3.7l1.4,4.1c-0.2-1.2-4.8-2.4-6.8-1.2c3-1.8,11.2,5.5,14.5,0.1l-5.1-2.8c5.2-2.1,11.6-6.5,18-5.2
								c-2.9-4-1.5,0.5-6.1-4.2c4,5.9-16.5-0.2-10.1,6c-4.7-5.5-8.2-2.3-14.3-6.9c0.2,1.3,2.2,2.6-3.2,1.9c-0.2,0.4-0.8,0.9-1.2,1.2
								c-0.2,0-0.2-0.1-0.4-0.1c0.1,0.1,0.2,0.1,0.3,0.2c-0.2,0.2-0.3,0.2,0.1,0.1c1.3,0.6,2.3,1.3,2.8,2
								c-2.7,3.1-11.3,3.1-14.2,4.7c-3.2-0.6,1.3-1.6-0.4-3l-4.3,2.4c-0.5-3-8.6-4.9-1-6.7l-6.8,0c-4-1.6-9.6-2.2-12.9-0.9
								c-3.2-0.6-8.1,3.4-5.3,1l-10.7,2l-0.1-0.7c-10.5-0.2-21.6,5.3-33.7,0.2c-3.5,0.8-7.2,1.8-13.1,1.1l-1.2-2.6
								c-4.5,1-13.7-2.3-15.6,0.5c-5.1-6.9-22.1-1-30.2-2l-0.2,3.4c-5.5-0.1-10.8,1.1-17.6,2.6l0.5,3c-5.8,2.6-15.2-1.7-24.5-1.1
								c0.6-1.2,3-0.9,4.7-0.3c-11.3-6.4-23.3,5.6-33.6,1c-2.5,1.2-4.3,0.9-6.1,0.2c0.2,0,0.4-0.1,0.6-0.2c-0.3,0-0.6,0-1,0
								c-1.1-0.5-2.3-1-3.5-1.5c1.1,0.7,2.1,1.3,3,1.5c-1.9,0.1-4.9,0.6-7.7,1.4l-1.3-3.2c-0.2,0.1-0.4,0-0.7,0.1
								c-2.9-1.1-2.2,1.6-0.6,4c-1.4,0.6-2.7,1.3-3.7,2.1c-2.5-5.1-7.5,2-10.8-3.4c-1.9,2.8-14.4,2.5-15.8,8.3
								c-0.1-0.7-1-1.1,0.6-1.2c-3.2-0.5-6.5-1.1-9.3,0.6l-1.5-4l-6.8,5.8c-4.4-2.3-6.2-3.7-2.1-7c-10,5.2-8.2,2.1-16.7,7.2l0.3-2.7
								c-3.1,0.2-7.9,4-9.9,1.8c-7.1-4.8-34.4,0.6-52.5-3.3c3.8,7.6-8.4-3.1-8.9,2.9c-1.1-1.8-3.6-2.7-0.8-4.5
								c-9,2.2-13.8-2.3-19.9,3c-1.1-1.8,1.8-2.8,0.9-3.8c-0.7,0.4-2.8,1.7-3.8,0.7c-1-1.1,1.3-1.6,2.7-2.5
								c-9.3,0.7-10,6.4-10.4,11.8c-4.8-2.3-7.2-1.9-10.4,1.8c-1.7-1.7-4.5-3.4,1.2-4.2c-3.3-0.1-20-1.7-20.1,2.6
								c-1.1-1-4.6-0.1-5.4,0.4c-7.3,0.1-8-0.3-15.1,0.4l2,0.6c-2.6,5.3-5.9,1.4-11.6,2.3l0.1-0.5c-13.4-3.1-5.6,2-18.9-1.6l0.9,3.2
								c-0.9,6.9-11.8-3.5-19.2-0.5l2.8,1.7c-4,2.6-12-8.8-16.2-9.5c-0.9-0.6,1.4-1,2.6-1.5c-11.1-3.5-1.2,4.3-9.3,5.6
								c-1.6-2.2,1.7-5.8-3.8-6c-2.8-1.7-15.5,8.1-23.1,4.1c1.7,1.7,3.4,3.3-0.3,4.8c-5.7,0.9-15.9-5.8-20.9-0.1
								c-0.8-0.4-1.1-0.9-1.1-1.3c-4.3,1.6-14.2,3.1-16.7,6.2c-4.6-10.8-27.2,6.8-27.6-3.4l-13.5,1.2l0.3-1.1
								c-8.7-0.2-11.7,2.4-14.6,5c-2-0.6-0.6-1.6-0.5-2.2c-12.8-1.4-14-0.9-24.4,4.7l-1.3-3.2c-2.8,2.1-18.6-4.2-30.8,0.3
								c0.1-0.4,0.3-1,1.3-1.6c-13.8,4.6-34-7.4-38.5,5l-9.1,3.5c12,0.3-1.5,5.3,3.5,7.1c-4.7,1-12.3-3-6.6-3.9l0.9,0.6
								c1.8-6.4-15-1.4-14.9-5.7c-23.5,1.6-46.6-0.6-68.6,0.4l2.8,4.7l-7.7,0.2c-2.1-1-2.9-3.7,2.6-3.8c-3-2.6-9.1,2.8-9.1,3.9
								c-10.8-1.4,3.9-5.9,0.6-5.9l-4.4,0.6l1,0.5c-3.5,2.2-3.7,4.3-10.3,4.5c-4.2-0.7-2.3-2.9-4-3c0-0.3-0.6-0.5-2.5,0l-9.7,0.1
								l4.1,3.6c-4.2,2.1-9.1,0.3-4.4,4.4c-6.9-6.4-36.2-0.3-40.4-2.2c-5.8,3.2-11.8,3.5-19.1,3.6c1.9,0.7,3.2,5-3.1,4.8
								c1.8-9.1-11.8-3.2-17.3-9.3c4.8,4-17.9,2.1-10.4,7.8c-5.3-0.4-0.5-3.3-4.7-5.2c-12.4,4.2-27.8-0.6-43.3,1.6
								c-0.2,1.2,2.5,2.8-0.7,4.8l-8.6-5.4c-3,0.8-2.4,6.9-8.3,3.2c0.9,0.9,2.1,2.4,0.1,2.9c-30.8-3.8-61.9,8.6-93.5-0.2
								c4.3,2,1.6,2.4-1.6,2.7c2.1,0.4,0.1,2.9,0.7,4.5l-13.2-3.6c-2.1,4.6-13.9,1.2-14.9,5.5l4-1c-5.1,5.3,8.4,10.6,8,17
								c5.7-6.1,16.6,7.3,26.1-1.4c2.3,1.2-1.8,2.2-0.5,3.6c2.4-2.9,5.4-3.7,11.1-2.8l-0.6,0.7c15.9-1.7,22.9,0.6,40.9,1.2l-1.5-3.1
								c3.9,0.2,4.7,1.1,6.6,1.8c4.1-5.1-10.8,0.4-7.1-5.1c5.5,6.1,27.2-1.6,31.1,5.5c5.9-0.3-2-3.5,4-3.9l1.7,1.9l1.3-2.6
								c3.9,0.2,6,2.5,6.3,4.2c-1-0.1-2.6,0.6-3.6,0.8c5.2,2,14.1-1.7,15.9-1l-5.8-0.9c16-2.9,35.9-1.5,51.3-6.4l-1.3-1.4
								c11.8-3.5,9.7,1.1,22.7-1l-0.5,0.4c2.5-1.6,6-2.6,9.6-2.6c-3.2,1.9,6.4,3,2.2,5.2c12.8-3.7,6.3-2.7,14.5-8.8l2.1,2.4
								c2.8-2.4,3-3.6,9.5-4.6c-5.2,2.4,4.4,3.5-1.4,6.7c14,4.6,20.1-6.7,26.8,0.9c5.9-7.2-12.1-3.1-8.7-4.8c-3.1-2.1,4.9-5.4,9.3-5
								c4.4-0.1,8,8.3,19,7.6c-1.1,0-1.1,0.6-2.2,0.6c4.2,1.5,8-2.8,13.2-0.3c2.6-4.3,6.6-0.1,7.1-5.5l-10,1.8
								c5.7-1.7,10.7-8.2,20.3-5.7c-0.7,1.1-3.4,2.7-5.3,3.6c2.9,1.4,5.3-1.3,8.2,0.1c-0.5,5.3-12.2,1.8-18.1,6.2
								c3.1,2.1,11.4-4.5,8.6,1.4c4-7.5,10.9,0.3,18.1-5.7l-0.3,3.2c1.2-0.6,3.5-2.2,5.7-2.2l-3.7,4.3c5.8-3.8,11.8,2.4,17.5,0.2
								c-12.1,0.8-2.9-3.7-8.2-5.7c14.7-5.1,9.1,7.8,25.8,5.3c-2.2,0.6-8.6-1.4-5.2-3.1c3.2,0.5,7.5,1.5,9.6,3
								c11.1-1.3-1.9-3.2,2.7-5.4c4,3.6,5.4-1.9,10.2-3.4l0.2,3.2c12.8,1.4,3-6.9,14.5-5l-4.6,4.7l5.9-1.5l-1,3.7
								c6.3-3.1,8.4-2.5,14.8-1.8c-1.6-2.2,0.5-5.9,6.1-6.3c3.9,1.7-2,3.2,5.9,2.3c-1.7,2.1-3.5,4.7-7.1,2c-0.3,1.1-1.7,2.1-2,3.2
								c4.2,2,10.4-0.1,13.3-0.2c-1.1-0.1-2.4-0.2-3.2-0.6l11.3-5.1c1.9,1.1,0.5,2.2-0.9,3.2c2.3-0.5,3.9-2,7.3-2.5
								c-0.7,2.7-0.4,5.4-5.2,6.8l10.8-3.5c0.8,1.1,5.8,2.8,4.4,3.9c6.2,1.2,14.7-5.9,22.8-4.3c0.4-0.5,1.2-1.1,2.9-1.5
								c7.6,0.2,14.5,3.1,23.3-1l5.3,4.4c7-1.4-7.2-5.6,4.4-7.9c8.2-1.9,3.3,3.8,6.3,5c4-2.6,10.9-7.8,18.8-4.3
								C1086.9,531.5,1084.8,530.9,1082.5,531.4z M1169.2,525c-1.7,0.8-4.9,3-6.2,1.2C1164.8,522.4,1166.3,524.1,1169.2,525z
								 M1300.9,511.2c-1.2,1.1-3.2,0.7-5.4-0.4C1297.1,510.4,1298.9,510.5,1300.9,511.2z M1668.7,477.5c-0.1,0.1-0.1,0.1-0.2,0.2
								C1664.7,476.4,1666,476.9,1668.7,477.5z M1676.5,478.8c0.8-0.5,0.7-0.9,0.4-1.4c-0.5,0.8-2.3,0.9-4.3,0.7
								C1673.2,479,1674.2,479.5,1676.5,478.8z M838.2,515l1.6,0.8C836.4,516.9,837.3,516,838.2,515z"/>
							<path class="st1" d="M1286.2,516.3c-0.5-0.5-0.7-1.1-0.8-1.7C1284.7,515.1,1284.7,515.7,1286.2,516.3z"/>
							<path class="st1" d="M1028.6,535.9c-0.1,0-0.2,0-0.3,0c-0.1,0.2-0.2,0.4-0.2,0.6L1028.6,535.9z"/>
							<path class="st1" d="M1556.1,508.5c-1.6-0.4-2.5-1-3.1-1.6C1552.9,507.7,1553.6,508.3,1556.1,508.5z"/>
							<path class="st1" d="M1717.9,473l-5,0.9c2.4-0.2,3.3,0.5,4.5,1C1717.3,474.1,1716.4,473,1717.9,473z"/>
							<path class="st1" d="M1761.5,492.9c0.7-0.4,1.6,0,2.3-0.4l-0.2-1.5C1760.4,491,1758.2,492.2,1761.5,492.9z"/>
							<path class="st1" d="M1722.6,483.6c0.4,2.7,3.5,1.8,7.1,1.3c-0.2,0-0.4,0-0.6,0C1730.1,481.1,1726.4,482.4,1722.6,483.6z"/>
							<path class="st1" d="M1730.5,484.8c1.1-0.1,2.2-0.2,3.2-0.1C1734.2,483.2,1732.4,484.4,1730.5,484.8z"/>
							<path class="st1" d="M1686.4,476.9c1.7,0.7,1-3.5,2-2.4C1690.2,471,1677.3,478.8,1686.4,476.9z"/>
							<polygon class="st1" points="1725.5,492.6 1724.2,489.2 1722.3,491.9 							"/>
							<path class="st1" d="M1697.8,490.3l5.6,0.9c-0.1-0.6,0.6-0.9,1.5-1.2C1701.5,489.9,1697.7,489.3,1697.8,490.3z"/>
							<path class="st1" d="M1704.9,490c1.8,0,3.5,0,4.5-0.6C1708.5,489.4,1706.4,489.6,1704.9,490z"/>
							<polygon class="st1" points="1717.9,493.6 1716.2,492.9 1712.2,492.7 							"/>
							<path class="st1" d="M1637.6,490.4l-6.1,1.1c-0.6,1.2,1.1,1.8,3.3,1.3C1636.3,492,1638.6,491.5,1637.6,490.4z"/>
							<path class="st1" d="M1656.2,499.3c-1.7-0.7-1.8-1.4-2.7-2.5l-0.1,4.2L1656.2,499.3z"/>
							<path class="st1" d="M1638.5,500.5c-0.6,1.2-8.8,3.5-1.1,3.1C1638,502.4,1644.1,501.4,1638.5,500.5z"/>
							<polygon class="st1" points="1546.3,497.3 1547.9,497.3 1547.5,490.5 							"/>
							<path class="st1" d="M1465.8,516.1c7.3,1.4,1.6-4.3,8.2-2.4c1.6-1.7-5.4-1.5-3.7-2.9C1466,512.6,1463.6,511.7,1465.8,516.1z"
								/>
							<path class="st1" d="M1470.3,510.7c0.7-0.3,1.4-0.6,2.2-1.1C1471.2,510.1,1470.6,510.4,1470.3,510.7z"/>
							<polygon class="st1" points="554.2,529.1 549.4,528 552.6,530 							"/>
							<path class="st1" d="M545.6,534.7l-1.4-4.3l-2.5,4.1C542.7,534.3,544.7,533.8,545.6,534.7z"/>
							<path class="st1" d="M1182.6,533.1l0.3-1.1c-0.8-1.1-1.9-1.1-4.1-1.2L1182.6,533.1z"/>
							<polygon class="st1" points="1119.4,532.9 1120.5,532.9 1118.3,529.1 							"/>
							<path class="st1" d="M1066.8,540.6c2.2,0.1,4.7-1,6.8-0.9C1068.9,540.6,1065.9,535.7,1066.8,540.6z"/>
						</g>
					</g>
				</g>
			</g>
		</g>
	</g>
	<rect x="534.9" y="89.2" class="st2" width="837.6" height="94.3"/>
	<rect x="534.5" y="194.9" class="st2" width="733" height="94.3"/>
	<g>
		<path class="st1" d="M579,107.5v7.6l-6.8,1.3v33c0,4.2,1.1,7.3,3.4,9.3c2.2,2.1,5.3,3.1,9.2,3.1c4,0,7.1-1,9.3-3.1
			c2.3-2.1,3.4-5.2,3.4-9.4v-33l-6.7-1.3v-7.6H617v7.6l-6.8,1.3v33c0,7.1-2.3,12.6-7,16.4c-4.7,3.8-10.8,5.8-18.4,5.8
			c-7.5,0-13.6-1.9-18.3-5.8c-4.6-3.8-7-9.3-7-16.4v-33l-6.7-1.3v-7.6h6.7h12.7H579z"/>
		<path class="st1" d="M620.3,163l6.1-1.3v-29.1l-6.7-1.3v-7.6h18.5l0.6,6.7c1.6-2.4,3.5-4.3,5.8-5.6c2.3-1.3,4.8-2,7.7-2
			c4.7,0,8.4,1.5,11.1,4.5c2.7,3,4,7.7,4,14v20.4l6.1,1.3v7.6h-24.2V163l5.4-1.3v-20.4c0-3.2-0.6-5.4-1.9-6.7c-1.3-1.3-3.2-2-5.8-2
			c-1.7,0-3.2,0.3-4.5,1c-1.3,0.7-2.4,1.6-3.3,2.9v25.2l5.1,1.3v7.6h-23.9V163z"/>
		<path class="st1" d="M696.1,112.2v11.5h8.2v8.9h-8.2v23.9c0,1.8,0.4,3.1,1.1,3.9c0.8,0.8,1.8,1.2,3,1.2c0.9,0,1.6,0,2.3-0.1
			c0.7-0.1,1.4-0.2,2.2-0.4l1.1,9.2c-1.4,0.4-2.8,0.8-4.2,1c-1.4,0.2-2.9,0.3-4.5,0.3c-4.4,0-7.7-1.2-10.1-3.6
			c-2.4-2.4-3.5-6.2-3.5-11.4v-23.9h-6.9v-8.9h6.9v-11.5H696.1z"/>
		<path class="st1" d="M733,171.5c-6.8,0-12.2-2.2-16.2-6.5c-4-4.3-6.1-9.8-6.1-16.5v-1.7c0-7,1.9-12.7,5.7-17.2
			c3.8-4.5,9-6.8,15.4-6.7c6.3,0,11.2,1.9,14.8,5.7c3.5,3.8,5.2,9,5.2,15.5v6.9h-28l-0.1,0.3c0.2,3.1,1.3,5.6,3.1,7.6
			c1.8,2,4.3,3,7.5,3c2.8,0,5.1-0.3,7-0.8c1.9-0.6,3.9-1.5,6.1-2.7l3.4,7.8c-1.9,1.5-4.4,2.8-7.5,3.9
			C740.3,171,736.8,171.5,733,171.5z M731.9,132.6c-2.3,0-4.2,0.9-5.6,2.7c-1.4,1.8-2.2,4.2-2.5,7.1l0.1,0.2h15.5v-1.1
			c0-2.7-0.6-4.8-1.9-6.4C736.3,133.4,734.4,132.6,731.9,132.6z"/>
		<path class="st1" d="M758.8,163l6.1-1.3v-29.1l-6.7-1.3v-7.6h18.5l0.6,6.9c1.1-2.4,2.5-4.3,4.3-5.7c1.7-1.4,3.7-2,6-2
			c0.7,0,1.4,0.1,2.1,0.2c0.7,0.1,1.4,0.2,1.8,0.4l-1.3,11.5l-5.2-0.1c-1.9,0-3.4,0.4-4.6,1.1c-1.2,0.7-2.1,1.8-2.8,3.1v22.8
			l6.1,1.3v7.6h-24.8V163z"/>
		<path class="st1" d="M833.6,139.8h-8.5l-1.3-5.9c-0.9-0.7-2-1.3-3.3-1.7c-1.3-0.5-2.8-0.7-4.4-0.7c-2.2,0-4,0.5-5.3,1.5
			c-1.3,1-2,2.2-2,3.8c0,1.4,0.6,2.6,1.9,3.5c1.2,0.9,3.7,1.8,7.5,2.5c5.8,1.2,10.1,2.9,12.9,5.1c2.8,2.2,4.2,5.3,4.2,9.3
			c0,4.2-1.8,7.7-5.4,10.3c-3.6,2.7-8.4,4-14.3,4c-3.6,0-6.9-0.5-10-1.6c-3-1.1-5.7-2.6-8-4.5l-0.1-10.5h8.9l1.7,6.1
			c0.8,0.6,1.8,1.1,3.1,1.4c1.3,0.3,2.7,0.5,4.1,0.5c2.6,0,4.5-0.5,5.9-1.4c1.3-0.9,2-2.2,2-3.8c0-1.4-0.7-2.6-2-3.6
			c-1.4-1-3.9-1.9-7.5-2.7c-5.5-1.1-9.7-2.8-12.5-5s-4.2-5.2-4.2-9c0-3.9,1.6-7.3,4.9-10.2c3.2-2.8,7.9-4.3,13.8-4.3
			c3.6,0,7.1,0.5,10.3,1.5c3.3,1,5.8,2.2,7.7,3.8L833.6,139.8z"/>
		<path class="st1" d="M863,161.8c2.3,0,4.1-0.7,5.4-2c1.4-1.3,2-3.1,2-5.3H882l0.1,0.3c0.1,4.7-1.7,8.7-5.3,11.9
			c-3.7,3.2-8.2,4.8-13.7,4.8c-7,0-12.4-2.2-16.2-6.6c-3.8-4.4-5.7-10.1-5.7-17v-1.3c0-6.9,1.9-12.6,5.8-17
			c3.9-4.5,9.4-6.7,16.6-6.7c3.8,0,7.2,0.6,10.2,1.7c3,1.1,5.5,2.7,7.5,4.8l0.2,12.5h-10.3l-2.1-7.3c-0.6-0.5-1.4-1-2.3-1.4
			c-0.9-0.4-2-0.5-3.2-0.5c-3.6,0-6.1,1.3-7.6,3.9s-2.2,6-2.2,10.1v1.3c0,4.2,0.7,7.6,2,10.1C857.2,160.5,859.6,161.8,863,161.8z"/>
		<path class="st1" d="M887.1,163l6.1-1.3v-49.8l-6.8-1.3v-7.6h19.4v26.7c1.5-2.2,3.3-3.9,5.4-5.1c2.1-1.2,4.5-1.8,7.1-1.8
			c4.9,0,8.8,1.6,11.6,4.9c2.8,3.3,4.2,8.3,4.2,15.1v19l6.1,1.3v7.6H916V163l5.5-1.3v-19c0-3.6-0.6-6.2-1.9-7.7
			c-1.3-1.5-3.2-2.3-5.7-2.3c-1.8,0-3.3,0.3-4.6,1c-1.3,0.6-2.4,1.5-3.3,2.7v25.4l5.5,1.3v7.6h-24.2V163z"/>
		<path class="st1" d="M945.3,163l6.1-1.3v-29.1l-6.7-1.3v-7.6h18.5l0.6,6.9c1.1-2.4,2.5-4.3,4.3-5.7c1.7-1.4,3.7-2,6-2
			c0.7,0,1.4,0.1,2.1,0.2c0.7,0.1,1.4,0.2,1.8,0.4l-1.3,11.5l-5.2-0.1c-1.9,0-3.4,0.4-4.6,1.1c-1.2,0.7-2.1,1.8-2.8,3.1v22.8
			l6.1,1.3v7.6h-24.8V163z"/>
		<path class="st1" d="M981.3,163l6.1-1.3v-29.1l-6.8-1.3v-7.6h19.4v38l6.1,1.3v7.6h-24.9V163z M1000.1,112.4h-12.7v-9.5h12.7V112.4
			z"/>
		<path class="st1" d="M1011,163l6.1-1.3v-29.2h-7v-8.9h7v-5.2c0-5.3,1.5-9.3,4.6-12.2c3-2.8,7.3-4.3,12.8-4.3
			c1.1,0,2.2,0.1,3.3,0.2c1.1,0.2,2.3,0.4,3.7,0.7l-1.1,9.4c-0.7-0.1-1.4-0.2-2-0.3s-1.4-0.1-2.3-0.1c-2.1,0-3.6,0.6-4.7,1.7
			s-1.6,2.7-1.6,4.9v5.2h9.3v8.9h-9.3v29.2l6.1,1.3v7.6H1011V163z"/>
		<path class="st1" d="M1062.1,112.2v11.5h8.2v8.9h-8.2v23.9c0,1.8,0.4,3.1,1.1,3.9s1.8,1.2,3,1.2c0.9,0,1.6,0,2.3-0.1
			c0.7-0.1,1.4-0.2,2.2-0.4l1.1,9.2c-1.4,0.4-2.8,0.8-4.2,1c-1.4,0.2-2.9,0.3-4.5,0.3c-4.4,0-7.7-1.2-10.1-3.6
			c-2.4-2.4-3.5-6.2-3.5-11.4v-23.9h-6.9v-8.9h6.9v-11.5H1062.1z"/>
		<path class="st1" d="M1099,171.5c-6.8,0-12.2-2.2-16.2-6.5c-4-4.3-6.1-9.8-6.1-16.5v-1.7c0-7,1.9-12.7,5.7-17.2
			c3.8-4.5,9-6.8,15.4-6.7c6.3,0,11.2,1.9,14.8,5.7c3.5,3.8,5.2,9,5.2,15.5v6.9h-28l-0.1,0.3c0.2,3.1,1.3,5.6,3.1,7.6
			c1.8,2,4.3,3,7.5,3c2.8,0,5.1-0.3,7-0.8s3.9-1.5,6.1-2.7l3.4,7.8c-1.9,1.5-4.4,2.8-7.5,3.9C1106.2,171,1102.8,171.5,1099,171.5z
			 M1097.9,132.6c-2.3,0-4.2,0.9-5.6,2.7c-1.4,1.8-2.2,4.2-2.5,7.1l0.1,0.2h15.5v-1.1c0-2.7-0.6-4.8-1.9-6.4
			C1102.3,133.4,1100.4,132.6,1097.9,132.6z"/>
		<path class="st1" d="M1123.2,163l6.1-1.3v-29.1l-6.7-1.3v-7.6h18.5l0.6,6.7c1.6-2.4,3.5-4.3,5.8-5.6c2.3-1.3,4.8-2,7.7-2
			c4.7,0,8.4,1.5,11.1,4.5c2.7,3,4,7.7,4,14v20.4l6.1,1.3v7.6H1152V163l5.4-1.3v-20.4c0-3.2-0.6-5.4-1.9-6.7c-1.3-1.3-3.2-2-5.8-2
			c-1.7,0-3.2,0.3-4.5,1c-1.3,0.7-2.4,1.6-3.3,2.9v25.2l5.1,1.3v7.6h-23.9V163z"/>
		<path class="st1" d="M1178.9,110.6v-7.6h19.4v58.8l6.1,1.3v7.6h-24.9V163l6.1-1.3v-49.8L1178.9,110.6z"/>
		<path class="st1" d="M1208.2,163l6.1-1.3v-29.1l-6.8-1.3v-7.6h19.4v38l6.1,1.3v7.6h-24.9V163z M1227,112.4h-12.7v-9.5h12.7V112.4z
			"/>
		<path class="st1" d="M1275.5,139.8h-8.5l-1.3-5.9c-0.9-0.7-2-1.3-3.3-1.7c-1.3-0.5-2.8-0.7-4.4-0.7c-2.2,0-4,0.5-5.3,1.5
			c-1.3,1-2,2.2-2,3.8c0,1.4,0.6,2.6,1.9,3.5c1.2,0.9,3.7,1.8,7.5,2.5c5.8,1.2,10.1,2.9,12.9,5.1c2.8,2.2,4.2,5.3,4.2,9.3
			c0,4.2-1.8,7.7-5.4,10.3c-3.6,2.7-8.4,4-14.3,4c-3.6,0-6.9-0.5-10-1.6c-3-1.1-5.7-2.6-8-4.5l-0.1-10.5h8.9l1.7,6.1
			c0.8,0.6,1.8,1.1,3.1,1.4c1.3,0.3,2.7,0.5,4.1,0.5c2.6,0,4.5-0.5,5.9-1.4c1.3-0.9,2-2.2,2-3.8c0-1.4-0.7-2.6-2-3.6
			c-1.4-1-3.9-1.9-7.5-2.7c-5.5-1.1-9.7-2.8-12.5-5c-2.8-2.2-4.2-5.2-4.2-9c0-3.9,1.6-7.3,4.9-10.2c3.2-2.8,7.9-4.3,13.8-4.3
			c3.6,0,7.1,0.5,10.3,1.5c3.3,1,5.8,2.2,7.7,3.8L1275.5,139.8z"/>
		<path class="st1" d="M1301.6,112.2v11.5h8.2v8.9h-8.2v23.9c0,1.8,0.4,3.1,1.1,3.9s1.8,1.2,3,1.2c0.9,0,1.6,0,2.3-0.1
			c0.7-0.1,1.4-0.2,2.2-0.4l1.1,9.2c-1.4,0.4-2.8,0.8-4.2,1c-1.4,0.2-2.9,0.3-4.5,0.3c-4.4,0-7.7-1.2-10.1-3.6
			c-2.4-2.4-3.5-6.2-3.5-11.4v-23.9h-6.9v-8.9h6.9v-11.5H1301.6z"/>
		<path class="st1" d="M1338.6,171.5c-6.8,0-12.2-2.2-16.2-6.5c-4-4.3-6.1-9.8-6.1-16.5v-1.7c0-7,1.9-12.7,5.7-17.2
			c3.8-4.5,9-6.8,15.4-6.7c6.3,0,11.2,1.9,14.8,5.7c3.5,3.8,5.2,9,5.2,15.5v6.9h-28l-0.1,0.3c0.2,3.1,1.3,5.6,3.1,7.6
			c1.8,2,4.3,3,7.5,3c2.8,0,5.1-0.3,7-0.8s3.9-1.5,6.1-2.7l3.4,7.8c-1.9,1.5-4.4,2.8-7.5,3.9C1345.8,171,1342.3,171.5,1338.6,171.5z
			 M1337.4,132.6c-2.3,0-4.2,0.9-5.6,2.7c-1.4,1.8-2.2,4.2-2.5,7.1l0.1,0.2h15.5v-1.1c0-2.7-0.6-4.8-1.9-6.4
			C1341.9,133.4,1340,132.6,1337.4,132.6z"/>
		<path class="st1" d="M1407.7,171.5c-6.8,0-12.2-2.2-16.2-6.5c-4-4.3-6.1-9.8-6.1-16.5v-1.7c0-7,1.9-12.7,5.7-17.2
			c3.8-4.5,9-6.8,15.4-6.7c6.3,0,11.2,1.9,14.8,5.7c3.5,3.8,5.2,9,5.2,15.5v6.9h-28l-0.1,0.3c0.2,3.1,1.3,5.6,3.1,7.6
			c1.8,2,4.3,3,7.5,3c2.8,0,5.1-0.3,7-0.8s3.9-1.5,6.1-2.7l3.4,7.8c-1.9,1.5-4.4,2.8-7.5,3.9C1414.9,171,1411.5,171.5,1407.7,171.5z
			 M1406.5,132.6c-2.3,0-4.2,0.9-5.6,2.7c-1.4,1.8-2.2,4.2-2.5,7.1l0.1,0.2h15.5v-1.1c0-2.7-0.6-4.8-1.9-6.4
			C1411,133.4,1409.1,132.6,1406.5,132.6z"/>
		<path class="st1" d="M1432.1,163l6.1-1.3v-29.1l-6.8-1.3v-7.6h19.4v38l6.1,1.3v7.6h-24.9V163z M1450.9,112.4h-12.7v-9.5h12.7
			V112.4z"/>
		<path class="st1" d="M1460.5,163l6.1-1.3v-29.1l-6.7-1.3v-7.6h18.5l0.6,6.7c1.6-2.4,3.5-4.3,5.8-5.6c2.3-1.3,4.8-2,7.7-2
			c4.7,0,8.4,1.5,11.1,4.5c2.7,3,4,7.7,4,14v20.4l6.1,1.3v7.6h-24.2V163l5.4-1.3v-20.4c0-3.2-0.6-5.4-1.9-6.7c-1.3-1.3-3.2-2-5.8-2
			c-1.7,0-3.2,0.3-4.5,1c-1.3,0.7-2.4,1.6-3.3,2.9v25.2l5.1,1.3v7.6h-23.9V163z"/>
		<path class="st1" d="M1518.2,163l6.1-1.3v-29.2h-7v-8.9h7v-5.2c0-5.3,1.5-9.3,4.6-12.2c3-2.8,7.3-4.3,12.8-4.3
			c1.1,0,2.2,0.1,3.3,0.2c1.1,0.2,2.3,0.4,3.7,0.7l-1.1,9.4c-0.7-0.1-1.4-0.2-2-0.3s-1.4-0.1-2.3-0.1c-2.1,0-3.6,0.6-4.7,1.7
			s-1.6,2.7-1.6,4.9v5.2h9.3v8.9h-9.3v29.2l6.1,1.3v7.6h-24.9V163z"/>
		<path class="st1" d="M1580.5,170.6c-0.3-0.8-0.7-1.6-0.9-2.4c-0.3-0.8-0.5-1.7-0.6-2.5c-1.5,1.7-3.3,3.1-5.5,4.2
			c-2.2,1.1-4.6,1.6-7.4,1.6c-4.6,0-8.2-1.3-11-3.8c-2.7-2.5-4.1-5.9-4.1-10.2c0-4.4,1.8-7.8,5.3-10.2c3.5-2.4,8.7-3.6,15.5-3.6h6.5
			v-4.6c0-2.3-0.7-4-2-5.2c-1.3-1.2-3.2-1.9-5.8-1.9c-1.4,0-2.7,0.2-3.9,0.5c-1.1,0.3-2,0.7-2.7,1.2l-0.8,5h-9.5l0-10.4
			c2.3-1.6,5-2.9,8-3.9c3-1.1,6.3-1.6,9.8-1.6c5.8,0,10.5,1.4,14.2,4.3c3.6,2.8,5.4,6.9,5.4,12.2v19.4c0,0.7,0,1.4,0,2
			c0,0.6,0.1,1.2,0.2,1.8l3.9,0.5v7.6H1580.5z M1569.5,162.2c1.9,0,3.6-0.4,5.2-1.2s2.8-1.9,3.6-3.1v-7.2h-6.5
			c-2.7,0-4.7,0.6-6.1,1.9c-1.4,1.3-2.1,2.8-2.1,4.5c0,1.6,0.5,2.8,1.5,3.7C1566.3,161.7,1567.7,162.2,1569.5,162.2z"/>
		<path class="st1" d="M1621.5,161.8c2.3,0,4.1-0.7,5.4-2c1.4-1.3,2-3.1,2-5.3h11.5l0.1,0.3c0.1,4.7-1.7,8.7-5.3,11.9
			c-3.7,3.2-8.2,4.8-13.7,4.8c-7,0-12.4-2.2-16.2-6.6c-3.8-4.4-5.7-10.1-5.7-17v-1.3c0-6.9,1.9-12.6,5.8-17
			c3.9-4.5,9.4-6.7,16.6-6.7c3.8,0,7.2,0.6,10.2,1.7s5.5,2.7,7.5,4.8l0.2,12.5h-10.3l-2.1-7.3c-0.6-0.5-1.4-1-2.3-1.4
			c-0.9-0.4-2-0.5-3.2-0.5c-3.6,0-6.1,1.3-7.6,3.9c-1.5,2.6-2.2,6-2.2,10.1v1.3c0,4.2,0.7,7.6,2,10.1
			C1615.7,160.5,1618,161.8,1621.5,161.8z"/>
		<path class="st1" d="M1645.5,163l6.1-1.3v-49.8l-6.8-1.3v-7.6h19.4v26.7c1.5-2.2,3.3-3.9,5.4-5.1c2.1-1.2,4.5-1.8,7.1-1.8
			c4.9,0,8.8,1.6,11.6,4.9c2.8,3.3,4.2,8.3,4.2,15.1v19l6.1,1.3v7.6h-24.2V163l5.5-1.3v-19c0-3.6-0.6-6.2-1.9-7.7
			c-1.3-1.5-3.2-2.3-5.7-2.3c-1.8,0-3.3,0.3-4.6,1c-1.3,0.6-2.4,1.5-3.3,2.7v25.4l5.5,1.3v7.6h-24.2V163z"/>
		<path class="st1" d="M553.2,269.8l6.1-1.3v-49.8l-6.8-1.3v-7.6H572v26.7c1.5-2.2,3.3-3.9,5.4-5.1c2.1-1.2,4.5-1.8,7.1-1.8
			c4.9,0,8.8,1.6,11.6,4.9c2.8,3.3,4.2,8.3,4.2,15.1v19l6.1,1.3v7.6h-24.2v-7.6l5.5-1.3v-19c0-3.6-0.6-6.2-1.9-7.7
			c-1.3-1.5-3.2-2.3-5.7-2.3c-1.8,0-3.3,0.3-4.6,1c-1.3,0.6-2.4,1.5-3.3,2.7v25.4l5.5,1.3v7.6h-24.2V269.8z"/>
		<path class="st1" d="M610,269.8l6.1-1.3v-29.1l-6.8-1.3v-7.6h19.4v38l6.1,1.3v7.6H610V269.8z M628.8,219.2h-12.7v-9.5h12.7V219.2z
			"/>
		<path class="st1" d="M661.5,278.3c-6.8,0-12.2-2.2-16.2-6.5c-4-4.3-6.1-9.8-6.1-16.5v-1.7c0-7,1.9-12.7,5.7-17.2
			c3.8-4.5,9-6.8,15.4-6.7c6.3,0,11.2,1.9,14.8,5.7c3.5,3.8,5.2,9,5.2,15.5v6.9h-28l-0.1,0.3c0.2,3.1,1.3,5.6,3.1,7.6
			c1.8,2,4.3,3,7.5,3c2.8,0,5.1-0.3,7-0.8c1.9-0.6,3.9-1.5,6.1-2.7l3.4,7.8c-1.9,1.5-4.4,2.8-7.5,3.9
			C668.7,277.8,665.3,278.3,661.5,278.3z M660.4,239.4c-2.3,0-4.2,0.9-5.6,2.7c-1.4,1.8-2.2,4.2-2.5,7.1l0.1,0.2H668v-1.1
			c0-2.7-0.6-4.8-1.9-6.4C664.8,240.2,662.9,239.4,660.4,239.4z"/>
		<path class="st1" d="M687.3,269.8l6.1-1.3v-29.1l-6.7-1.3v-7.6h18.5l0.6,6.9c1.1-2.4,2.5-4.3,4.3-5.7c1.7-1.4,3.7-2,6-2
			c0.7,0,1.4,0.1,2.1,0.2c0.7,0.1,1.4,0.2,1.8,0.4l-1.3,11.5l-5.2-0.1c-1.9,0-3.4,0.4-4.6,1.1c-1.2,0.7-2.1,1.8-2.8,3.1v22.8
			l6.1,1.3v7.6h-24.8V269.8z"/>
		<path class="st1" d="M776.1,271.7c-1.5,2.2-3.2,3.8-5.2,4.9c-2,1.1-4.3,1.7-6.9,1.7c-5.8,0-10.3-2.1-13.5-6.3
			c-3.2-4.2-4.8-9.8-4.8-16.7v-0.9c0-7.4,1.6-13.4,4.8-17.9c3.2-4.5,7.7-6.8,13.5-6.8c2.3,0,4.5,0.5,6.3,1.5c1.9,1,3.5,2.5,4.9,4.4
			v-16.8l-6.8-1.3v-7.6h6.8H788v58.8l6.1,1.3v7.6h-17L776.1,271.7z M758.4,255.2c0,4.1,0.7,7.3,2.1,9.7c1.4,2.4,3.6,3.5,6.7,3.5
			c1.9,0,3.5-0.4,4.8-1.1c1.4-0.8,2.5-1.8,3.3-3.3v-19.9c-0.9-1.5-2-2.7-3.3-3.5s-2.9-1.2-4.8-1.2c-3.1,0-5.4,1.4-6.8,4.1
			c-1.4,2.7-2.1,6.3-2.1,10.8V255.2z"/>
		<path class="st1" d="M798.1,253.5c0-7,2-12.7,5.9-17.2c3.9-4.5,9.3-6.7,16.2-6.7c6.9,0,12.4,2.2,16.3,6.7
			c3.9,4.5,5.9,10.2,5.9,17.2v0.9c0,7.1-2,12.8-5.9,17.2c-3.9,4.4-9.3,6.7-16.2,6.7c-7,0-12.4-2.2-16.3-6.7
			c-3.9-4.4-5.9-10.2-5.9-17.2V253.5z M810.8,254.4c0,4.3,0.8,7.7,2.3,10.3c1.5,2.6,3.9,3.9,7.3,3.9c3.3,0,5.7-1.3,7.2-3.9
			s2.3-6,2.3-10.3v-0.9c0-4.2-0.8-7.6-2.3-10.2c-1.5-2.6-3.9-3.9-7.2-3.9s-5.7,1.3-7.2,3.9c-1.5,2.6-2.3,6-2.3,10.2V254.4z"/>
		<path class="st1" d="M914.8,238.1l-4.7,0.6l-9.8,38.7h-10.6l-8.7-27.9h-0.3l-8.7,27.9h-10.5l-9.8-38.7l-4.7-0.6v-7.6h21.3v7.6
			l-5,1l4.4,21.5h0.3l8.8-30.1h8.5l8.9,30.2h0.3l4.4-21.5l-5-1v-7.6h21.3V238.1z"/>
		<path class="st1" d="M918.4,269.8l6.1-1.3v-29.1l-6.7-1.3v-7.6h18.5l0.6,6.7c1.6-2.4,3.5-4.3,5.8-5.6c2.3-1.3,4.8-2,7.7-2
			c4.7,0,8.4,1.5,11.1,4.5c2.7,3,4,7.7,4,14v20.4l6.1,1.3v7.6h-24.2v-7.6l5.4-1.3v-20.4c0-3.2-0.6-5.4-1.9-6.7c-1.3-1.3-3.2-2-5.8-2
			c-1.7,0-3.2,0.3-4.5,1c-1.3,0.7-2.4,1.6-3.3,2.9v25.2l5.1,1.3v7.6h-23.9V269.8z"/>
		<path class="st1" d="M974.2,217.4v-7.6h19.4v58.8l6.1,1.3v7.6h-24.9v-7.6l6.1-1.3v-49.8L974.2,217.4z"/>
		<path class="st1" d="M1003,253.5c0-7,2-12.7,5.9-17.2s9.3-6.7,16.2-6.7c6.9,0,12.4,2.2,16.3,6.7c3.9,4.5,5.9,10.2,5.9,17.2v0.9
			c0,7.1-2,12.8-5.9,17.2s-9.3,6.7-16.2,6.7c-7,0-12.4-2.2-16.3-6.7s-5.9-10.2-5.9-17.2V253.5z M1015.7,254.4
			c0,4.3,0.8,7.7,2.3,10.3c1.5,2.6,3.9,3.9,7.3,3.9c3.3,0,5.7-1.3,7.2-3.9c1.5-2.6,2.3-6,2.3-10.3v-0.9c0-4.2-0.8-7.6-2.3-10.2
			s-3.9-3.9-7.2-3.9c-3.3,0-5.7,1.3-7.2,3.9s-2.3,6-2.3,10.2V254.4z"/>
		<path class="st1" d="M1082.7,277.4c-0.3-0.8-0.7-1.6-0.9-2.4c-0.3-0.8-0.5-1.7-0.6-2.5c-1.5,1.7-3.3,3.1-5.5,4.2
			c-2.2,1.1-4.6,1.6-7.4,1.6c-4.6,0-8.2-1.3-11-3.8c-2.7-2.5-4.1-5.9-4.1-10.2c0-4.4,1.8-7.8,5.3-10.2c3.5-2.4,8.7-3.6,15.5-3.6h6.5
			V246c0-2.3-0.7-4-2-5.2c-1.3-1.2-3.2-1.9-5.8-1.9c-1.4,0-2.7,0.2-3.9,0.5c-1.1,0.3-2,0.7-2.7,1.2l-0.8,5h-9.5l0-10.4
			c2.3-1.6,5-2.9,8-3.9c3-1.1,6.3-1.6,9.8-1.6c5.8,0,10.5,1.4,14.2,4.3c3.6,2.8,5.4,6.9,5.4,12.2v19.4c0,0.7,0,1.4,0,2
			c0,0.6,0.1,1.2,0.2,1.8l3.9,0.5v7.6H1082.7z M1071.7,268.9c1.9,0,3.6-0.4,5.2-1.2s2.8-1.9,3.6-3.1v-7.2h-6.5
			c-2.7,0-4.7,0.6-6.1,1.9c-1.4,1.3-2.1,2.8-2.1,4.5c0,1.6,0.5,2.8,1.5,3.7C1068.5,268.5,1069.9,268.9,1071.7,268.9z"/>
		<path class="st1" d="M1132.1,271.7c-1.5,2.2-3.2,3.8-5.2,4.9c-2,1.1-4.3,1.7-6.9,1.7c-5.8,0-10.3-2.1-13.5-6.3
			c-3.2-4.2-4.8-9.8-4.8-16.7v-0.9c0-7.4,1.6-13.4,4.8-17.9c3.2-4.5,7.7-6.8,13.5-6.8c2.3,0,4.5,0.5,6.3,1.5c1.9,1,3.5,2.5,4.9,4.4
			v-16.8l-6.8-1.3v-7.6h6.8h12.7v58.8l6.1,1.3v7.6h-17L1132.1,271.7z M1114.4,255.2c0,4.1,0.7,7.3,2.1,9.7c1.4,2.4,3.6,3.5,6.7,3.5
			c1.9,0,3.5-0.4,4.8-1.1c1.4-0.8,2.5-1.8,3.3-3.3v-19.9c-0.9-1.5-2-2.7-3.3-3.5s-2.9-1.2-4.8-1.2c-3.1,0-5.4,1.4-6.8,4.1
			c-1.4,2.7-2.1,6.3-2.1,10.8V255.2z"/>
		<path class="st1" d="M1176.7,278.3c-6.8,0-12.2-2.2-16.2-6.5c-4-4.3-6.1-9.8-6.1-16.5v-1.7c0-7,1.9-12.7,5.7-17.2s9-6.8,15.4-6.7
			c6.3,0,11.2,1.9,14.8,5.7c3.5,3.8,5.2,9,5.2,15.5v6.9h-28l-0.1,0.3c0.2,3.1,1.3,5.6,3.1,7.6c1.8,2,4.3,3,7.5,3
			c2.8,0,5.1-0.3,7-0.8c1.9-0.6,3.9-1.5,6.1-2.7l3.4,7.8c-1.9,1.5-4.4,2.8-7.5,3.9C1183.9,277.8,1180.4,278.3,1176.7,278.3z
			 M1175.5,239.4c-2.3,0-4.2,0.9-5.6,2.7c-1.4,1.8-2.2,4.2-2.5,7.1l0.1,0.2h15.5v-1.1c0-2.7-0.6-4.8-1.9-6.4
			C1180,240.2,1178.1,239.4,1175.5,239.4z"/>
		<path class="st1" d="M1200.8,269.8l6.1-1.3v-29.1l-6.7-1.3v-7.6h18.5l0.6,6.7c1.6-2.4,3.5-4.3,5.8-5.6c2.3-1.3,4.8-2,7.7-2
			c4.7,0,8.4,1.5,11.1,4.5c2.7,3,4,7.7,4,14v20.4l6.1,1.3v7.6h-24.2v-7.6l5.4-1.3v-20.4c0-3.2-0.6-5.4-1.9-6.7c-1.3-1.3-3.2-2-5.8-2
			c-1.7,0-3.2,0.3-4.5,1c-1.3,0.7-2.4,1.6-3.3,2.9v25.2l5.1,1.3v7.6h-23.9V269.8z"/>
		<path class="st1" d="M1278.9,260.4c0-3.4,0.9-6.4,2.8-8.8c1.9-2.5,4.7-5.1,8.6-7.7c-2-2.7-3.4-5.1-4.4-7.3c-1-2.2-1.5-4.4-1.5-6.7
			c0-5,1.6-9,4.7-12c3.1-3,7.3-4.5,12.5-4.5c4.6,0,8.3,1.4,11.2,4.3c2.9,2.8,4.3,6.3,4.3,10.3c0,2.8-0.7,5.4-2.1,7.8
			c-1.4,2.3-3.4,4.4-5.8,6.2l-4,2.9l12,14c1-1.7,1.9-3.6,2.4-5.6c0.6-2,0.9-4.2,0.9-6.4h9.5c0,4-0.5,7.7-1.5,11
			c-1,3.4-2.5,6.3-4.5,8.9l9,10.6l-0.1,0.2h-14.1l-3.3-3.9c-2.5,1.6-5,2.8-7.6,3.6c-2.6,0.8-5.4,1.2-8.4,1.2c-6.3,0-11.3-1.7-15.1-5
			C1280.8,270,1278.9,265.7,1278.9,260.4z M1300.2,268.6c1.5,0,3.1-0.2,4.6-0.6c1.5-0.4,3-1,4.4-1.8l-13-15.1l-0.8,0.6
			c-1.5,1.4-2.5,2.7-3,4.1c-0.5,1.3-0.8,2.6-0.8,4c0,2.6,0.8,4.7,2.4,6.4C1295.6,267.8,1297.6,268.6,1300.2,268.6z M1295.8,229.7
			c0,1.2,0.3,2.5,0.9,3.8c0.6,1.3,1.6,2.8,2.8,4.4l3.7-2.4c1.6-1,2.7-2.1,3.3-3.2c0.6-1.1,0.8-2.3,0.8-3.6c0-1.4-0.5-2.7-1.6-3.9
			s-2.4-1.7-4.1-1.7c-1.9,0-3.3,0.6-4.3,1.9C1296.3,226.2,1295.8,227.8,1295.8,229.7z"/>
		<path class="st1" d="M1386.8,277.4c-0.3-0.8-0.7-1.6-0.9-2.4c-0.3-0.8-0.5-1.7-0.6-2.5c-1.5,1.7-3.3,3.1-5.5,4.2
			c-2.2,1.1-4.6,1.6-7.4,1.6c-4.6,0-8.2-1.3-11-3.8c-2.7-2.5-4.1-5.9-4.1-10.2c0-4.4,1.8-7.8,5.3-10.2c3.5-2.4,8.7-3.6,15.5-3.6h6.5
			V246c0-2.3-0.7-4-2-5.2c-1.3-1.2-3.2-1.9-5.8-1.9c-1.4,0-2.7,0.2-3.9,0.5c-1.1,0.3-2,0.7-2.7,1.2l-0.8,5h-9.5l0-10.4
			c2.3-1.6,5-2.9,8-3.9c3-1.1,6.3-1.6,9.8-1.6c5.8,0,10.5,1.4,14.2,4.3c3.6,2.8,5.4,6.9,5.4,12.2v19.4c0,0.7,0,1.4,0,2
			c0,0.6,0.1,1.2,0.2,1.8l3.9,0.5v7.6H1386.8z M1375.8,268.9c1.9,0,3.6-0.4,5.2-1.2s2.8-1.9,3.6-3.1v-7.2h-6.5
			c-2.7,0-4.7,0.6-6.1,1.9c-1.4,1.3-2.1,2.8-2.1,4.5c0,1.6,0.5,2.8,1.5,3.7C1372.6,268.5,1374,268.9,1375.8,268.9z"/>
		<path class="st1" d="M1437.2,271.5c-1.5,2.2-3.4,3.9-5.6,5.1c-2.2,1.2-4.7,1.8-7.6,1.8c-4.9,0-8.8-1.6-11.6-4.8
			c-2.8-3.2-4.2-8.1-4.2-14.8v-19.4l-5.2-1.3v-7.6h5.2h12.7v28.4c0,3.4,0.6,5.9,1.7,7.4c1.1,1.5,2.8,2.2,5.1,2.2c2,0,3.7-0.3,5.2-1
			c1.5-0.7,2.7-1.6,3.6-2.8v-25.3l-5.6-1.3v-7.6h5.6h12.7v38l5.7,1.3v7.6H1438L1437.2,271.5z"/>
		<path class="st1" d="M1498.1,246.6h-8.5l-1.3-5.9c-0.9-0.7-2-1.3-3.3-1.7c-1.3-0.5-2.8-0.7-4.4-0.7c-2.2,0-4,0.5-5.3,1.5
			c-1.3,1-2,2.2-2,3.8c0,1.4,0.6,2.6,1.9,3.5c1.2,0.9,3.7,1.8,7.5,2.5c5.8,1.2,10.1,2.9,12.9,5.1c2.8,2.2,4.2,5.3,4.2,9.3
			c0,4.2-1.8,7.7-5.4,10.3s-8.4,4-14.3,4c-3.6,0-6.9-0.5-10-1.6c-3-1.1-5.7-2.6-8-4.5l-0.1-10.5h8.9l1.7,6.1
			c0.8,0.6,1.8,1.1,3.1,1.4c1.3,0.3,2.7,0.5,4.1,0.5c2.6,0,4.5-0.5,5.9-1.4s2-2.2,2-3.8c0-1.4-0.7-2.6-2-3.6c-1.4-1-3.9-1.9-7.5-2.7
			c-5.5-1.1-9.7-2.8-12.5-5c-2.8-2.2-4.2-5.2-4.2-9c0-3.9,1.6-7.3,4.9-10.2c3.2-2.8,7.9-4.3,13.8-4.3c3.6,0,7.1,0.5,10.3,1.5
			c3.3,1,5.8,2.2,7.7,3.8L1498.1,246.6z"/>
		<path class="st1" d="M1536,271.7c-1.5,2.2-3.2,3.8-5.2,4.9c-2,1.1-4.3,1.7-6.9,1.7c-5.8,0-10.3-2.1-13.5-6.3
			c-3.2-4.2-4.8-9.8-4.8-16.7v-0.9c0-7.4,1.6-13.4,4.8-17.9c3.2-4.5,7.7-6.8,13.5-6.8c2.3,0,4.5,0.5,6.3,1.5c1.9,1,3.5,2.5,4.9,4.4
			v-16.8l-6.8-1.3v-7.6h6.8h12.7v58.8l6.1,1.3v7.6h-17L1536,271.7z M1518.3,255.2c0,4.1,0.7,7.3,2.1,9.7c1.4,2.4,3.6,3.5,6.7,3.5
			c1.9,0,3.5-0.4,4.8-1.1c1.4-0.8,2.5-1.8,3.3-3.3v-19.9c-0.9-1.5-2-2.7-3.3-3.5s-2.9-1.2-4.8-1.2c-3.1,0-5.4,1.4-6.8,4.1
			c-1.4,2.7-2.1,6.3-2.1,10.8V255.2z"/>
		<path class="st1" d="M1559,269.8l6.1-1.3v-29.1l-6.7-1.3v-7.6h18.5l0.6,6.9c1.1-2.4,2.5-4.3,4.3-5.7c1.7-1.4,3.7-2,6-2
			c0.7,0,1.4,0.1,2.1,0.2c0.7,0.1,1.4,0.2,1.8,0.4l-1.3,11.5l-5.2-0.1c-1.9,0-3.4,0.4-4.6,1.1c-1.2,0.7-2.1,1.8-2.8,3.1v22.8
			l6.1,1.3v7.6H1559V269.8z"/>
		<path class="st1" d="M1628.3,271.5c-1.5,2.2-3.4,3.9-5.6,5.1c-2.2,1.2-4.7,1.8-7.6,1.8c-4.9,0-8.8-1.6-11.6-4.8
			c-2.8-3.2-4.2-8.1-4.2-14.8v-19.4l-5.2-1.3v-7.6h5.2h12.7v28.4c0,3.4,0.6,5.9,1.7,7.4c1.1,1.5,2.8,2.2,5.1,2.2c2,0,3.7-0.3,5.2-1
			c1.5-0.7,2.7-1.6,3.6-2.8v-25.3l-5.6-1.3v-7.6h5.6h12.7v38l5.7,1.3v7.6h-16.8L1628.3,271.5z"/>
		<path class="st1" d="M1672.9,268.6c2.3,0,4.1-0.7,5.4-2c1.4-1.3,2-3.1,2-5.3h11.5l0.1,0.3c0.1,4.7-1.7,8.7-5.3,11.9
			c-3.7,3.2-8.2,4.8-13.7,4.8c-7,0-12.4-2.2-16.2-6.6c-3.8-4.4-5.7-10.1-5.7-17v-1.3c0-6.9,1.9-12.6,5.8-17
			c3.9-4.5,9.4-6.7,16.6-6.7c3.8,0,7.2,0.6,10.2,1.7s5.5,2.7,7.5,4.8l0.2,12.5h-10.3l-2.1-7.3c-0.6-0.5-1.4-1-2.3-1.4
			c-0.9-0.4-2-0.5-3.2-0.5c-3.6,0-6.1,1.3-7.6,3.9c-1.5,2.6-2.2,6-2.2,10.1v1.3c0,4.2,0.7,7.6,2,10.1
			C1667.1,267.3,1669.5,268.6,1672.9,268.6z"/>
		<path class="st1" d="M1696.4,217.4v-7.6h19.4v39.2h2.8l7.3-10.3l-4.1-0.6v-7.6h23.1v7.6l-5.6,1.3l-8.5,11.6l11.8,17.8l4.8,1v7.6
			h-21.7v-7.6l2.6-0.4l-7.2-11.6h-5.4v10.8l5.5,1.3v7.6H1697v-7.6l6.1-1.3v-49.8L1696.4,217.4z"/>
		<path class="st1" d="M1773.5,278.3c-6.8,0-12.2-2.2-16.2-6.5c-4-4.3-6.1-9.8-6.1-16.5v-1.7c0-7,1.9-12.7,5.7-17.2s9-6.8,15.4-6.7
			c6.3,0,11.2,1.9,14.8,5.7c3.5,3.8,5.2,9,5.2,15.5v6.9h-28l-0.1,0.3c0.2,3.1,1.3,5.6,3.1,7.6c1.8,2,4.3,3,7.5,3
			c2.8,0,5.1-0.3,7-0.8c1.9-0.6,3.9-1.5,6.1-2.7l3.4,7.8c-1.9,1.5-4.4,2.8-7.5,3.9C1780.7,277.8,1777.3,278.3,1773.5,278.3z
			 M1772.4,239.4c-2.3,0-4.2,0.9-5.6,2.7c-1.4,1.8-2.2,4.2-2.5,7.1l0.1,0.2h15.5v-1.1c0-2.7-0.6-4.8-1.9-6.4
			C1776.8,240.2,1774.9,239.4,1772.4,239.4z"/>
		<path class="st1" d="M1797.7,269.8l6.1-1.3v-29.1l-6.7-1.3v-7.6h18.5l0.6,6.7c1.6-2.4,3.5-4.3,5.8-5.6c2.3-1.3,4.8-2,7.7-2
			c4.7,0,8.4,1.5,11.1,4.5c2.7,3,4,7.7,4,14v20.4l6.1,1.3v7.6h-24.2v-7.6l5.4-1.3v-20.4c0-3.2-0.6-5.4-1.9-6.7c-1.3-1.3-3.2-2-5.8-2
			c-1.7,0-3.2,0.3-4.5,1c-1.3,0.7-2.4,1.6-3.3,2.9v25.2l5.1,1.3v7.6h-23.9V269.8z"/>
	</g>
</g>
</svg>
